study_accession	sample_accession	sample_alias	secondary_sample_accession	experiment_accession	run_accession	tax_id	scientific_name	instrument_model	library_layout	fastq_ftp	fastq_galaxy	submitted_ftp	submitted_galaxy	sra_ftp	sra_galaxy	cram_index_ftp	cram_index_galaxy
PRJEB11591	SAMEA4065671	SNU-GMI-FA01	ERS1236781	ERX1589605	ERR1518626	9606	Homo sapiens	Illumina HiSeq 2000	PAIRED	ftp.sra.ebi.ac.uk/vol1/fastq/ERR151/006/ERR1518626/ERR1518626_1.fastq.gz;ftp.sra.ebi.ac.uk/vol1/fastq/ERR151/006/ERR1518626/ERR1518626_2.fastq.gz	ftp.sra.ebi.ac.uk/vol1/fastq/ERR151/006/ERR1518626/ERR1518626_1.fastq.gz;ftp.sra.ebi.ac.uk/vol1/fastq/ERR151/006/ERR1518626/ERR1518626_2.fastq.gz	ftp.sra.ebi.ac.uk/vol1/ERA673/ERA673513/fastq/FA01_sequence_R1.fastq.gz;ftp.sra.ebi.ac.uk/vol1/ERA673/ERA673513/fastq/FA01_sequence_R2.fastq.gz	ftp.sra.ebi.ac.uk/vol1/ERA673/ERA673513/fastq/FA01_sequence_R1.fastq.gz;ftp.sra.ebi.ac.uk/vol1/ERA673/ERA673513/fastq/FA01_sequence_R2.fastq.gz	ftp.sra.ebi.ac.uk/vol1/err/ERR151/006/ERR1518626	ftp.sra.ebi.ac.uk/vol1/err/ERR151/006/ERR1518626		
PRJEB11591	SAMEA4065673	SNU-GMI-FA02	ERS1236783	ERX1589607	ERR1518628	9606	Homo sapiens	Illumina HiSeq 2000	PAIRED	ftp.sra.ebi.ac.uk/vol1/fastq/ERR151/008/ERR1518628/ERR1518628_1.fastq.gz;ftp.sra.ebi.ac.uk/vol1/fastq/ERR151/008/ERR1518628/ERR1518628_2.fastq.gz	ftp.sra.ebi.ac.uk/vol1/fastq/ERR151/008/ERR1518628/ERR1518628_1.fastq.gz;ftp.sra.ebi.ac.uk/vol1/fastq/ERR151/008/ERR1518628/ERR1518628_2.fastq.gz	ftp.sra.ebi.ac.uk/vol1/ERA673/ERA673513/fastq/FA02_sequence_R1.fastq.gz;ftp.sra.ebi.ac.uk/vol1/ERA673/ERA673513/fastq/FA02_sequence_R2.fastq.gz	ftp.sra.ebi.ac.uk/vol1/ERA673/ERA673513/fastq/FA02_sequence_R1.fastq.gz;ftp.sra.ebi.ac.uk/vol1/ERA673/ERA673513/fastq/FA02_sequence_R2.fastq.gz	ftp.sra.ebi.ac.uk/vol1/err/ERR151/008/ERR1518628	ftp.sra.ebi.ac.uk/vol1/err/ERR151/008/ERR1518628		
PRJEB11591	SAMEA4065675	SNU-GMI-FA03	ERS1236785	ERX1589609	ERR1518630	9606	Homo sapiens	Illumina HiSeq 2000	PAIRED	ftp.sra.ebi.ac.uk/vol1/fastq/ERR151/000/ERR1518630/ERR1518630_1.fastq.gz;ftp.sra.ebi.ac.uk/vol1/fastq/ERR151/000/ERR1518630/ERR1518630_2.fastq.gz	ftp.sra.ebi.ac.uk/vol1/fastq/ERR151/000/ERR1518630/ERR1518630_1.fastq.gz;ftp.sra.ebi.ac.uk/vol1/fastq/ERR151/000/ERR1518630/ERR1518630_2.fastq.gz	ftp.sra.ebi.ac.uk/vol1/ERA673/ERA673513/fastq/FA03_sequence_R1.fastq.gz;ftp.sra.ebi.ac.uk/vol1/ERA673/ERA673513/fastq/FA03_sequence_R2.fastq.gz	ftp.sra.ebi.ac.uk/vol1/ERA673/ERA673513/fastq/FA03_sequence_R1.fastq.gz;ftp.sra.ebi.ac.uk/vol1/ERA673/ERA673513/fastq/FA03_sequence_R2.fastq.gz	ftp.sra.ebi.ac.uk/vol1/err/ERR151/000/ERR1518630	ftp.sra.ebi.ac.uk/vol1/err/ERR151/000/ERR1518630		
PRJEB11591	SAMEA4065677	SNU-GMI-FA04	ERS1236787	ERX1589611	ERR1518632	9606	Homo sapiens	Illumina HiSeq 2000	PAIRED	ftp.sra.ebi.ac.uk/vol1/fastq/ERR151/002/ERR1518632/ERR1518632_1.fastq.gz;ftp.sra.ebi.ac.uk/vol1/fastq/ERR151/002/ERR1518632/ERR1518632_2.fastq.gz	ftp.sra.ebi.ac.uk/vol1/fastq/ERR151/002/ERR1518632/ERR1518632_1.fastq.gz;ftp.sra.ebi.ac.uk/vol1/fastq/ERR151/002/ERR1518632/ERR1518632_2.fastq.gz	ftp.sra.ebi.ac.uk/vol1/ERA673/ERA673513/fastq/FA04_sequence_R1.fastq.gz;ftp.sra.ebi.ac.uk/vol1/ERA673/ERA673513/fastq/FA04_sequence_R2.fastq.gz	ftp.sra.ebi.ac.uk/vol1/ERA673/ERA673513/fastq/FA04_sequence_R1.fastq.gz;ftp.sra.ebi.ac.uk/vol1/ERA673/ERA673513/fastq/FA04_sequence_R2.fastq.gz	ftp.sra.ebi.ac.uk/vol1/err/ERR151/002/ERR1518632	ftp.sra.ebi.ac.uk/vol1/err/ERR151/002/ERR1518632		
PRJEB11591	SAMEA4065679	SNU-GMI-FA05	ERS1236789	ERX1589613	ERR1518634	9606	Homo sapiens	Illumina HiSeq 2000	PAIRED	ftp.sra.ebi.ac.uk/vol1/fastq/ERR151/004/ERR1518634/ERR1518634_1.fastq.gz;ftp.sra.ebi.ac.uk/vol1/fastq/ERR151/004/ERR1518634/ERR1518634_2.fastq.gz	ftp.sra.ebi.ac.uk/vol1/fastq/ERR151/004/ERR1518634/ERR1518634_1.fastq.gz;ftp.sra.ebi.ac.uk/vol1/fastq/ERR151/004/ERR1518634/ERR1518634_2.fastq.gz	ftp.sra.ebi.ac.uk/vol1/ERA673/ERA673513/fastq/FA05_sequence_R1.fastq.gz;ftp.sra.ebi.ac.uk/vol1/ERA673/ERA673513/fastq/FA05_sequence_R2.fastq.gz	ftp.sra.ebi.ac.uk/vol1/ERA673/ERA673513/fastq/FA05_sequence_R1.fastq.gz;ftp.sra.ebi.ac.uk/vol1/ERA673/ERA673513/fastq/FA05_sequence_R2.fastq.gz	ftp.sra.ebi.ac.uk/vol1/err/ERR151/004/ERR1518634	ftp.sra.ebi.ac.uk/vol1/err/ERR151/004/ERR1518634		
PRJEB11591	SAMEA4065681	SNU-GMI-FA06	ERS1236791	ERX1589615	ERR1518636	9606	Homo sapiens	Illumina HiSeq 2000	PAIRED	ftp.sra.ebi.ac.uk/vol1/fastq/ERR151/006/ERR1518636/ERR1518636_1.fastq.gz;ftp.sra.ebi.ac.uk/vol1/fastq/ERR151/006/ERR1518636/ERR1518636_2.fastq.gz	ftp.sra.ebi.ac.uk/vol1/fastq/ERR151/006/ERR1518636/ERR1518636_1.fastq.gz;ftp.sra.ebi.ac.uk/vol1/fastq/ERR151/006/ERR1518636/ERR1518636_2.fastq.gz	ftp.sra.ebi.ac.uk/vol1/ERA673/ERA673513/fastq/FA06_sequence_R1.fastq.gz;ftp.sra.ebi.ac.uk/vol1/ERA673/ERA673513/fastq/FA06_sequence_R2.fastq.gz	ftp.sra.ebi.ac.uk/vol1/ERA673/ERA673513/fastq/FA06_sequence_R1.fastq.gz;ftp.sra.ebi.ac.uk/vol1/ERA673/ERA673513/fastq/FA06_sequence_R2.fastq.gz	ftp.sra.ebi.ac.uk/vol1/err/ERR151/006/ERR1518636	ftp.sra.ebi.ac.uk/vol1/err/ERR151/006/ERR1518636		
PRJEB11591	SAMEA4065683	SNU-GMI-FA07	ERS1236793	ERX1589617	ERR1518638	9606	Homo sapiens	Illumina HiSeq 2000	PAIRED	ftp.sra.ebi.ac.uk/vol1/fastq/ERR151/008/ERR1518638/ERR1518638_1.fastq.gz;ftp.sra.ebi.ac.uk/vol1/fastq/ERR151/008/ERR1518638/ERR1518638_2.fastq.gz	ftp.sra.ebi.ac.uk/vol1/fastq/ERR151/008/ERR1518638/ERR1518638_1.fastq.gz;ftp.sra.ebi.ac.uk/vol1/fastq/ERR151/008/ERR1518638/ERR1518638_2.fastq.gz	ftp.sra.ebi.ac.uk/vol1/ERA673/ERA673513/fastq/FA07_sequence_R1.fastq.gz;ftp.sra.ebi.ac.uk/vol1/ERA673/ERA673513/fastq/FA07_sequence_R2.fastq.gz	ftp.sra.ebi.ac.uk/vol1/ERA673/ERA673513/fastq/FA07_sequence_R1.fastq.gz;ftp.sra.ebi.ac.uk/vol1/ERA673/ERA673513/fastq/FA07_sequence_R2.fastq.gz	ftp.sra.ebi.ac.uk/vol1/err/ERR151/008/ERR1518638	ftp.sra.ebi.ac.uk/vol1/err/ERR151/008/ERR1518638		
PRJEB11591	SAMEA4065685	SNU-GMI-FA08	ERS1236795	ERX1589619	ERR1518640	9606	Homo sapiens	Illumina HiSeq 2000	PAIRED	ftp.sra.ebi.ac.uk/vol1/fastq/ERR151/000/ERR1518640/ERR1518640_1.fastq.gz;ftp.sra.ebi.ac.uk/vol1/fastq/ERR151/000/ERR1518640/ERR1518640_2.fastq.gz	ftp.sra.ebi.ac.uk/vol1/fastq/ERR151/000/ERR1518640/ERR1518640_1.fastq.gz;ftp.sra.ebi.ac.uk/vol1/fastq/ERR151/000/ERR1518640/ERR1518640_2.fastq.gz	ftp.sra.ebi.ac.uk/vol1/ERA673/ERA673513/fastq/FA08_sequence_R1.fastq.gz;ftp.sra.ebi.ac.uk/vol1/ERA673/ERA673513/fastq/FA08_sequence_R2.fastq.gz	ftp.sra.ebi.ac.uk/vol1/ERA673/ERA673513/fastq/FA08_sequence_R1.fastq.gz;ftp.sra.ebi.ac.uk/vol1/ERA673/ERA673513/fastq/FA08_sequence_R2.fastq.gz	ftp.sra.ebi.ac.uk/vol1/err/ERR151/000/ERR1518640	ftp.sra.ebi.ac.uk/vol1/err/ERR151/000/ERR1518640		
PRJEB11591	SAMEA4065687	SNU-GMI-FA09	ERS1236797	ERX1589621	ERR1518642	9606	Homo sapiens	Illumina HiSeq 2000	PAIRED	ftp.sra.ebi.ac.uk/vol1/fastq/ERR151/002/ERR1518642/ERR1518642_1.fastq.gz;ftp.sra.ebi.ac.uk/vol1/fastq/ERR151/002/ERR1518642/ERR1518642_2.fastq.gz	ftp.sra.ebi.ac.uk/vol1/fastq/ERR151/002/ERR1518642/ERR1518642_1.fastq.gz;ftp.sra.ebi.ac.uk/vol1/fastq/ERR151/002/ERR1518642/ERR1518642_2.fastq.gz	ftp.sra.ebi.ac.uk/vol1/ERA673/ERA673513/fastq/FA09_sequence_R1.fastq.gz;ftp.sra.ebi.ac.uk/vol1/ERA673/ERA673513/fastq/FA09_sequence_R2.fastq.gz	ftp.sra.ebi.ac.uk/vol1/ERA673/ERA673513/fastq/FA09_sequence_R1.fastq.gz;ftp.sra.ebi.ac.uk/vol1/ERA673/ERA673513/fastq/FA09_sequence_R2.fastq.gz	ftp.sra.ebi.ac.uk/vol1/err/ERR151/002/ERR1518642	ftp.sra.ebi.ac.uk/vol1/err/ERR151/002/ERR1518642		
PRJEB11591	SAMEA4065689	SNU-GMI-FA10	ERS1236799	ERX1589623	ERR1518644	9606	Homo sapiens	Illumina HiSeq 2000	PAIRED	ftp.sra.ebi.ac.uk/vol1/fastq/ERR151/004/ERR1518644/ERR1518644_1.fastq.gz;ftp.sra.ebi.ac.uk/vol1/fastq/ERR151/004/ERR1518644/ERR1518644_2.fastq.gz	ftp.sra.ebi.ac.uk/vol1/fastq/ERR151/004/ERR1518644/ERR1518644_1.fastq.gz;ftp.sra.ebi.ac.uk/vol1/fastq/ERR151/004/ERR1518644/ERR1518644_2.fastq.gz	ftp.sra.ebi.ac.uk/vol1/ERA673/ERA673513/fastq/FA10_sequence_R1.fastq.gz;ftp.sra.ebi.ac.uk/vol1/ERA673/ERA673513/fastq/FA10_sequence_R2.fastq.gz	ftp.sra.ebi.ac.uk/vol1/ERA673/ERA673513/fastq/FA10_sequence_R1.fastq.gz;ftp.sra.ebi.ac.uk/vol1/ERA673/ERA673513/fastq/FA10_sequence_R2.fastq.gz	ftp.sra.ebi.ac.uk/vol1/err/ERR151/004/ERR1518644	ftp.sra.ebi.ac.uk/vol1/err/ERR151/004/ERR1518644		
PRJEB11591	SAMEA4065691	SNU-GMI-FA11	ERS1236801	ERX1589625	ERR1518646	9606	Homo sapiens	Illumina HiSeq 2000	PAIRED	ftp.sra.ebi.ac.uk/vol1/fastq/ERR151/006/ERR1518646/ERR1518646_1.fastq.gz;ftp.sra.ebi.ac.uk/vol1/fastq/ERR151/006/ERR1518646/ERR1518646_2.fastq.gz	ftp.sra.ebi.ac.uk/vol1/fastq/ERR151/006/ERR1518646/ERR1518646_1.fastq.gz;ftp.sra.ebi.ac.uk/vol1/fastq/ERR151/006/ERR1518646/ERR1518646_2.fastq.gz	ftp.sra.ebi.ac.uk/vol1/ERA673/ERA673513/fastq/FA11_sequence_R1.fastq.gz;ftp.sra.ebi.ac.uk/vol1/ERA673/ERA673513/fastq/FA11_sequence_R2.fastq.gz	ftp.sra.ebi.ac.uk/vol1/ERA673/ERA673513/fastq/FA11_sequence_R1.fastq.gz;ftp.sra.ebi.ac.uk/vol1/ERA673/ERA673513/fastq/FA11_sequence_R2.fastq.gz	ftp.sra.ebi.ac.uk/vol1/err/ERR151/006/ERR1518646	ftp.sra.ebi.ac.uk/vol1/err/ERR151/006/ERR1518646		
PRJEB11591	SAMEA4065692	SNU-GMI-FA12	ERS1236802	ERX1589626	ERR1518647	9606	Homo sapiens	Illumina HiSeq 2000	PAIRED	ftp.sra.ebi.ac.uk/vol1/fastq/ERR151/007/ERR1518647/ERR1518647_1.fastq.gz;ftp.sra.ebi.ac.uk/vol1/fastq/ERR151/007/ERR1518647/ERR1518647_2.fastq.gz	ftp.sra.ebi.ac.uk/vol1/fastq/ERR151/007/ERR1518647/ERR1518647_1.fastq.gz;ftp.sra.ebi.ac.uk/vol1/fastq/ERR151/007/ERR1518647/ERR1518647_2.fastq.gz	ftp.sra.ebi.ac.uk/vol1/ERA673/ERA673513/fastq/FA12_sequence_R1.fastq.gz;ftp.sra.ebi.ac.uk/vol1/ERA673/ERA673513/fastq/FA12_sequence_R2.fastq.gz	ftp.sra.ebi.ac.uk/vol1/ERA673/ERA673513/fastq/FA12_sequence_R1.fastq.gz;ftp.sra.ebi.ac.uk/vol1/ERA673/ERA673513/fastq/FA12_sequence_R2.fastq.gz	ftp.sra.ebi.ac.uk/vol1/err/ERR151/007/ERR1518647	ftp.sra.ebi.ac.uk/vol1/err/ERR151/007/ERR1518647		
PRJEB11591	SAMEA4065694	SNU-GMI-FA13	ERS1236804	ERX1589628	ERR1518649	9606	Homo sapiens	Illumina HiSeq 2000	PAIRED	ftp.sra.ebi.ac.uk/vol1/fastq/ERR151/009/ERR1518649/ERR1518649_1.fastq.gz;ftp.sra.ebi.ac.uk/vol1/fastq/ERR151/009/ERR1518649/ERR1518649_2.fastq.gz	ftp.sra.ebi.ac.uk/vol1/fastq/ERR151/009/ERR1518649/ERR1518649_1.fastq.gz;ftp.sra.ebi.ac.uk/vol1/fastq/ERR151/009/ERR1518649/ERR1518649_2.fastq.gz	ftp.sra.ebi.ac.uk/vol1/ERA673/ERA673513/fastq/FA13_sequence_R1.fastq.gz;ftp.sra.ebi.ac.uk/vol1/ERA673/ERA673513/fastq/FA13_sequence_R2.fastq.gz	ftp.sra.ebi.ac.uk/vol1/ERA673/ERA673513/fastq/FA13_sequence_R1.fastq.gz;ftp.sra.ebi.ac.uk/vol1/ERA673/ERA673513/fastq/FA13_sequence_R2.fastq.gz	ftp.sra.ebi.ac.uk/vol1/err/ERR151/009/ERR1518649	ftp.sra.ebi.ac.uk/vol1/err/ERR151/009/ERR1518649		
PRJEB11591	SAMEA4065695	SNU-GMI-FA14	ERS1236805	ERX1589629	ERR1518650	9606	Homo sapiens	Illumina HiSeq 2000	PAIRED	ftp.sra.ebi.ac.uk/vol1/fastq/ERR151/000/ERR1518650/ERR1518650_1.fastq.gz;ftp.sra.ebi.ac.uk/vol1/fastq/ERR151/000/ERR1518650/ERR1518650_2.fastq.gz	ftp.sra.ebi.ac.uk/vol1/fastq/ERR151/000/ERR1518650/ERR1518650_1.fastq.gz;ftp.sra.ebi.ac.uk/vol1/fastq/ERR151/000/ERR1518650/ERR1518650_2.fastq.gz	ftp.sra.ebi.ac.uk/vol1/ERA673/ERA673513/fastq/FA14_sequence_R1.fastq.gz;ftp.sra.ebi.ac.uk/vol1/ERA673/ERA673513/fastq/FA14_sequence_R2.fastq.gz	ftp.sra.ebi.ac.uk/vol1/ERA673/ERA673513/fastq/FA14_sequence_R1.fastq.gz;ftp.sra.ebi.ac.uk/vol1/ERA673/ERA673513/fastq/FA14_sequence_R2.fastq.gz	ftp.sra.ebi.ac.uk/vol1/err/ERR151/000/ERR1518650	ftp.sra.ebi.ac.uk/vol1/err/ERR151/000/ERR1518650		
PRJEB11591	SAMEA4065696	SNU-GMI-FA15	ERS1236806	ERX1589630	ERR1518651	9606	Homo sapiens	Illumina HiSeq 2000	PAIRED	ftp.sra.ebi.ac.uk/vol1/fastq/ERR151/001/ERR1518651/ERR1518651_1.fastq.gz;ftp.sra.ebi.ac.uk/vol1/fastq/ERR151/001/ERR1518651/ERR1518651_2.fastq.gz	ftp.sra.ebi.ac.uk/vol1/fastq/ERR151/001/ERR1518651/ERR1518651_1.fastq.gz;ftp.sra.ebi.ac.uk/vol1/fastq/ERR151/001/ERR1518651/ERR1518651_2.fastq.gz	ftp.sra.ebi.ac.uk/vol1/ERA673/ERA673513/fastq/FA15_sequence_R1.fastq.gz;ftp.sra.ebi.ac.uk/vol1/ERA673/ERA673513/fastq/FA15_sequence_R2.fastq.gz	ftp.sra.ebi.ac.uk/vol1/ERA673/ERA673513/fastq/FA15_sequence_R1.fastq.gz;ftp.sra.ebi.ac.uk/vol1/ERA673/ERA673513/fastq/FA15_sequence_R2.fastq.gz	ftp.sra.ebi.ac.uk/vol1/err/ERR151/001/ERR1518651	ftp.sra.ebi.ac.uk/vol1/err/ERR151/001/ERR1518651		
PRJEB11591	SAMEA4065697	SNU-GMI-FA16	ERS1236807	ERX1589631	ERR1518652	9606	Homo sapiens	Illumina HiSeq 2000	PAIRED	ftp.sra.ebi.ac.uk/vol1/fastq/ERR151/002/ERR1518652/ERR1518652_1.fastq.gz;ftp.sra.ebi.ac.uk/vol1/fastq/ERR151/002/ERR1518652/ERR1518652_2.fastq.gz	ftp.sra.ebi.ac.uk/vol1/fastq/ERR151/002/ERR1518652/ERR1518652_1.fastq.gz;ftp.sra.ebi.ac.uk/vol1/fastq/ERR151/002/ERR1518652/ERR1518652_2.fastq.gz	ftp.sra.ebi.ac.uk/vol1/ERA673/ERA673513/fastq/FA16_sequence_R1.fastq.gz;ftp.sra.ebi.ac.uk/vol1/ERA673/ERA673513/fastq/FA16_sequence_R2.fastq.gz	ftp.sra.ebi.ac.uk/vol1/ERA673/ERA673513/fastq/FA16_sequence_R1.fastq.gz;ftp.sra.ebi.ac.uk/vol1/ERA673/ERA673513/fastq/FA16_sequence_R2.fastq.gz	ftp.sra.ebi.ac.uk/vol1/err/ERR151/002/ERR1518652	ftp.sra.ebi.ac.uk/vol1/err/ERR151/002/ERR1518652		
PRJEB11591	SAMEA4065699	SNU-GMI-FA17	ERS1236809	ERX1589633	ERR1518654	9606	Homo sapiens	Illumina HiSeq 2000	PAIRED	ftp.sra.ebi.ac.uk/vol1/fastq/ERR151/004/ERR1518654/ERR1518654_1.fastq.gz;ftp.sra.ebi.ac.uk/vol1/fastq/ERR151/004/ERR1518654/ERR1518654_2.fastq.gz	ftp.sra.ebi.ac.uk/vol1/fastq/ERR151/004/ERR1518654/ERR1518654_1.fastq.gz;ftp.sra.ebi.ac.uk/vol1/fastq/ERR151/004/ERR1518654/ERR1518654_2.fastq.gz	ftp.sra.ebi.ac.uk/vol1/ERA673/ERA673513/fastq/FA17_sequence_R1.fastq.gz;ftp.sra.ebi.ac.uk/vol1/ERA673/ERA673513/fastq/FA17_sequence_R2.fastq.gz	ftp.sra.ebi.ac.uk/vol1/ERA673/ERA673513/fastq/FA17_sequence_R1.fastq.gz;ftp.sra.ebi.ac.uk/vol1/ERA673/ERA673513/fastq/FA17_sequence_R2.fastq.gz	ftp.sra.ebi.ac.uk/vol1/err/ERR151/004/ERR1518654	ftp.sra.ebi.ac.uk/vol1/err/ERR151/004/ERR1518654		
PRJEB11591	SAMEA4065701	SNU-GMI-FA18	ERS1236811	ERX1589635	ERR1518656	9606	Homo sapiens	Illumina HiSeq 2000	PAIRED	ftp.sra.ebi.ac.uk/vol1/fastq/ERR151/006/ERR1518656/ERR1518656_1.fastq.gz;ftp.sra.ebi.ac.uk/vol1/fastq/ERR151/006/ERR1518656/ERR1518656_2.fastq.gz	ftp.sra.ebi.ac.uk/vol1/fastq/ERR151/006/ERR1518656/ERR1518656_1.fastq.gz;ftp.sra.ebi.ac.uk/vol1/fastq/ERR151/006/ERR1518656/ERR1518656_2.fastq.gz	ftp.sra.ebi.ac.uk/vol1/ERA673/ERA673513/fastq/FA18_sequence_R1.fastq.gz;ftp.sra.ebi.ac.uk/vol1/ERA673/ERA673513/fastq/FA18_sequence_R2.fastq.gz	ftp.sra.ebi.ac.uk/vol1/ERA673/ERA673513/fastq/FA18_sequence_R1.fastq.gz;ftp.sra.ebi.ac.uk/vol1/ERA673/ERA673513/fastq/FA18_sequence_R2.fastq.gz	ftp.sra.ebi.ac.uk/vol1/err/ERR151/006/ERR1518656	ftp.sra.ebi.ac.uk/vol1/err/ERR151/006/ERR1518656		
PRJEB11591	SAMEA4065703	SNU-GMI-FA19	ERS1236813	ERX1589637	ERR1518658	9606	Homo sapiens	Illumina HiSeq 2000	PAIRED	ftp.sra.ebi.ac.uk/vol1/fastq/ERR151/008/ERR1518658/ERR1518658_1.fastq.gz;ftp.sra.ebi.ac.uk/vol1/fastq/ERR151/008/ERR1518658/ERR1518658_2.fastq.gz	ftp.sra.ebi.ac.uk/vol1/fastq/ERR151/008/ERR1518658/ERR1518658_1.fastq.gz;ftp.sra.ebi.ac.uk/vol1/fastq/ERR151/008/ERR1518658/ERR1518658_2.fastq.gz	ftp.sra.ebi.ac.uk/vol1/ERA673/ERA673513/fastq/FA19_sequence_R1.fastq.gz;ftp.sra.ebi.ac.uk/vol1/ERA673/ERA673513/fastq/FA19_sequence_R2.fastq.gz	ftp.sra.ebi.ac.uk/vol1/ERA673/ERA673513/fastq/FA19_sequence_R1.fastq.gz;ftp.sra.ebi.ac.uk/vol1/ERA673/ERA673513/fastq/FA19_sequence_R2.fastq.gz	ftp.sra.ebi.ac.uk/vol1/err/ERR151/008/ERR1518658	ftp.sra.ebi.ac.uk/vol1/err/ERR151/008/ERR1518658		
PRJEB11591	SAMEA4065705	SNU-GMI-FA20	ERS1236815	ERX1589639	ERR1518660	9606	Homo sapiens	Illumina HiSeq 2000	PAIRED	ftp.sra.ebi.ac.uk/vol1/fastq/ERR151/000/ERR1518660/ERR1518660_1.fastq.gz;ftp.sra.ebi.ac.uk/vol1/fastq/ERR151/000/ERR1518660/ERR1518660_2.fastq.gz	ftp.sra.ebi.ac.uk/vol1/fastq/ERR151/000/ERR1518660/ERR1518660_1.fastq.gz;ftp.sra.ebi.ac.uk/vol1/fastq/ERR151/000/ERR1518660/ERR1518660_2.fastq.gz	ftp.sra.ebi.ac.uk/vol1/ERA673/ERA673513/fastq/FA20_sequence_R1.fastq.gz;ftp.sra.ebi.ac.uk/vol1/ERA673/ERA673513/fastq/FA20_sequence_R2.fastq.gz	ftp.sra.ebi.ac.uk/vol1/ERA673/ERA673513/fastq/FA20_sequence_R1.fastq.gz;ftp.sra.ebi.ac.uk/vol1/ERA673/ERA673513/fastq/FA20_sequence_R2.fastq.gz	ftp.sra.ebi.ac.uk/vol1/err/ERR151/000/ERR1518660	ftp.sra.ebi.ac.uk/vol1/err/ERR151/000/ERR1518660		
PRJEB11591	SAMEA4065707	SNU-GMI-FA21	ERS1236817	ERX1589641	ERR1518662	9606	Homo sapiens	Illumina HiSeq 2000	PAIRED	ftp.sra.ebi.ac.uk/vol1/fastq/ERR151/002/ERR1518662/ERR1518662_1.fastq.gz;ftp.sra.ebi.ac.uk/vol1/fastq/ERR151/002/ERR1518662/ERR1518662_2.fastq.gz	ftp.sra.ebi.ac.uk/vol1/fastq/ERR151/002/ERR1518662/ERR1518662_1.fastq.gz;ftp.sra.ebi.ac.uk/vol1/fastq/ERR151/002/ERR1518662/ERR1518662_2.fastq.gz	ftp.sra.ebi.ac.uk/vol1/ERA673/ERA673513/fastq/FA21_sequence_R1.fastq.gz;ftp.sra.ebi.ac.uk/vol1/ERA673/ERA673513/fastq/FA21_sequence_R2.fastq.gz	ftp.sra.ebi.ac.uk/vol1/ERA673/ERA673513/fastq/FA21_sequence_R1.fastq.gz;ftp.sra.ebi.ac.uk/vol1/ERA673/ERA673513/fastq/FA21_sequence_R2.fastq.gz	ftp.sra.ebi.ac.uk/vol1/err/ERR151/002/ERR1518662	ftp.sra.ebi.ac.uk/vol1/err/ERR151/002/ERR1518662		
PRJEB11591	SAMEA4065709	SNU-GMI-FA22	ERS1236819	ERX1589643	ERR1518664	9606	Homo sapiens	Illumina HiSeq 2000	PAIRED	ftp.sra.ebi.ac.uk/vol1/fastq/ERR151/004/ERR1518664/ERR1518664_1.fastq.gz;ftp.sra.ebi.ac.uk/vol1/fastq/ERR151/004/ERR1518664/ERR1518664_2.fastq.gz	ftp.sra.ebi.ac.uk/vol1/fastq/ERR151/004/ERR1518664/ERR1518664_1.fastq.gz;ftp.sra.ebi.ac.uk/vol1/fastq/ERR151/004/ERR1518664/ERR1518664_2.fastq.gz	ftp.sra.ebi.ac.uk/vol1/ERA673/ERA673513/fastq/FA22_sequence_R1.fastq.gz;ftp.sra.ebi.ac.uk/vol1/ERA673/ERA673513/fastq/FA22_sequence_R2.fastq.gz	ftp.sra.ebi.ac.uk/vol1/ERA673/ERA673513/fastq/FA22_sequence_R1.fastq.gz;ftp.sra.ebi.ac.uk/vol1/ERA673/ERA673513/fastq/FA22_sequence_R2.fastq.gz	ftp.sra.ebi.ac.uk/vol1/err/ERR151/004/ERR1518664	ftp.sra.ebi.ac.uk/vol1/err/ERR151/004/ERR1518664		
PRJEB11591	SAMEA4065711	SNU-GMI-FA23	ERS1236821	ERX1589645	ERR1518666	9606	Homo sapiens	Illumina HiSeq 2000	PAIRED	ftp.sra.ebi.ac.uk/vol1/fastq/ERR151/006/ERR1518666/ERR1518666_1.fastq.gz;ftp.sra.ebi.ac.uk/vol1/fastq/ERR151/006/ERR1518666/ERR1518666_2.fastq.gz	ftp.sra.ebi.ac.uk/vol1/fastq/ERR151/006/ERR1518666/ERR1518666_1.fastq.gz;ftp.sra.ebi.ac.uk/vol1/fastq/ERR151/006/ERR1518666/ERR1518666_2.fastq.gz	ftp.sra.ebi.ac.uk/vol1/ERA673/ERA673513/fastq/FA23_sequence_R1.fastq.gz;ftp.sra.ebi.ac.uk/vol1/ERA673/ERA673513/fastq/FA23_sequence_R2.fastq.gz	ftp.sra.ebi.ac.uk/vol1/ERA673/ERA673513/fastq/FA23_sequence_R1.fastq.gz;ftp.sra.ebi.ac.uk/vol1/ERA673/ERA673513/fastq/FA23_sequence_R2.fastq.gz	ftp.sra.ebi.ac.uk/vol1/err/ERR151/006/ERR1518666	ftp.sra.ebi.ac.uk/vol1/err/ERR151/006/ERR1518666		
PRJEB11591	SAMEA4065712	SNU-GMI-FA24	ERS1236822	ERX1589646	ERR1518667	9606	Homo sapiens	Illumina HiSeq 2000	PAIRED	ftp.sra.ebi.ac.uk/vol1/fastq/ERR151/007/ERR1518667/ERR1518667_1.fastq.gz;ftp.sra.ebi.ac.uk/vol1/fastq/ERR151/007/ERR1518667/ERR1518667_2.fastq.gz	ftp.sra.ebi.ac.uk/vol1/fastq/ERR151/007/ERR1518667/ERR1518667_1.fastq.gz;ftp.sra.ebi.ac.uk/vol1/fastq/ERR151/007/ERR1518667/ERR1518667_2.fastq.gz	ftp.sra.ebi.ac.uk/vol1/ERA673/ERA673513/fastq/FA24_sequence_R1.fastq.gz;ftp.sra.ebi.ac.uk/vol1/ERA673/ERA673513/fastq/FA24_sequence_R2.fastq.gz	ftp.sra.ebi.ac.uk/vol1/ERA673/ERA673513/fastq/FA24_sequence_R1.fastq.gz;ftp.sra.ebi.ac.uk/vol1/ERA673/ERA673513/fastq/FA24_sequence_R2.fastq.gz	ftp.sra.ebi.ac.uk/vol1/err/ERR151/007/ERR1518667	ftp.sra.ebi.ac.uk/vol1/err/ERR151/007/ERR1518667		
PRJEB11591	SAMEA4065713	SNU-GMI-FA25	ERS1236823	ERX1589647	ERR1518668	9606	Homo sapiens	Illumina HiSeq 2000	PAIRED	ftp.sra.ebi.ac.uk/vol1/fastq/ERR151/008/ERR1518668/ERR1518668_1.fastq.gz;ftp.sra.ebi.ac.uk/vol1/fastq/ERR151/008/ERR1518668/ERR1518668_2.fastq.gz	ftp.sra.ebi.ac.uk/vol1/fastq/ERR151/008/ERR1518668/ERR1518668_1.fastq.gz;ftp.sra.ebi.ac.uk/vol1/fastq/ERR151/008/ERR1518668/ERR1518668_2.fastq.gz	ftp.sra.ebi.ac.uk/vol1/ERA673/ERA673513/fastq/FA25_sequence_R1.fastq.gz;ftp.sra.ebi.ac.uk/vol1/ERA673/ERA673513/fastq/FA25_sequence_R2.fastq.gz	ftp.sra.ebi.ac.uk/vol1/ERA673/ERA673513/fastq/FA25_sequence_R1.fastq.gz;ftp.sra.ebi.ac.uk/vol1/ERA673/ERA673513/fastq/FA25_sequence_R2.fastq.gz	ftp.sra.ebi.ac.uk/vol1/err/ERR151/008/ERR1518668	ftp.sra.ebi.ac.uk/vol1/err/ERR151/008/ERR1518668		
PRJEB11591	SAMEA4065714	SNU-GMI-FTC01	ERS1236824	ERX1589648	ERR1518669	9606	Homo sapiens	Illumina HiSeq 2000	PAIRED	ftp.sra.ebi.ac.uk/vol1/fastq/ERR151/009/ERR1518669/ERR1518669_1.fastq.gz;ftp.sra.ebi.ac.uk/vol1/fastq/ERR151/009/ERR1518669/ERR1518669_2.fastq.gz	ftp.sra.ebi.ac.uk/vol1/fastq/ERR151/009/ERR1518669/ERR1518669_1.fastq.gz;ftp.sra.ebi.ac.uk/vol1/fastq/ERR151/009/ERR1518669/ERR1518669_2.fastq.gz	ftp.sra.ebi.ac.uk/vol1/ERA673/ERA673513/fastq/FTC01_sequence_R1.fastq.gz;ftp.sra.ebi.ac.uk/vol1/ERA673/ERA673513/fastq/FTC01_sequence_R2.fastq.gz	ftp.sra.ebi.ac.uk/vol1/ERA673/ERA673513/fastq/FTC01_sequence_R1.fastq.gz;ftp.sra.ebi.ac.uk/vol1/ERA673/ERA673513/fastq/FTC01_sequence_R2.fastq.gz	ftp.sra.ebi.ac.uk/vol1/err/ERR151/009/ERR1518669	ftp.sra.ebi.ac.uk/vol1/err/ERR151/009/ERR1518669		
PRJEB11591	SAMEA4065716	SNU-GMI-FTC02	ERS1236826	ERX1589650	ERR1518671	9606	Homo sapiens	Illumina HiSeq 2000	PAIRED	ftp.sra.ebi.ac.uk/vol1/fastq/ERR151/001/ERR1518671/ERR1518671_1.fastq.gz;ftp.sra.ebi.ac.uk/vol1/fastq/ERR151/001/ERR1518671/ERR1518671_2.fastq.gz	ftp.sra.ebi.ac.uk/vol1/fastq/ERR151/001/ERR1518671/ERR1518671_1.fastq.gz;ftp.sra.ebi.ac.uk/vol1/fastq/ERR151/001/ERR1518671/ERR1518671_2.fastq.gz	ftp.sra.ebi.ac.uk/vol1/ERA673/ERA673513/fastq/FTC02_sequence_R1.fastq.gz;ftp.sra.ebi.ac.uk/vol1/ERA673/ERA673513/fastq/FTC02_sequence_R2.fastq.gz	ftp.sra.ebi.ac.uk/vol1/ERA673/ERA673513/fastq/FTC02_sequence_R1.fastq.gz;ftp.sra.ebi.ac.uk/vol1/ERA673/ERA673513/fastq/FTC02_sequence_R2.fastq.gz	ftp.sra.ebi.ac.uk/vol1/err/ERR151/001/ERR1518671	ftp.sra.ebi.ac.uk/vol1/err/ERR151/001/ERR1518671		
PRJEB11591	SAMEA4065717	SNU-GMI-FTC03	ERS1236827	ERX1589651	ERR1518672	9606	Homo sapiens	Illumina HiSeq 2000	PAIRED	ftp.sra.ebi.ac.uk/vol1/fastq/ERR151/002/ERR1518672/ERR1518672_1.fastq.gz;ftp.sra.ebi.ac.uk/vol1/fastq/ERR151/002/ERR1518672/ERR1518672_2.fastq.gz	ftp.sra.ebi.ac.uk/vol1/fastq/ERR151/002/ERR1518672/ERR1518672_1.fastq.gz;ftp.sra.ebi.ac.uk/vol1/fastq/ERR151/002/ERR1518672/ERR1518672_2.fastq.gz	ftp.sra.ebi.ac.uk/vol1/ERA673/ERA673513/fastq/FTC03_sequence_R1.fastq.gz;ftp.sra.ebi.ac.uk/vol1/ERA673/ERA673513/fastq/FTC03_sequence_R2.fastq.gz	ftp.sra.ebi.ac.uk/vol1/ERA673/ERA673513/fastq/FTC03_sequence_R1.fastq.gz;ftp.sra.ebi.ac.uk/vol1/ERA673/ERA673513/fastq/FTC03_sequence_R2.fastq.gz	ftp.sra.ebi.ac.uk/vol1/err/ERR151/002/ERR1518672	ftp.sra.ebi.ac.uk/vol1/err/ERR151/002/ERR1518672		
PRJEB11591	SAMEA4065719	SNU-GMI-FTC04	ERS1236829	ERX1589653	ERR1518674	9606	Homo sapiens	Illumina HiSeq 2000	PAIRED	ftp.sra.ebi.ac.uk/vol1/fastq/ERR151/004/ERR1518674/ERR1518674_1.fastq.gz;ftp.sra.ebi.ac.uk/vol1/fastq/ERR151/004/ERR1518674/ERR1518674_2.fastq.gz	ftp.sra.ebi.ac.uk/vol1/fastq/ERR151/004/ERR1518674/ERR1518674_1.fastq.gz;ftp.sra.ebi.ac.uk/vol1/fastq/ERR151/004/ERR1518674/ERR1518674_2.fastq.gz	ftp.sra.ebi.ac.uk/vol1/ERA673/ERA673513/fastq/FTC04_sequence_R1.fastq.gz;ftp.sra.ebi.ac.uk/vol1/ERA673/ERA673513/fastq/FTC04_sequence_R2.fastq.gz	ftp.sra.ebi.ac.uk/vol1/ERA673/ERA673513/fastq/FTC04_sequence_R1.fastq.gz;ftp.sra.ebi.ac.uk/vol1/ERA673/ERA673513/fastq/FTC04_sequence_R2.fastq.gz	ftp.sra.ebi.ac.uk/vol1/err/ERR151/004/ERR1518674	ftp.sra.ebi.ac.uk/vol1/err/ERR151/004/ERR1518674		
PRJEB11591	SAMEA4065720	SNU-GMI-FTC05	ERS1236830	ERX1589654	ERR1518675	9606	Homo sapiens	Illumina HiSeq 2000	PAIRED	ftp.sra.ebi.ac.uk/vol1/fastq/ERR151/005/ERR1518675/ERR1518675_1.fastq.gz;ftp.sra.ebi.ac.uk/vol1/fastq/ERR151/005/ERR1518675/ERR1518675_2.fastq.gz	ftp.sra.ebi.ac.uk/vol1/fastq/ERR151/005/ERR1518675/ERR1518675_1.fastq.gz;ftp.sra.ebi.ac.uk/vol1/fastq/ERR151/005/ERR1518675/ERR1518675_2.fastq.gz	ftp.sra.ebi.ac.uk/vol1/ERA673/ERA673513/fastq/FTC05_sequence_R1.fastq.gz;ftp.sra.ebi.ac.uk/vol1/ERA673/ERA673513/fastq/FTC05_sequence_R2.fastq.gz	ftp.sra.ebi.ac.uk/vol1/ERA673/ERA673513/fastq/FTC05_sequence_R1.fastq.gz;ftp.sra.ebi.ac.uk/vol1/ERA673/ERA673513/fastq/FTC05_sequence_R2.fastq.gz	ftp.sra.ebi.ac.uk/vol1/err/ERR151/005/ERR1518675	ftp.sra.ebi.ac.uk/vol1/err/ERR151/005/ERR1518675		
PRJEB11591	SAMEA4065722	SNU-GMI-FTC06	ERS1236832	ERX1589656	ERR1518677	9606	Homo sapiens	Illumina HiSeq 2000	PAIRED	ftp.sra.ebi.ac.uk/vol1/fastq/ERR151/007/ERR1518677/ERR1518677_1.fastq.gz;ftp.sra.ebi.ac.uk/vol1/fastq/ERR151/007/ERR1518677/ERR1518677_2.fastq.gz	ftp.sra.ebi.ac.uk/vol1/fastq/ERR151/007/ERR1518677/ERR1518677_1.fastq.gz;ftp.sra.ebi.ac.uk/vol1/fastq/ERR151/007/ERR1518677/ERR1518677_2.fastq.gz	ftp.sra.ebi.ac.uk/vol1/ERA673/ERA673513/fastq/FTC06_sequence_R1.fastq.gz;ftp.sra.ebi.ac.uk/vol1/ERA673/ERA673513/fastq/FTC06_sequence_R2.fastq.gz	ftp.sra.ebi.ac.uk/vol1/ERA673/ERA673513/fastq/FTC06_sequence_R1.fastq.gz;ftp.sra.ebi.ac.uk/vol1/ERA673/ERA673513/fastq/FTC06_sequence_R2.fastq.gz	ftp.sra.ebi.ac.uk/vol1/err/ERR151/007/ERR1518677	ftp.sra.ebi.ac.uk/vol1/err/ERR151/007/ERR1518677		
PRJEB11591	SAMEA4065723	SNU-GMI-FTC07	ERS1236833	ERX1589657	ERR1518678	9606	Homo sapiens	Illumina HiSeq 2000	PAIRED	ftp.sra.ebi.ac.uk/vol1/fastq/ERR151/008/ERR1518678/ERR1518678_1.fastq.gz;ftp.sra.ebi.ac.uk/vol1/fastq/ERR151/008/ERR1518678/ERR1518678_2.fastq.gz	ftp.sra.ebi.ac.uk/vol1/fastq/ERR151/008/ERR1518678/ERR1518678_1.fastq.gz;ftp.sra.ebi.ac.uk/vol1/fastq/ERR151/008/ERR1518678/ERR1518678_2.fastq.gz	ftp.sra.ebi.ac.uk/vol1/ERA673/ERA673513/fastq/FTC07_sequence_R1.fastq.gz;ftp.sra.ebi.ac.uk/vol1/ERA673/ERA673513/fastq/FTC07_sequence_R2.fastq.gz	ftp.sra.ebi.ac.uk/vol1/ERA673/ERA673513/fastq/FTC07_sequence_R1.fastq.gz;ftp.sra.ebi.ac.uk/vol1/ERA673/ERA673513/fastq/FTC07_sequence_R2.fastq.gz	ftp.sra.ebi.ac.uk/vol1/err/ERR151/008/ERR1518678	ftp.sra.ebi.ac.uk/vol1/err/ERR151/008/ERR1518678		
PRJEB11591	SAMEA4065724	SNU-GMI-FTC08	ERS1236834	ERX1589658	ERR1518679	9606	Homo sapiens	Illumina HiSeq 2000	PAIRED	ftp.sra.ebi.ac.uk/vol1/fastq/ERR151/009/ERR1518679/ERR1518679_1.fastq.gz;ftp.sra.ebi.ac.uk/vol1/fastq/ERR151/009/ERR1518679/ERR1518679_2.fastq.gz	ftp.sra.ebi.ac.uk/vol1/fastq/ERR151/009/ERR1518679/ERR1518679_1.fastq.gz;ftp.sra.ebi.ac.uk/vol1/fastq/ERR151/009/ERR1518679/ERR1518679_2.fastq.gz	ftp.sra.ebi.ac.uk/vol1/ERA673/ERA673513/fastq/FTC08_sequence_R1.fastq.gz;ftp.sra.ebi.ac.uk/vol1/ERA673/ERA673513/fastq/FTC08_sequence_R2.fastq.gz	ftp.sra.ebi.ac.uk/vol1/ERA673/ERA673513/fastq/FTC08_sequence_R1.fastq.gz;ftp.sra.ebi.ac.uk/vol1/ERA673/ERA673513/fastq/FTC08_sequence_R2.fastq.gz	ftp.sra.ebi.ac.uk/vol1/err/ERR151/009/ERR1518679	ftp.sra.ebi.ac.uk/vol1/err/ERR151/009/ERR1518679		
PRJEB11591	SAMEA4065726	SNU-GMI-FTC09	ERS1236836	ERX1589660	ERR1518681	9606	Homo sapiens	Illumina HiSeq 2000	PAIRED	ftp.sra.ebi.ac.uk/vol1/fastq/ERR151/001/ERR1518681/ERR1518681_1.fastq.gz;ftp.sra.ebi.ac.uk/vol1/fastq/ERR151/001/ERR1518681/ERR1518681_2.fastq.gz	ftp.sra.ebi.ac.uk/vol1/fastq/ERR151/001/ERR1518681/ERR1518681_1.fastq.gz;ftp.sra.ebi.ac.uk/vol1/fastq/ERR151/001/ERR1518681/ERR1518681_2.fastq.gz	ftp.sra.ebi.ac.uk/vol1/ERA673/ERA673513/fastq/FTC09_sequence_R1.fastq.gz;ftp.sra.ebi.ac.uk/vol1/ERA673/ERA673513/fastq/FTC09_sequence_R2.fastq.gz	ftp.sra.ebi.ac.uk/vol1/ERA673/ERA673513/fastq/FTC09_sequence_R1.fastq.gz;ftp.sra.ebi.ac.uk/vol1/ERA673/ERA673513/fastq/FTC09_sequence_R2.fastq.gz	ftp.sra.ebi.ac.uk/vol1/err/ERR151/001/ERR1518681	ftp.sra.ebi.ac.uk/vol1/err/ERR151/001/ERR1518681		
PRJEB11591	SAMEA4065728	SNU-GMI-FTC10	ERS1236838	ERX1589662	ERR1518683	9606	Homo sapiens	Illumina HiSeq 2000	PAIRED	ftp.sra.ebi.ac.uk/vol1/fastq/ERR151/003/ERR1518683/ERR1518683_1.fastq.gz;ftp.sra.ebi.ac.uk/vol1/fastq/ERR151/003/ERR1518683/ERR1518683_2.fastq.gz	ftp.sra.ebi.ac.uk/vol1/fastq/ERR151/003/ERR1518683/ERR1518683_1.fastq.gz;ftp.sra.ebi.ac.uk/vol1/fastq/ERR151/003/ERR1518683/ERR1518683_2.fastq.gz	ftp.sra.ebi.ac.uk/vol1/ERA673/ERA673513/fastq/FTC10_sequence_R1.fastq.gz;ftp.sra.ebi.ac.uk/vol1/ERA673/ERA673513/fastq/FTC10_sequence_R2.fastq.gz	ftp.sra.ebi.ac.uk/vol1/ERA673/ERA673513/fastq/FTC10_sequence_R1.fastq.gz;ftp.sra.ebi.ac.uk/vol1/ERA673/ERA673513/fastq/FTC10_sequence_R2.fastq.gz	ftp.sra.ebi.ac.uk/vol1/err/ERR151/003/ERR1518683	ftp.sra.ebi.ac.uk/vol1/err/ERR151/003/ERR1518683		
PRJEB11591	SAMEA4065730	SNU-GMI-FTC11	ERS1236840	ERX1589664	ERR1518685	9606	Homo sapiens	Illumina HiSeq 2000	PAIRED	ftp.sra.ebi.ac.uk/vol1/fastq/ERR151/005/ERR1518685/ERR1518685_1.fastq.gz;ftp.sra.ebi.ac.uk/vol1/fastq/ERR151/005/ERR1518685/ERR1518685_2.fastq.gz	ftp.sra.ebi.ac.uk/vol1/fastq/ERR151/005/ERR1518685/ERR1518685_1.fastq.gz;ftp.sra.ebi.ac.uk/vol1/fastq/ERR151/005/ERR1518685/ERR1518685_2.fastq.gz	ftp.sra.ebi.ac.uk/vol1/ERA673/ERA673513/fastq/FTC11_sequence_R1.fastq.gz;ftp.sra.ebi.ac.uk/vol1/ERA673/ERA673513/fastq/FTC11_sequence_R2.fastq.gz	ftp.sra.ebi.ac.uk/vol1/ERA673/ERA673513/fastq/FTC11_sequence_R1.fastq.gz;ftp.sra.ebi.ac.uk/vol1/ERA673/ERA673513/fastq/FTC11_sequence_R2.fastq.gz	ftp.sra.ebi.ac.uk/vol1/err/ERR151/005/ERR1518685	ftp.sra.ebi.ac.uk/vol1/err/ERR151/005/ERR1518685		
PRJEB11591	SAMEA4065732	SNU-GMI-FTC12	ERS1236842	ERX1589666	ERR1518687	9606	Homo sapiens	Illumina HiSeq 2000	PAIRED	ftp.sra.ebi.ac.uk/vol1/fastq/ERR151/007/ERR1518687/ERR1518687_1.fastq.gz;ftp.sra.ebi.ac.uk/vol1/fastq/ERR151/007/ERR1518687/ERR1518687_2.fastq.gz	ftp.sra.ebi.ac.uk/vol1/fastq/ERR151/007/ERR1518687/ERR1518687_1.fastq.gz;ftp.sra.ebi.ac.uk/vol1/fastq/ERR151/007/ERR1518687/ERR1518687_2.fastq.gz	ftp.sra.ebi.ac.uk/vol1/ERA673/ERA673513/fastq/FTC12_sequence_R1.fastq.gz;ftp.sra.ebi.ac.uk/vol1/ERA673/ERA673513/fastq/FTC12_sequence_R2.fastq.gz	ftp.sra.ebi.ac.uk/vol1/ERA673/ERA673513/fastq/FTC12_sequence_R1.fastq.gz;ftp.sra.ebi.ac.uk/vol1/ERA673/ERA673513/fastq/FTC12_sequence_R2.fastq.gz	ftp.sra.ebi.ac.uk/vol1/err/ERR151/007/ERR1518687	ftp.sra.ebi.ac.uk/vol1/err/ERR151/007/ERR1518687		
PRJEB11591	SAMEA4065734	SNU-GMI-FTC13	ERS1236844	ERX1589668	ERR1518689	9606	Homo sapiens	Illumina HiSeq 2000	PAIRED	ftp.sra.ebi.ac.uk/vol1/fastq/ERR151/009/ERR1518689/ERR1518689_1.fastq.gz;ftp.sra.ebi.ac.uk/vol1/fastq/ERR151/009/ERR1518689/ERR1518689_2.fastq.gz	ftp.sra.ebi.ac.uk/vol1/fastq/ERR151/009/ERR1518689/ERR1518689_1.fastq.gz;ftp.sra.ebi.ac.uk/vol1/fastq/ERR151/009/ERR1518689/ERR1518689_2.fastq.gz	ftp.sra.ebi.ac.uk/vol1/ERA673/ERA673513/fastq/FTC13_sequence_R1.fastq.gz;ftp.sra.ebi.ac.uk/vol1/ERA673/ERA673513/fastq/FTC13_sequence_R2.fastq.gz	ftp.sra.ebi.ac.uk/vol1/ERA673/ERA673513/fastq/FTC13_sequence_R1.fastq.gz;ftp.sra.ebi.ac.uk/vol1/ERA673/ERA673513/fastq/FTC13_sequence_R2.fastq.gz	ftp.sra.ebi.ac.uk/vol1/err/ERR151/009/ERR1518689	ftp.sra.ebi.ac.uk/vol1/err/ERR151/009/ERR1518689		
PRJEB11591	SAMEA4065736	SNU-GMI-FTC14	ERS1236846	ERX1589670	ERR1518691	9606	Homo sapiens	Illumina HiSeq 2000	PAIRED	ftp.sra.ebi.ac.uk/vol1/fastq/ERR151/001/ERR1518691/ERR1518691_1.fastq.gz;ftp.sra.ebi.ac.uk/vol1/fastq/ERR151/001/ERR1518691/ERR1518691_2.fastq.gz	ftp.sra.ebi.ac.uk/vol1/fastq/ERR151/001/ERR1518691/ERR1518691_1.fastq.gz;ftp.sra.ebi.ac.uk/vol1/fastq/ERR151/001/ERR1518691/ERR1518691_2.fastq.gz	ftp.sra.ebi.ac.uk/vol1/ERA673/ERA673513/fastq/FTC14_sequence_R1.fastq.gz;ftp.sra.ebi.ac.uk/vol1/ERA673/ERA673513/fastq/FTC14_sequence_R2.fastq.gz	ftp.sra.ebi.ac.uk/vol1/ERA673/ERA673513/fastq/FTC14_sequence_R1.fastq.gz;ftp.sra.ebi.ac.uk/vol1/ERA673/ERA673513/fastq/FTC14_sequence_R2.fastq.gz	ftp.sra.ebi.ac.uk/vol1/err/ERR151/001/ERR1518691	ftp.sra.ebi.ac.uk/vol1/err/ERR151/001/ERR1518691		
PRJEB11591	SAMEA4065738	SNU-GMI-FTC15	ERS1236848	ERX1589672	ERR1518693	9606	Homo sapiens	Illumina HiSeq 2000	PAIRED	ftp.sra.ebi.ac.uk/vol1/fastq/ERR151/003/ERR1518693/ERR1518693_1.fastq.gz;ftp.sra.ebi.ac.uk/vol1/fastq/ERR151/003/ERR1518693/ERR1518693_2.fastq.gz	ftp.sra.ebi.ac.uk/vol1/fastq/ERR151/003/ERR1518693/ERR1518693_1.fastq.gz;ftp.sra.ebi.ac.uk/vol1/fastq/ERR151/003/ERR1518693/ERR1518693_2.fastq.gz	ftp.sra.ebi.ac.uk/vol1/ERA673/ERA673513/fastq/FTC15_sequence_R1.fastq.gz;ftp.sra.ebi.ac.uk/vol1/ERA673/ERA673513/fastq/FTC15_sequence_R2.fastq.gz	ftp.sra.ebi.ac.uk/vol1/ERA673/ERA673513/fastq/FTC15_sequence_R1.fastq.gz;ftp.sra.ebi.ac.uk/vol1/ERA673/ERA673513/fastq/FTC15_sequence_R2.fastq.gz	ftp.sra.ebi.ac.uk/vol1/err/ERR151/003/ERR1518693	ftp.sra.ebi.ac.uk/vol1/err/ERR151/003/ERR1518693		
PRJEB11591	SAMEA4065740	SNU-GMI-FTC16	ERS1236850	ERX1589674	ERR1518695	9606	Homo sapiens	Illumina HiSeq 2000	PAIRED	ftp.sra.ebi.ac.uk/vol1/fastq/ERR151/005/ERR1518695/ERR1518695_1.fastq.gz;ftp.sra.ebi.ac.uk/vol1/fastq/ERR151/005/ERR1518695/ERR1518695_2.fastq.gz	ftp.sra.ebi.ac.uk/vol1/fastq/ERR151/005/ERR1518695/ERR1518695_1.fastq.gz;ftp.sra.ebi.ac.uk/vol1/fastq/ERR151/005/ERR1518695/ERR1518695_2.fastq.gz	ftp.sra.ebi.ac.uk/vol1/ERA673/ERA673513/fastq/FTC16_sequence_R1.fastq.gz;ftp.sra.ebi.ac.uk/vol1/ERA673/ERA673513/fastq/FTC16_sequence_R2.fastq.gz	ftp.sra.ebi.ac.uk/vol1/ERA673/ERA673513/fastq/FTC16_sequence_R1.fastq.gz;ftp.sra.ebi.ac.uk/vol1/ERA673/ERA673513/fastq/FTC16_sequence_R2.fastq.gz	ftp.sra.ebi.ac.uk/vol1/err/ERR151/005/ERR1518695	ftp.sra.ebi.ac.uk/vol1/err/ERR151/005/ERR1518695		
PRJEB11591	SAMEA4065742	SNU-GMI-FTC17	ERS1236852	ERX1589676	ERR1518697	9606	Homo sapiens	Illumina HiSeq 2000	PAIRED	ftp.sra.ebi.ac.uk/vol1/fastq/ERR151/007/ERR1518697/ERR1518697_1.fastq.gz;ftp.sra.ebi.ac.uk/vol1/fastq/ERR151/007/ERR1518697/ERR1518697_2.fastq.gz	ftp.sra.ebi.ac.uk/vol1/fastq/ERR151/007/ERR1518697/ERR1518697_1.fastq.gz;ftp.sra.ebi.ac.uk/vol1/fastq/ERR151/007/ERR1518697/ERR1518697_2.fastq.gz	ftp.sra.ebi.ac.uk/vol1/ERA673/ERA673513/fastq/FTC17_sequence_R1.fastq.gz;ftp.sra.ebi.ac.uk/vol1/ERA673/ERA673513/fastq/FTC17_sequence_R2.fastq.gz	ftp.sra.ebi.ac.uk/vol1/ERA673/ERA673513/fastq/FTC17_sequence_R1.fastq.gz;ftp.sra.ebi.ac.uk/vol1/ERA673/ERA673513/fastq/FTC17_sequence_R2.fastq.gz	ftp.sra.ebi.ac.uk/vol1/err/ERR151/007/ERR1518697	ftp.sra.ebi.ac.uk/vol1/err/ERR151/007/ERR1518697		
PRJEB11591	SAMEA4065744	SNU-GMI-FTC18	ERS1236854	ERX1589678	ERR1518699	9606	Homo sapiens	Illumina HiSeq 2000	PAIRED	ftp.sra.ebi.ac.uk/vol1/fastq/ERR151/009/ERR1518699/ERR1518699_1.fastq.gz;ftp.sra.ebi.ac.uk/vol1/fastq/ERR151/009/ERR1518699/ERR1518699_2.fastq.gz	ftp.sra.ebi.ac.uk/vol1/fastq/ERR151/009/ERR1518699/ERR1518699_1.fastq.gz;ftp.sra.ebi.ac.uk/vol1/fastq/ERR151/009/ERR1518699/ERR1518699_2.fastq.gz	ftp.sra.ebi.ac.uk/vol1/ERA673/ERA673513/fastq/FTC18_sequence_R1.fastq.gz;ftp.sra.ebi.ac.uk/vol1/ERA673/ERA673513/fastq/FTC18_sequence_R2.fastq.gz	ftp.sra.ebi.ac.uk/vol1/ERA673/ERA673513/fastq/FTC18_sequence_R1.fastq.gz;ftp.sra.ebi.ac.uk/vol1/ERA673/ERA673513/fastq/FTC18_sequence_R2.fastq.gz	ftp.sra.ebi.ac.uk/vol1/err/ERR151/009/ERR1518699	ftp.sra.ebi.ac.uk/vol1/err/ERR151/009/ERR1518699		
PRJEB11591	SAMEA4065746	SNU-GMI-FTC19	ERS1236856	ERX1589680	ERR1518701	9606	Homo sapiens	Illumina HiSeq 2000	PAIRED	ftp.sra.ebi.ac.uk/vol1/fastq/ERR151/001/ERR1518701/ERR1518701_1.fastq.gz;ftp.sra.ebi.ac.uk/vol1/fastq/ERR151/001/ERR1518701/ERR1518701_2.fastq.gz	ftp.sra.ebi.ac.uk/vol1/fastq/ERR151/001/ERR1518701/ERR1518701_1.fastq.gz;ftp.sra.ebi.ac.uk/vol1/fastq/ERR151/001/ERR1518701/ERR1518701_2.fastq.gz	ftp.sra.ebi.ac.uk/vol1/ERA673/ERA673513/fastq/FTC19_sequence_R1.fastq.gz;ftp.sra.ebi.ac.uk/vol1/ERA673/ERA673513/fastq/FTC19_sequence_R2.fastq.gz	ftp.sra.ebi.ac.uk/vol1/ERA673/ERA673513/fastq/FTC19_sequence_R1.fastq.gz;ftp.sra.ebi.ac.uk/vol1/ERA673/ERA673513/fastq/FTC19_sequence_R2.fastq.gz	ftp.sra.ebi.ac.uk/vol1/err/ERR151/001/ERR1518701	ftp.sra.ebi.ac.uk/vol1/err/ERR151/001/ERR1518701		
PRJEB11591	SAMEA4065747	SNU-GMI-FTC20	ERS1236857	ERX1589681	ERR1518702	9606	Homo sapiens	Illumina HiSeq 2000	PAIRED	ftp.sra.ebi.ac.uk/vol1/fastq/ERR151/002/ERR1518702/ERR1518702_1.fastq.gz;ftp.sra.ebi.ac.uk/vol1/fastq/ERR151/002/ERR1518702/ERR1518702_2.fastq.gz	ftp.sra.ebi.ac.uk/vol1/fastq/ERR151/002/ERR1518702/ERR1518702_1.fastq.gz;ftp.sra.ebi.ac.uk/vol1/fastq/ERR151/002/ERR1518702/ERR1518702_2.fastq.gz	ftp.sra.ebi.ac.uk/vol1/ERA673/ERA673513/fastq/FTC20_sequence_R1.fastq.gz;ftp.sra.ebi.ac.uk/vol1/ERA673/ERA673513/fastq/FTC20_sequence_R2.fastq.gz	ftp.sra.ebi.ac.uk/vol1/ERA673/ERA673513/fastq/FTC20_sequence_R1.fastq.gz;ftp.sra.ebi.ac.uk/vol1/ERA673/ERA673513/fastq/FTC20_sequence_R2.fastq.gz	ftp.sra.ebi.ac.uk/vol1/err/ERR151/002/ERR1518702	ftp.sra.ebi.ac.uk/vol1/err/ERR151/002/ERR1518702		
PRJEB11591	SAMEA4065749	SNU-GMI-FTC21	ERS1236859	ERX1589683	ERR1518704	9606	Homo sapiens	Illumina HiSeq 2000	PAIRED	ftp.sra.ebi.ac.uk/vol1/fastq/ERR151/004/ERR1518704/ERR1518704_1.fastq.gz;ftp.sra.ebi.ac.uk/vol1/fastq/ERR151/004/ERR1518704/ERR1518704_2.fastq.gz	ftp.sra.ebi.ac.uk/vol1/fastq/ERR151/004/ERR1518704/ERR1518704_1.fastq.gz;ftp.sra.ebi.ac.uk/vol1/fastq/ERR151/004/ERR1518704/ERR1518704_2.fastq.gz	ftp.sra.ebi.ac.uk/vol1/ERA673/ERA673513/fastq/FTC21_sequence_R1.fastq.gz;ftp.sra.ebi.ac.uk/vol1/ERA673/ERA673513/fastq/FTC21_sequence_R2.fastq.gz	ftp.sra.ebi.ac.uk/vol1/ERA673/ERA673513/fastq/FTC21_sequence_R1.fastq.gz;ftp.sra.ebi.ac.uk/vol1/ERA673/ERA673513/fastq/FTC21_sequence_R2.fastq.gz	ftp.sra.ebi.ac.uk/vol1/err/ERR151/004/ERR1518704	ftp.sra.ebi.ac.uk/vol1/err/ERR151/004/ERR1518704		
PRJEB11591	SAMEA4065750	SNU-GMI-FTC22	ERS1236860	ERX1589684	ERR1518705	9606	Homo sapiens	Illumina HiSeq 2000	PAIRED	ftp.sra.ebi.ac.uk/vol1/fastq/ERR151/005/ERR1518705/ERR1518705_1.fastq.gz;ftp.sra.ebi.ac.uk/vol1/fastq/ERR151/005/ERR1518705/ERR1518705_2.fastq.gz	ftp.sra.ebi.ac.uk/vol1/fastq/ERR151/005/ERR1518705/ERR1518705_1.fastq.gz;ftp.sra.ebi.ac.uk/vol1/fastq/ERR151/005/ERR1518705/ERR1518705_2.fastq.gz	ftp.sra.ebi.ac.uk/vol1/ERA673/ERA673513/fastq/FTC22_sequence_R1.fastq.gz;ftp.sra.ebi.ac.uk/vol1/ERA673/ERA673513/fastq/FTC22_sequence_R2.fastq.gz	ftp.sra.ebi.ac.uk/vol1/ERA673/ERA673513/fastq/FTC22_sequence_R1.fastq.gz;ftp.sra.ebi.ac.uk/vol1/ERA673/ERA673513/fastq/FTC22_sequence_R2.fastq.gz	ftp.sra.ebi.ac.uk/vol1/err/ERR151/005/ERR1518705	ftp.sra.ebi.ac.uk/vol1/err/ERR151/005/ERR1518705		
PRJEB11591	SAMEA4065752	SNU-GMI-FTC23	ERS1236862	ERX1589686	ERR1518707	9606	Homo sapiens	Illumina HiSeq 2000	PAIRED	ftp.sra.ebi.ac.uk/vol1/fastq/ERR151/007/ERR1518707/ERR1518707_1.fastq.gz;ftp.sra.ebi.ac.uk/vol1/fastq/ERR151/007/ERR1518707/ERR1518707_2.fastq.gz	ftp.sra.ebi.ac.uk/vol1/fastq/ERR151/007/ERR1518707/ERR1518707_1.fastq.gz;ftp.sra.ebi.ac.uk/vol1/fastq/ERR151/007/ERR1518707/ERR1518707_2.fastq.gz	ftp.sra.ebi.ac.uk/vol1/ERA673/ERA673513/fastq/FTC23_sequence_R1.fastq.gz;ftp.sra.ebi.ac.uk/vol1/ERA673/ERA673513/fastq/FTC23_sequence_R2.fastq.gz	ftp.sra.ebi.ac.uk/vol1/ERA673/ERA673513/fastq/FTC23_sequence_R1.fastq.gz;ftp.sra.ebi.ac.uk/vol1/ERA673/ERA673513/fastq/FTC23_sequence_R2.fastq.gz	ftp.sra.ebi.ac.uk/vol1/err/ERR151/007/ERR1518707	ftp.sra.ebi.ac.uk/vol1/err/ERR151/007/ERR1518707		
PRJEB11591	SAMEA4065754	SNU-GMI-FTC24	ERS1236864	ERX1589688	ERR1518709	9606	Homo sapiens	Illumina HiSeq 2000	PAIRED	ftp.sra.ebi.ac.uk/vol1/fastq/ERR151/009/ERR1518709/ERR1518709_1.fastq.gz;ftp.sra.ebi.ac.uk/vol1/fastq/ERR151/009/ERR1518709/ERR1518709_2.fastq.gz	ftp.sra.ebi.ac.uk/vol1/fastq/ERR151/009/ERR1518709/ERR1518709_1.fastq.gz;ftp.sra.ebi.ac.uk/vol1/fastq/ERR151/009/ERR1518709/ERR1518709_2.fastq.gz	ftp.sra.ebi.ac.uk/vol1/ERA673/ERA673513/fastq/FTC24_sequence_R1.fastq.gz;ftp.sra.ebi.ac.uk/vol1/ERA673/ERA673513/fastq/FTC24_sequence_R2.fastq.gz	ftp.sra.ebi.ac.uk/vol1/ERA673/ERA673513/fastq/FTC24_sequence_R1.fastq.gz;ftp.sra.ebi.ac.uk/vol1/ERA673/ERA673513/fastq/FTC24_sequence_R2.fastq.gz	ftp.sra.ebi.ac.uk/vol1/err/ERR151/009/ERR1518709	ftp.sra.ebi.ac.uk/vol1/err/ERR151/009/ERR1518709		
PRJEB11591	SAMEA4065756	SNU-GMI-FTC25	ERS1236866	ERX1589690	ERR1518711	9606	Homo sapiens	Illumina HiSeq 2000	PAIRED	ftp.sra.ebi.ac.uk/vol1/fastq/ERR151/001/ERR1518711/ERR1518711_1.fastq.gz;ftp.sra.ebi.ac.uk/vol1/fastq/ERR151/001/ERR1518711/ERR1518711_2.fastq.gz	ftp.sra.ebi.ac.uk/vol1/fastq/ERR151/001/ERR1518711/ERR1518711_1.fastq.gz;ftp.sra.ebi.ac.uk/vol1/fastq/ERR151/001/ERR1518711/ERR1518711_2.fastq.gz	ftp.sra.ebi.ac.uk/vol1/ERA673/ERA673513/fastq/FTC25_sequence_R1.fastq.gz;ftp.sra.ebi.ac.uk/vol1/ERA673/ERA673513/fastq/FTC25_sequence_R2.fastq.gz	ftp.sra.ebi.ac.uk/vol1/ERA673/ERA673513/fastq/FTC25_sequence_R1.fastq.gz;ftp.sra.ebi.ac.uk/vol1/ERA673/ERA673513/fastq/FTC25_sequence_R2.fastq.gz	ftp.sra.ebi.ac.uk/vol1/err/ERR151/001/ERR1518711	ftp.sra.ebi.ac.uk/vol1/err/ERR151/001/ERR1518711		
PRJEB11591	SAMEA4065758	SNU-GMI-FTC26	ERS1236868	ERX1589692	ERR1518713	9606	Homo sapiens	Illumina HiSeq 2000	PAIRED	ftp.sra.ebi.ac.uk/vol1/fastq/ERR151/003/ERR1518713/ERR1518713_1.fastq.gz;ftp.sra.ebi.ac.uk/vol1/fastq/ERR151/003/ERR1518713/ERR1518713_2.fastq.gz	ftp.sra.ebi.ac.uk/vol1/fastq/ERR151/003/ERR1518713/ERR1518713_1.fastq.gz;ftp.sra.ebi.ac.uk/vol1/fastq/ERR151/003/ERR1518713/ERR1518713_2.fastq.gz	ftp.sra.ebi.ac.uk/vol1/ERA673/ERA673513/fastq/FTC26_sequence_R1.fastq.gz;ftp.sra.ebi.ac.uk/vol1/ERA673/ERA673513/fastq/FTC26_sequence_R2.fastq.gz	ftp.sra.ebi.ac.uk/vol1/ERA673/ERA673513/fastq/FTC26_sequence_R1.fastq.gz;ftp.sra.ebi.ac.uk/vol1/ERA673/ERA673513/fastq/FTC26_sequence_R2.fastq.gz	ftp.sra.ebi.ac.uk/vol1/err/ERR151/003/ERR1518713	ftp.sra.ebi.ac.uk/vol1/err/ERR151/003/ERR1518713		
PRJEB11591	SAMEA4065759	SNU-GMI-FTC27	ERS1236869	ERX1589693	ERR1518714	9606	Homo sapiens	Illumina HiSeq 2000	PAIRED	ftp.sra.ebi.ac.uk/vol1/fastq/ERR151/004/ERR1518714/ERR1518714_1.fastq.gz;ftp.sra.ebi.ac.uk/vol1/fastq/ERR151/004/ERR1518714/ERR1518714_2.fastq.gz	ftp.sra.ebi.ac.uk/vol1/fastq/ERR151/004/ERR1518714/ERR1518714_1.fastq.gz;ftp.sra.ebi.ac.uk/vol1/fastq/ERR151/004/ERR1518714/ERR1518714_2.fastq.gz	ftp.sra.ebi.ac.uk/vol1/ERA673/ERA673513/fastq/FTC27_sequence_R1.fastq.gz;ftp.sra.ebi.ac.uk/vol1/ERA673/ERA673513/fastq/FTC27_sequence_R2.fastq.gz	ftp.sra.ebi.ac.uk/vol1/ERA673/ERA673513/fastq/FTC27_sequence_R1.fastq.gz;ftp.sra.ebi.ac.uk/vol1/ERA673/ERA673513/fastq/FTC27_sequence_R2.fastq.gz	ftp.sra.ebi.ac.uk/vol1/err/ERR151/004/ERR1518714	ftp.sra.ebi.ac.uk/vol1/err/ERR151/004/ERR1518714		
PRJEB11591	SAMEA4065760	SNU-GMI-FTC28	ERS1236870	ERX1589694	ERR1518715	9606	Homo sapiens	Illumina HiSeq 2000	PAIRED	ftp.sra.ebi.ac.uk/vol1/fastq/ERR151/005/ERR1518715/ERR1518715_1.fastq.gz;ftp.sra.ebi.ac.uk/vol1/fastq/ERR151/005/ERR1518715/ERR1518715_2.fastq.gz	ftp.sra.ebi.ac.uk/vol1/fastq/ERR151/005/ERR1518715/ERR1518715_1.fastq.gz;ftp.sra.ebi.ac.uk/vol1/fastq/ERR151/005/ERR1518715/ERR1518715_2.fastq.gz	ftp.sra.ebi.ac.uk/vol1/ERA673/ERA673513/fastq/FTC28_sequence_R1.fastq.gz;ftp.sra.ebi.ac.uk/vol1/ERA673/ERA673513/fastq/FTC28_sequence_R2.fastq.gz	ftp.sra.ebi.ac.uk/vol1/ERA673/ERA673513/fastq/FTC28_sequence_R1.fastq.gz;ftp.sra.ebi.ac.uk/vol1/ERA673/ERA673513/fastq/FTC28_sequence_R2.fastq.gz	ftp.sra.ebi.ac.uk/vol1/err/ERR151/005/ERR1518715	ftp.sra.ebi.ac.uk/vol1/err/ERR151/005/ERR1518715		
PRJEB11591	SAMEA4065761	SNU-GMI-FTC29	ERS1236871	ERX1589695	ERR1518716	9606	Homo sapiens	Illumina HiSeq 2000	PAIRED	ftp.sra.ebi.ac.uk/vol1/fastq/ERR151/006/ERR1518716/ERR1518716_1.fastq.gz;ftp.sra.ebi.ac.uk/vol1/fastq/ERR151/006/ERR1518716/ERR1518716_2.fastq.gz	ftp.sra.ebi.ac.uk/vol1/fastq/ERR151/006/ERR1518716/ERR1518716_1.fastq.gz;ftp.sra.ebi.ac.uk/vol1/fastq/ERR151/006/ERR1518716/ERR1518716_2.fastq.gz	ftp.sra.ebi.ac.uk/vol1/ERA673/ERA673513/fastq/FTC29_sequence_R1.fastq.gz;ftp.sra.ebi.ac.uk/vol1/ERA673/ERA673513/fastq/FTC29_sequence_R2.fastq.gz	ftp.sra.ebi.ac.uk/vol1/ERA673/ERA673513/fastq/FTC29_sequence_R1.fastq.gz;ftp.sra.ebi.ac.uk/vol1/ERA673/ERA673513/fastq/FTC29_sequence_R2.fastq.gz	ftp.sra.ebi.ac.uk/vol1/err/ERR151/006/ERR1518716	ftp.sra.ebi.ac.uk/vol1/err/ERR151/006/ERR1518716		
PRJEB11591	SAMEA4065762	SNU-GMI-FTC30	ERS1236872	ERX1589696	ERR1518717	9606	Homo sapiens	Illumina HiSeq 2000	PAIRED	ftp.sra.ebi.ac.uk/vol1/fastq/ERR151/007/ERR1518717/ERR1518717_1.fastq.gz;ftp.sra.ebi.ac.uk/vol1/fastq/ERR151/007/ERR1518717/ERR1518717_2.fastq.gz	ftp.sra.ebi.ac.uk/vol1/fastq/ERR151/007/ERR1518717/ERR1518717_1.fastq.gz;ftp.sra.ebi.ac.uk/vol1/fastq/ERR151/007/ERR1518717/ERR1518717_2.fastq.gz	ftp.sra.ebi.ac.uk/vol1/ERA673/ERA673513/fastq/FTC30_sequence_R1.fastq.gz;ftp.sra.ebi.ac.uk/vol1/ERA673/ERA673513/fastq/FTC30_sequence_R2.fastq.gz	ftp.sra.ebi.ac.uk/vol1/ERA673/ERA673513/fastq/FTC30_sequence_R1.fastq.gz;ftp.sra.ebi.ac.uk/vol1/ERA673/ERA673513/fastq/FTC30_sequence_R2.fastq.gz	ftp.sra.ebi.ac.uk/vol1/err/ERR151/007/ERR1518717	ftp.sra.ebi.ac.uk/vol1/err/ERR151/007/ERR1518717		
PRJEB11591	SAMEA4065763	SNU-GMI-FV01	ERS1236873	ERX1589697	ERR1518718	9606	Homo sapiens	Illumina HiSeq 2000	PAIRED	ftp.sra.ebi.ac.uk/vol1/fastq/ERR151/008/ERR1518718/ERR1518718_1.fastq.gz;ftp.sra.ebi.ac.uk/vol1/fastq/ERR151/008/ERR1518718/ERR1518718_2.fastq.gz	ftp.sra.ebi.ac.uk/vol1/fastq/ERR151/008/ERR1518718/ERR1518718_1.fastq.gz;ftp.sra.ebi.ac.uk/vol1/fastq/ERR151/008/ERR1518718/ERR1518718_2.fastq.gz	ftp.sra.ebi.ac.uk/vol1/ERA673/ERA673513/fastq/FV01_sequence_R1.fastq.gz;ftp.sra.ebi.ac.uk/vol1/ERA673/ERA673513/fastq/FV01_sequence_R2.fastq.gz	ftp.sra.ebi.ac.uk/vol1/ERA673/ERA673513/fastq/FV01_sequence_R1.fastq.gz;ftp.sra.ebi.ac.uk/vol1/ERA673/ERA673513/fastq/FV01_sequence_R2.fastq.gz	ftp.sra.ebi.ac.uk/vol1/err/ERR151/008/ERR1518718	ftp.sra.ebi.ac.uk/vol1/err/ERR151/008/ERR1518718		
PRJEB11591	SAMEA4065765	SNU-GMI-FV02	ERS1236875	ERX1589699	ERR1518720	9606	Homo sapiens	Illumina HiSeq 2000	PAIRED	ftp.sra.ebi.ac.uk/vol1/fastq/ERR151/000/ERR1518720/ERR1518720_1.fastq.gz;ftp.sra.ebi.ac.uk/vol1/fastq/ERR151/000/ERR1518720/ERR1518720_2.fastq.gz	ftp.sra.ebi.ac.uk/vol1/fastq/ERR151/000/ERR1518720/ERR1518720_1.fastq.gz;ftp.sra.ebi.ac.uk/vol1/fastq/ERR151/000/ERR1518720/ERR1518720_2.fastq.gz	ftp.sra.ebi.ac.uk/vol1/ERA673/ERA673513/fastq/FV02_sequence_R1.fastq.gz;ftp.sra.ebi.ac.uk/vol1/ERA673/ERA673513/fastq/FV02_sequence_R2.fastq.gz	ftp.sra.ebi.ac.uk/vol1/ERA673/ERA673513/fastq/FV02_sequence_R1.fastq.gz;ftp.sra.ebi.ac.uk/vol1/ERA673/ERA673513/fastq/FV02_sequence_R2.fastq.gz	ftp.sra.ebi.ac.uk/vol1/err/ERR151/000/ERR1518720	ftp.sra.ebi.ac.uk/vol1/err/ERR151/000/ERR1518720		
PRJEB11591	SAMEA4065766	SNU-GMI-FV03	ERS1236876	ERX1589700	ERR1518721	9606	Homo sapiens	Illumina HiSeq 2000	PAIRED	ftp.sra.ebi.ac.uk/vol1/fastq/ERR151/001/ERR1518721/ERR1518721_1.fastq.gz;ftp.sra.ebi.ac.uk/vol1/fastq/ERR151/001/ERR1518721/ERR1518721_2.fastq.gz	ftp.sra.ebi.ac.uk/vol1/fastq/ERR151/001/ERR1518721/ERR1518721_1.fastq.gz;ftp.sra.ebi.ac.uk/vol1/fastq/ERR151/001/ERR1518721/ERR1518721_2.fastq.gz	ftp.sra.ebi.ac.uk/vol1/ERA673/ERA673513/fastq/FV03_sequence_R1.fastq.gz;ftp.sra.ebi.ac.uk/vol1/ERA673/ERA673513/fastq/FV03_sequence_R2.fastq.gz	ftp.sra.ebi.ac.uk/vol1/ERA673/ERA673513/fastq/FV03_sequence_R1.fastq.gz;ftp.sra.ebi.ac.uk/vol1/ERA673/ERA673513/fastq/FV03_sequence_R2.fastq.gz	ftp.sra.ebi.ac.uk/vol1/err/ERR151/001/ERR1518721	ftp.sra.ebi.ac.uk/vol1/err/ERR151/001/ERR1518721		
PRJEB11591	SAMEA4065767	SNU-GMI-FV04	ERS1236877	ERX1589701	ERR1518722	9606	Homo sapiens	Illumina HiSeq 2000	PAIRED	ftp.sra.ebi.ac.uk/vol1/fastq/ERR151/002/ERR1518722/ERR1518722_1.fastq.gz;ftp.sra.ebi.ac.uk/vol1/fastq/ERR151/002/ERR1518722/ERR1518722_2.fastq.gz	ftp.sra.ebi.ac.uk/vol1/fastq/ERR151/002/ERR1518722/ERR1518722_1.fastq.gz;ftp.sra.ebi.ac.uk/vol1/fastq/ERR151/002/ERR1518722/ERR1518722_2.fastq.gz	ftp.sra.ebi.ac.uk/vol1/ERA673/ERA673513/fastq/FV04_sequence_R1.fastq.gz;ftp.sra.ebi.ac.uk/vol1/ERA673/ERA673513/fastq/FV04_sequence_R2.fastq.gz	ftp.sra.ebi.ac.uk/vol1/ERA673/ERA673513/fastq/FV04_sequence_R1.fastq.gz;ftp.sra.ebi.ac.uk/vol1/ERA673/ERA673513/fastq/FV04_sequence_R2.fastq.gz	ftp.sra.ebi.ac.uk/vol1/err/ERR151/002/ERR1518722	ftp.sra.ebi.ac.uk/vol1/err/ERR151/002/ERR1518722		
PRJEB11591	SAMEA4065768	SNU-GMI-FV05	ERS1236878	ERX1589702	ERR1518723	9606	Homo sapiens	Illumina HiSeq 2000	PAIRED	ftp.sra.ebi.ac.uk/vol1/fastq/ERR151/003/ERR1518723/ERR1518723_1.fastq.gz;ftp.sra.ebi.ac.uk/vol1/fastq/ERR151/003/ERR1518723/ERR1518723_2.fastq.gz	ftp.sra.ebi.ac.uk/vol1/fastq/ERR151/003/ERR1518723/ERR1518723_1.fastq.gz;ftp.sra.ebi.ac.uk/vol1/fastq/ERR151/003/ERR1518723/ERR1518723_2.fastq.gz	ftp.sra.ebi.ac.uk/vol1/ERA673/ERA673513/fastq/FV05_sequence_R1.fastq.gz;ftp.sra.ebi.ac.uk/vol1/ERA673/ERA673513/fastq/FV05_sequence_R2.fastq.gz	ftp.sra.ebi.ac.uk/vol1/ERA673/ERA673513/fastq/FV05_sequence_R1.fastq.gz;ftp.sra.ebi.ac.uk/vol1/ERA673/ERA673513/fastq/FV05_sequence_R2.fastq.gz	ftp.sra.ebi.ac.uk/vol1/err/ERR151/003/ERR1518723	ftp.sra.ebi.ac.uk/vol1/err/ERR151/003/ERR1518723		
PRJEB11591	SAMEA4065769	SNU-GMI-FV06	ERS1236879	ERX1589703	ERR1518724	9606	Homo sapiens	Illumina HiSeq 2000	PAIRED	ftp.sra.ebi.ac.uk/vol1/fastq/ERR151/004/ERR1518724/ERR1518724_1.fastq.gz;ftp.sra.ebi.ac.uk/vol1/fastq/ERR151/004/ERR1518724/ERR1518724_2.fastq.gz	ftp.sra.ebi.ac.uk/vol1/fastq/ERR151/004/ERR1518724/ERR1518724_1.fastq.gz;ftp.sra.ebi.ac.uk/vol1/fastq/ERR151/004/ERR1518724/ERR1518724_2.fastq.gz	ftp.sra.ebi.ac.uk/vol1/ERA673/ERA673513/fastq/FV06_sequence_R1.fastq.gz;ftp.sra.ebi.ac.uk/vol1/ERA673/ERA673513/fastq/FV06_sequence_R2.fastq.gz	ftp.sra.ebi.ac.uk/vol1/ERA673/ERA673513/fastq/FV06_sequence_R1.fastq.gz;ftp.sra.ebi.ac.uk/vol1/ERA673/ERA673513/fastq/FV06_sequence_R2.fastq.gz	ftp.sra.ebi.ac.uk/vol1/err/ERR151/004/ERR1518724	ftp.sra.ebi.ac.uk/vol1/err/ERR151/004/ERR1518724		
PRJEB11591	SAMEA4065770	SNU-GMI-FV07	ERS1236880	ERX1589704	ERR1518725	9606	Homo sapiens	Illumina HiSeq 2000	PAIRED	ftp.sra.ebi.ac.uk/vol1/fastq/ERR151/005/ERR1518725/ERR1518725_1.fastq.gz;ftp.sra.ebi.ac.uk/vol1/fastq/ERR151/005/ERR1518725/ERR1518725_2.fastq.gz	ftp.sra.ebi.ac.uk/vol1/fastq/ERR151/005/ERR1518725/ERR1518725_1.fastq.gz;ftp.sra.ebi.ac.uk/vol1/fastq/ERR151/005/ERR1518725/ERR1518725_2.fastq.gz	ftp.sra.ebi.ac.uk/vol1/ERA673/ERA673513/fastq/FV07_sequence_R1.fastq.gz;ftp.sra.ebi.ac.uk/vol1/ERA673/ERA673513/fastq/FV07_sequence_R2.fastq.gz	ftp.sra.ebi.ac.uk/vol1/ERA673/ERA673513/fastq/FV07_sequence_R1.fastq.gz;ftp.sra.ebi.ac.uk/vol1/ERA673/ERA673513/fastq/FV07_sequence_R2.fastq.gz	ftp.sra.ebi.ac.uk/vol1/err/ERR151/005/ERR1518725	ftp.sra.ebi.ac.uk/vol1/err/ERR151/005/ERR1518725		
PRJEB11591	SAMEA4065771	SNU-GMI-FV08	ERS1236881	ERX1589705	ERR1518726	9606	Homo sapiens	Illumina HiSeq 2000	PAIRED	ftp.sra.ebi.ac.uk/vol1/fastq/ERR151/006/ERR1518726/ERR1518726_1.fastq.gz;ftp.sra.ebi.ac.uk/vol1/fastq/ERR151/006/ERR1518726/ERR1518726_2.fastq.gz	ftp.sra.ebi.ac.uk/vol1/fastq/ERR151/006/ERR1518726/ERR1518726_1.fastq.gz;ftp.sra.ebi.ac.uk/vol1/fastq/ERR151/006/ERR1518726/ERR1518726_2.fastq.gz	ftp.sra.ebi.ac.uk/vol1/ERA673/ERA673513/fastq/FV08_sequence_R1.fastq.gz;ftp.sra.ebi.ac.uk/vol1/ERA673/ERA673513/fastq/FV08_sequence_R2.fastq.gz	ftp.sra.ebi.ac.uk/vol1/ERA673/ERA673513/fastq/FV08_sequence_R1.fastq.gz;ftp.sra.ebi.ac.uk/vol1/ERA673/ERA673513/fastq/FV08_sequence_R2.fastq.gz	ftp.sra.ebi.ac.uk/vol1/err/ERR151/006/ERR1518726	ftp.sra.ebi.ac.uk/vol1/err/ERR151/006/ERR1518726		
PRJEB11591	SAMEA4065772	SNU-GMI-FV09	ERS1236882	ERX1589706	ERR1518727	9606	Homo sapiens	Illumina HiSeq 2000	PAIRED	ftp.sra.ebi.ac.uk/vol1/fastq/ERR151/007/ERR1518727/ERR1518727_1.fastq.gz;ftp.sra.ebi.ac.uk/vol1/fastq/ERR151/007/ERR1518727/ERR1518727_2.fastq.gz	ftp.sra.ebi.ac.uk/vol1/fastq/ERR151/007/ERR1518727/ERR1518727_1.fastq.gz;ftp.sra.ebi.ac.uk/vol1/fastq/ERR151/007/ERR1518727/ERR1518727_2.fastq.gz	ftp.sra.ebi.ac.uk/vol1/ERA673/ERA673513/fastq/FV09_sequence_R1.fastq.gz;ftp.sra.ebi.ac.uk/vol1/ERA673/ERA673513/fastq/FV09_sequence_R2.fastq.gz	ftp.sra.ebi.ac.uk/vol1/ERA673/ERA673513/fastq/FV09_sequence_R1.fastq.gz;ftp.sra.ebi.ac.uk/vol1/ERA673/ERA673513/fastq/FV09_sequence_R2.fastq.gz	ftp.sra.ebi.ac.uk/vol1/err/ERR151/007/ERR1518727	ftp.sra.ebi.ac.uk/vol1/err/ERR151/007/ERR1518727		
PRJEB11591	SAMEA4065774	SNU-GMI-FV10	ERS1236884	ERX1589708	ERR1518729	9606	Homo sapiens	Illumina HiSeq 2000	PAIRED	ftp.sra.ebi.ac.uk/vol1/fastq/ERR151/009/ERR1518729/ERR1518729_1.fastq.gz;ftp.sra.ebi.ac.uk/vol1/fastq/ERR151/009/ERR1518729/ERR1518729_2.fastq.gz	ftp.sra.ebi.ac.uk/vol1/fastq/ERR151/009/ERR1518729/ERR1518729_1.fastq.gz;ftp.sra.ebi.ac.uk/vol1/fastq/ERR151/009/ERR1518729/ERR1518729_2.fastq.gz	ftp.sra.ebi.ac.uk/vol1/ERA673/ERA673513/fastq/FV10_sequence_R1.fastq.gz;ftp.sra.ebi.ac.uk/vol1/ERA673/ERA673513/fastq/FV10_sequence_R2.fastq.gz	ftp.sra.ebi.ac.uk/vol1/ERA673/ERA673513/fastq/FV10_sequence_R1.fastq.gz;ftp.sra.ebi.ac.uk/vol1/ERA673/ERA673513/fastq/FV10_sequence_R2.fastq.gz	ftp.sra.ebi.ac.uk/vol1/err/ERR151/009/ERR1518729	ftp.sra.ebi.ac.uk/vol1/err/ERR151/009/ERR1518729		
PRJEB11591	SAMEA4065775	SNU-GMI-FV11	ERS1236885	ERX1589709	ERR1518730	9606	Homo sapiens	Illumina HiSeq 2000	PAIRED	ftp.sra.ebi.ac.uk/vol1/fastq/ERR151/000/ERR1518730/ERR1518730_1.fastq.gz;ftp.sra.ebi.ac.uk/vol1/fastq/ERR151/000/ERR1518730/ERR1518730_2.fastq.gz	ftp.sra.ebi.ac.uk/vol1/fastq/ERR151/000/ERR1518730/ERR1518730_1.fastq.gz;ftp.sra.ebi.ac.uk/vol1/fastq/ERR151/000/ERR1518730/ERR1518730_2.fastq.gz	ftp.sra.ebi.ac.uk/vol1/ERA673/ERA673513/fastq/FV11_sequence_R1.fastq.gz;ftp.sra.ebi.ac.uk/vol1/ERA673/ERA673513/fastq/FV11_sequence_R2.fastq.gz	ftp.sra.ebi.ac.uk/vol1/ERA673/ERA673513/fastq/FV11_sequence_R1.fastq.gz;ftp.sra.ebi.ac.uk/vol1/ERA673/ERA673513/fastq/FV11_sequence_R2.fastq.gz	ftp.sra.ebi.ac.uk/vol1/err/ERR151/000/ERR1518730	ftp.sra.ebi.ac.uk/vol1/err/ERR151/000/ERR1518730		
PRJEB11591	SAMEA4065776	SNU-GMI-FV12	ERS1236886	ERX1589710	ERR1518731	9606	Homo sapiens	Illumina HiSeq 2000	PAIRED	ftp.sra.ebi.ac.uk/vol1/fastq/ERR151/001/ERR1518731/ERR1518731_1.fastq.gz;ftp.sra.ebi.ac.uk/vol1/fastq/ERR151/001/ERR1518731/ERR1518731_2.fastq.gz	ftp.sra.ebi.ac.uk/vol1/fastq/ERR151/001/ERR1518731/ERR1518731_1.fastq.gz;ftp.sra.ebi.ac.uk/vol1/fastq/ERR151/001/ERR1518731/ERR1518731_2.fastq.gz	ftp.sra.ebi.ac.uk/vol1/ERA673/ERA673513/fastq/FV12_sequence_R1.fastq.gz;ftp.sra.ebi.ac.uk/vol1/ERA673/ERA673513/fastq/FV12_sequence_R2.fastq.gz	ftp.sra.ebi.ac.uk/vol1/ERA673/ERA673513/fastq/FV12_sequence_R1.fastq.gz;ftp.sra.ebi.ac.uk/vol1/ERA673/ERA673513/fastq/FV12_sequence_R2.fastq.gz	ftp.sra.ebi.ac.uk/vol1/err/ERR151/001/ERR1518731	ftp.sra.ebi.ac.uk/vol1/err/ERR151/001/ERR1518731		
PRJEB11591	SAMEA4065777	SNU-GMI-FV13	ERS1236887	ERX1589711	ERR1518732	9606	Homo sapiens	Illumina HiSeq 2000	PAIRED	ftp.sra.ebi.ac.uk/vol1/fastq/ERR151/002/ERR1518732/ERR1518732_1.fastq.gz;ftp.sra.ebi.ac.uk/vol1/fastq/ERR151/002/ERR1518732/ERR1518732_2.fastq.gz	ftp.sra.ebi.ac.uk/vol1/fastq/ERR151/002/ERR1518732/ERR1518732_1.fastq.gz;ftp.sra.ebi.ac.uk/vol1/fastq/ERR151/002/ERR1518732/ERR1518732_2.fastq.gz	ftp.sra.ebi.ac.uk/vol1/ERA673/ERA673513/fastq/FV13_sequence_R1.fastq.gz;ftp.sra.ebi.ac.uk/vol1/ERA673/ERA673513/fastq/FV13_sequence_R2.fastq.gz	ftp.sra.ebi.ac.uk/vol1/ERA673/ERA673513/fastq/FV13_sequence_R1.fastq.gz;ftp.sra.ebi.ac.uk/vol1/ERA673/ERA673513/fastq/FV13_sequence_R2.fastq.gz	ftp.sra.ebi.ac.uk/vol1/err/ERR151/002/ERR1518732	ftp.sra.ebi.ac.uk/vol1/err/ERR151/002/ERR1518732		
PRJEB11591	SAMEA4065778	SNU-GMI-FV14	ERS1236888	ERX1589712	ERR1518733	9606	Homo sapiens	Illumina HiSeq 2000	PAIRED	ftp.sra.ebi.ac.uk/vol1/fastq/ERR151/003/ERR1518733/ERR1518733_1.fastq.gz;ftp.sra.ebi.ac.uk/vol1/fastq/ERR151/003/ERR1518733/ERR1518733_2.fastq.gz	ftp.sra.ebi.ac.uk/vol1/fastq/ERR151/003/ERR1518733/ERR1518733_1.fastq.gz;ftp.sra.ebi.ac.uk/vol1/fastq/ERR151/003/ERR1518733/ERR1518733_2.fastq.gz	ftp.sra.ebi.ac.uk/vol1/ERA673/ERA673513/fastq/FV14_sequence_R1.fastq.gz;ftp.sra.ebi.ac.uk/vol1/ERA673/ERA673513/fastq/FV14_sequence_R2.fastq.gz	ftp.sra.ebi.ac.uk/vol1/ERA673/ERA673513/fastq/FV14_sequence_R1.fastq.gz;ftp.sra.ebi.ac.uk/vol1/ERA673/ERA673513/fastq/FV14_sequence_R2.fastq.gz	ftp.sra.ebi.ac.uk/vol1/err/ERR151/003/ERR1518733	ftp.sra.ebi.ac.uk/vol1/err/ERR151/003/ERR1518733		
PRJEB11591	SAMEA4065779	SNU-GMI-FV15	ERS1236889	ERX1589713	ERR1518734	9606	Homo sapiens	Illumina HiSeq 2000	PAIRED	ftp.sra.ebi.ac.uk/vol1/fastq/ERR151/004/ERR1518734/ERR1518734_1.fastq.gz;ftp.sra.ebi.ac.uk/vol1/fastq/ERR151/004/ERR1518734/ERR1518734_2.fastq.gz	ftp.sra.ebi.ac.uk/vol1/fastq/ERR151/004/ERR1518734/ERR1518734_1.fastq.gz;ftp.sra.ebi.ac.uk/vol1/fastq/ERR151/004/ERR1518734/ERR1518734_2.fastq.gz	ftp.sra.ebi.ac.uk/vol1/ERA673/ERA673513/fastq/FV15_sequence_R1.fastq.gz;ftp.sra.ebi.ac.uk/vol1/ERA673/ERA673513/fastq/FV15_sequence_R2.fastq.gz	ftp.sra.ebi.ac.uk/vol1/ERA673/ERA673513/fastq/FV15_sequence_R1.fastq.gz;ftp.sra.ebi.ac.uk/vol1/ERA673/ERA673513/fastq/FV15_sequence_R2.fastq.gz	ftp.sra.ebi.ac.uk/vol1/err/ERR151/004/ERR1518734	ftp.sra.ebi.ac.uk/vol1/err/ERR151/004/ERR1518734		
PRJEB11591	SAMEA4065780	SNU-GMI-FV16	ERS1236890	ERX1589714	ERR1518735	9606	Homo sapiens	Illumina HiSeq 2000	PAIRED	ftp.sra.ebi.ac.uk/vol1/fastq/ERR151/005/ERR1518735/ERR1518735_1.fastq.gz;ftp.sra.ebi.ac.uk/vol1/fastq/ERR151/005/ERR1518735/ERR1518735_2.fastq.gz	ftp.sra.ebi.ac.uk/vol1/fastq/ERR151/005/ERR1518735/ERR1518735_1.fastq.gz;ftp.sra.ebi.ac.uk/vol1/fastq/ERR151/005/ERR1518735/ERR1518735_2.fastq.gz	ftp.sra.ebi.ac.uk/vol1/ERA673/ERA673513/fastq/FV16_sequence_R1.fastq.gz;ftp.sra.ebi.ac.uk/vol1/ERA673/ERA673513/fastq/FV16_sequence_R2.fastq.gz	ftp.sra.ebi.ac.uk/vol1/ERA673/ERA673513/fastq/FV16_sequence_R1.fastq.gz;ftp.sra.ebi.ac.uk/vol1/ERA673/ERA673513/fastq/FV16_sequence_R2.fastq.gz	ftp.sra.ebi.ac.uk/vol1/err/ERR151/005/ERR1518735	ftp.sra.ebi.ac.uk/vol1/err/ERR151/005/ERR1518735		
PRJEB11591	SAMEA4065781	SNU-GMI-FV17	ERS1236891	ERX1589715	ERR1518736	9606	Homo sapiens	Illumina HiSeq 2000	PAIRED	ftp.sra.ebi.ac.uk/vol1/fastq/ERR151/006/ERR1518736/ERR1518736_1.fastq.gz;ftp.sra.ebi.ac.uk/vol1/fastq/ERR151/006/ERR1518736/ERR1518736_2.fastq.gz	ftp.sra.ebi.ac.uk/vol1/fastq/ERR151/006/ERR1518736/ERR1518736_1.fastq.gz;ftp.sra.ebi.ac.uk/vol1/fastq/ERR151/006/ERR1518736/ERR1518736_2.fastq.gz	ftp.sra.ebi.ac.uk/vol1/ERA673/ERA673513/fastq/FV17_sequence_R1.fastq.gz;ftp.sra.ebi.ac.uk/vol1/ERA673/ERA673513/fastq/FV17_sequence_R2.fastq.gz	ftp.sra.ebi.ac.uk/vol1/ERA673/ERA673513/fastq/FV17_sequence_R1.fastq.gz;ftp.sra.ebi.ac.uk/vol1/ERA673/ERA673513/fastq/FV17_sequence_R2.fastq.gz	ftp.sra.ebi.ac.uk/vol1/err/ERR151/006/ERR1518736	ftp.sra.ebi.ac.uk/vol1/err/ERR151/006/ERR1518736		
PRJEB11591	SAMEA4065782	SNU-GMI-FV18	ERS1236892	ERX1589716	ERR1518737	9606	Homo sapiens	Illumina HiSeq 2000	PAIRED	ftp.sra.ebi.ac.uk/vol1/fastq/ERR151/007/ERR1518737/ERR1518737_1.fastq.gz;ftp.sra.ebi.ac.uk/vol1/fastq/ERR151/007/ERR1518737/ERR1518737_2.fastq.gz	ftp.sra.ebi.ac.uk/vol1/fastq/ERR151/007/ERR1518737/ERR1518737_1.fastq.gz;ftp.sra.ebi.ac.uk/vol1/fastq/ERR151/007/ERR1518737/ERR1518737_2.fastq.gz	ftp.sra.ebi.ac.uk/vol1/ERA673/ERA673513/fastq/FV18_sequence_R1.fastq.gz;ftp.sra.ebi.ac.uk/vol1/ERA673/ERA673513/fastq/FV18_sequence_R2.fastq.gz	ftp.sra.ebi.ac.uk/vol1/ERA673/ERA673513/fastq/FV18_sequence_R1.fastq.gz;ftp.sra.ebi.ac.uk/vol1/ERA673/ERA673513/fastq/FV18_sequence_R2.fastq.gz	ftp.sra.ebi.ac.uk/vol1/err/ERR151/007/ERR1518737	ftp.sra.ebi.ac.uk/vol1/err/ERR151/007/ERR1518737		
PRJEB11591	SAMEA4065783	SNU-GMI-FV19	ERS1236893	ERX1589717	ERR1518738	9606	Homo sapiens	Illumina HiSeq 2000	PAIRED	ftp.sra.ebi.ac.uk/vol1/fastq/ERR151/008/ERR1518738/ERR1518738_1.fastq.gz;ftp.sra.ebi.ac.uk/vol1/fastq/ERR151/008/ERR1518738/ERR1518738_2.fastq.gz	ftp.sra.ebi.ac.uk/vol1/fastq/ERR151/008/ERR1518738/ERR1518738_1.fastq.gz;ftp.sra.ebi.ac.uk/vol1/fastq/ERR151/008/ERR1518738/ERR1518738_2.fastq.gz	ftp.sra.ebi.ac.uk/vol1/ERA673/ERA673513/fastq/FV19_sequence_R1.fastq.gz;ftp.sra.ebi.ac.uk/vol1/ERA673/ERA673513/fastq/FV19_sequence_R2.fastq.gz	ftp.sra.ebi.ac.uk/vol1/ERA673/ERA673513/fastq/FV19_sequence_R1.fastq.gz;ftp.sra.ebi.ac.uk/vol1/ERA673/ERA673513/fastq/FV19_sequence_R2.fastq.gz	ftp.sra.ebi.ac.uk/vol1/err/ERR151/008/ERR1518738	ftp.sra.ebi.ac.uk/vol1/err/ERR151/008/ERR1518738		
PRJEB11591	SAMEA4065784	SNU-GMI-FV20	ERS1236894	ERX1589718	ERR1518739	9606	Homo sapiens	Illumina HiSeq 2000	PAIRED	ftp.sra.ebi.ac.uk/vol1/fastq/ERR151/009/ERR1518739/ERR1518739_1.fastq.gz;ftp.sra.ebi.ac.uk/vol1/fastq/ERR151/009/ERR1518739/ERR1518739_2.fastq.gz	ftp.sra.ebi.ac.uk/vol1/fastq/ERR151/009/ERR1518739/ERR1518739_1.fastq.gz;ftp.sra.ebi.ac.uk/vol1/fastq/ERR151/009/ERR1518739/ERR1518739_2.fastq.gz	ftp.sra.ebi.ac.uk/vol1/ERA673/ERA673513/fastq/FV20_sequence_R1.fastq.gz;ftp.sra.ebi.ac.uk/vol1/ERA673/ERA673513/fastq/FV20_sequence_R2.fastq.gz	ftp.sra.ebi.ac.uk/vol1/ERA673/ERA673513/fastq/FV20_sequence_R1.fastq.gz;ftp.sra.ebi.ac.uk/vol1/ERA673/ERA673513/fastq/FV20_sequence_R2.fastq.gz	ftp.sra.ebi.ac.uk/vol1/err/ERR151/009/ERR1518739	ftp.sra.ebi.ac.uk/vol1/err/ERR151/009/ERR1518739		
PRJEB11591	SAMEA4065785	SNU-GMI-FV21	ERS1236895	ERX1589719	ERR1518740	9606	Homo sapiens	Illumina HiSeq 2000	PAIRED	ftp.sra.ebi.ac.uk/vol1/fastq/ERR151/000/ERR1518740/ERR1518740_1.fastq.gz;ftp.sra.ebi.ac.uk/vol1/fastq/ERR151/000/ERR1518740/ERR1518740_2.fastq.gz	ftp.sra.ebi.ac.uk/vol1/fastq/ERR151/000/ERR1518740/ERR1518740_1.fastq.gz;ftp.sra.ebi.ac.uk/vol1/fastq/ERR151/000/ERR1518740/ERR1518740_2.fastq.gz	ftp.sra.ebi.ac.uk/vol1/ERA673/ERA673513/fastq/FV21_sequence_R1.fastq.gz;ftp.sra.ebi.ac.uk/vol1/ERA673/ERA673513/fastq/FV21_sequence_R2.fastq.gz	ftp.sra.ebi.ac.uk/vol1/ERA673/ERA673513/fastq/FV21_sequence_R1.fastq.gz;ftp.sra.ebi.ac.uk/vol1/ERA673/ERA673513/fastq/FV21_sequence_R2.fastq.gz	ftp.sra.ebi.ac.uk/vol1/err/ERR151/000/ERR1518740	ftp.sra.ebi.ac.uk/vol1/err/ERR151/000/ERR1518740		
PRJEB11591	SAMEA4065786	SNU-GMI-FV22	ERS1236896	ERX1589720	ERR1518741	9606	Homo sapiens	Illumina HiSeq 2000	PAIRED	ftp.sra.ebi.ac.uk/vol1/fastq/ERR151/001/ERR1518741/ERR1518741_1.fastq.gz;ftp.sra.ebi.ac.uk/vol1/fastq/ERR151/001/ERR1518741/ERR1518741_2.fastq.gz	ftp.sra.ebi.ac.uk/vol1/fastq/ERR151/001/ERR1518741/ERR1518741_1.fastq.gz;ftp.sra.ebi.ac.uk/vol1/fastq/ERR151/001/ERR1518741/ERR1518741_2.fastq.gz	ftp.sra.ebi.ac.uk/vol1/ERA673/ERA673513/fastq/FV22_sequence_R1.fastq.gz;ftp.sra.ebi.ac.uk/vol1/ERA673/ERA673513/fastq/FV22_sequence_R2.fastq.gz	ftp.sra.ebi.ac.uk/vol1/ERA673/ERA673513/fastq/FV22_sequence_R1.fastq.gz;ftp.sra.ebi.ac.uk/vol1/ERA673/ERA673513/fastq/FV22_sequence_R2.fastq.gz	ftp.sra.ebi.ac.uk/vol1/err/ERR151/001/ERR1518741	ftp.sra.ebi.ac.uk/vol1/err/ERR151/001/ERR1518741		
PRJEB11591	SAMEA4065787	SNU-GMI-FV23	ERS1236897	ERX1589721	ERR1518742	9606	Homo sapiens	Illumina HiSeq 2000	PAIRED	ftp.sra.ebi.ac.uk/vol1/fastq/ERR151/002/ERR1518742/ERR1518742_1.fastq.gz;ftp.sra.ebi.ac.uk/vol1/fastq/ERR151/002/ERR1518742/ERR1518742_2.fastq.gz	ftp.sra.ebi.ac.uk/vol1/fastq/ERR151/002/ERR1518742/ERR1518742_1.fastq.gz;ftp.sra.ebi.ac.uk/vol1/fastq/ERR151/002/ERR1518742/ERR1518742_2.fastq.gz	ftp.sra.ebi.ac.uk/vol1/ERA673/ERA673513/fastq/FV23_sequence_R1.fastq.gz;ftp.sra.ebi.ac.uk/vol1/ERA673/ERA673513/fastq/FV23_sequence_R2.fastq.gz	ftp.sra.ebi.ac.uk/vol1/ERA673/ERA673513/fastq/FV23_sequence_R1.fastq.gz;ftp.sra.ebi.ac.uk/vol1/ERA673/ERA673513/fastq/FV23_sequence_R2.fastq.gz	ftp.sra.ebi.ac.uk/vol1/err/ERR151/002/ERR1518742	ftp.sra.ebi.ac.uk/vol1/err/ERR151/002/ERR1518742		
PRJEB11591	SAMEA4065788	SNU-GMI-FV24	ERS1236898	ERX1589722	ERR1518743	9606	Homo sapiens	Illumina HiSeq 2000	PAIRED	ftp.sra.ebi.ac.uk/vol1/fastq/ERR151/003/ERR1518743/ERR1518743_1.fastq.gz;ftp.sra.ebi.ac.uk/vol1/fastq/ERR151/003/ERR1518743/ERR1518743_2.fastq.gz	ftp.sra.ebi.ac.uk/vol1/fastq/ERR151/003/ERR1518743/ERR1518743_1.fastq.gz;ftp.sra.ebi.ac.uk/vol1/fastq/ERR151/003/ERR1518743/ERR1518743_2.fastq.gz	ftp.sra.ebi.ac.uk/vol1/ERA673/ERA673513/fastq/FV24_sequence_R1.fastq.gz;ftp.sra.ebi.ac.uk/vol1/ERA673/ERA673513/fastq/FV24_sequence_R2.fastq.gz	ftp.sra.ebi.ac.uk/vol1/ERA673/ERA673513/fastq/FV24_sequence_R1.fastq.gz;ftp.sra.ebi.ac.uk/vol1/ERA673/ERA673513/fastq/FV24_sequence_R2.fastq.gz	ftp.sra.ebi.ac.uk/vol1/err/ERR151/003/ERR1518743	ftp.sra.ebi.ac.uk/vol1/err/ERR151/003/ERR1518743		
PRJEB11591	SAMEA4065789	SNU-GMI-FV25	ERS1236899	ERX1589723	ERR1518744	9606	Homo sapiens	Illumina HiSeq 2000	PAIRED	ftp.sra.ebi.ac.uk/vol1/fastq/ERR151/004/ERR1518744/ERR1518744_1.fastq.gz;ftp.sra.ebi.ac.uk/vol1/fastq/ERR151/004/ERR1518744/ERR1518744_2.fastq.gz	ftp.sra.ebi.ac.uk/vol1/fastq/ERR151/004/ERR1518744/ERR1518744_1.fastq.gz;ftp.sra.ebi.ac.uk/vol1/fastq/ERR151/004/ERR1518744/ERR1518744_2.fastq.gz	ftp.sra.ebi.ac.uk/vol1/ERA673/ERA673513/fastq/FV25_sequence_R1.fastq.gz;ftp.sra.ebi.ac.uk/vol1/ERA673/ERA673513/fastq/FV25_sequence_R2.fastq.gz	ftp.sra.ebi.ac.uk/vol1/ERA673/ERA673513/fastq/FV25_sequence_R1.fastq.gz;ftp.sra.ebi.ac.uk/vol1/ERA673/ERA673513/fastq/FV25_sequence_R2.fastq.gz	ftp.sra.ebi.ac.uk/vol1/err/ERR151/004/ERR1518744	ftp.sra.ebi.ac.uk/vol1/err/ERR151/004/ERR1518744		
PRJEB11591	SAMEA4065790	SNU-GMI-FV26	ERS1236900	ERX1589724	ERR1518745	9606	Homo sapiens	Illumina HiSeq 2000	PAIRED	ftp.sra.ebi.ac.uk/vol1/fastq/ERR151/005/ERR1518745/ERR1518745_1.fastq.gz;ftp.sra.ebi.ac.uk/vol1/fastq/ERR151/005/ERR1518745/ERR1518745_2.fastq.gz	ftp.sra.ebi.ac.uk/vol1/fastq/ERR151/005/ERR1518745/ERR1518745_1.fastq.gz;ftp.sra.ebi.ac.uk/vol1/fastq/ERR151/005/ERR1518745/ERR1518745_2.fastq.gz	ftp.sra.ebi.ac.uk/vol1/ERA673/ERA673513/fastq/FV26_sequence_R1.fastq.gz;ftp.sra.ebi.ac.uk/vol1/ERA673/ERA673513/fastq/FV26_sequence_R2.fastq.gz	ftp.sra.ebi.ac.uk/vol1/ERA673/ERA673513/fastq/FV26_sequence_R1.fastq.gz;ftp.sra.ebi.ac.uk/vol1/ERA673/ERA673513/fastq/FV26_sequence_R2.fastq.gz	ftp.sra.ebi.ac.uk/vol1/err/ERR151/005/ERR1518745	ftp.sra.ebi.ac.uk/vol1/err/ERR151/005/ERR1518745		
PRJEB11591	SAMEA4065791	SNU-GMI-FV27	ERS1236901	ERX1589725	ERR1518746	9606	Homo sapiens	Illumina HiSeq 2000	PAIRED	ftp.sra.ebi.ac.uk/vol1/fastq/ERR151/006/ERR1518746/ERR1518746_1.fastq.gz;ftp.sra.ebi.ac.uk/vol1/fastq/ERR151/006/ERR1518746/ERR1518746_2.fastq.gz	ftp.sra.ebi.ac.uk/vol1/fastq/ERR151/006/ERR1518746/ERR1518746_1.fastq.gz;ftp.sra.ebi.ac.uk/vol1/fastq/ERR151/006/ERR1518746/ERR1518746_2.fastq.gz	ftp.sra.ebi.ac.uk/vol1/ERA673/ERA673513/fastq/FV27_sequence_R1.fastq.gz;ftp.sra.ebi.ac.uk/vol1/ERA673/ERA673513/fastq/FV27_sequence_R2.fastq.gz	ftp.sra.ebi.ac.uk/vol1/ERA673/ERA673513/fastq/FV27_sequence_R1.fastq.gz;ftp.sra.ebi.ac.uk/vol1/ERA673/ERA673513/fastq/FV27_sequence_R2.fastq.gz	ftp.sra.ebi.ac.uk/vol1/err/ERR151/006/ERR1518746	ftp.sra.ebi.ac.uk/vol1/err/ERR151/006/ERR1518746		
PRJEB11591	SAMEA4065792	SNU-GMI-FV28	ERS1236902	ERX1589726	ERR1518747	9606	Homo sapiens	Illumina HiSeq 2000	PAIRED	ftp.sra.ebi.ac.uk/vol1/fastq/ERR151/007/ERR1518747/ERR1518747_1.fastq.gz;ftp.sra.ebi.ac.uk/vol1/fastq/ERR151/007/ERR1518747/ERR1518747_2.fastq.gz	ftp.sra.ebi.ac.uk/vol1/fastq/ERR151/007/ERR1518747/ERR1518747_1.fastq.gz;ftp.sra.ebi.ac.uk/vol1/fastq/ERR151/007/ERR1518747/ERR1518747_2.fastq.gz	ftp.sra.ebi.ac.uk/vol1/ERA673/ERA673513/fastq/FV28_sequence_R1.fastq.gz;ftp.sra.ebi.ac.uk/vol1/ERA673/ERA673513/fastq/FV28_sequence_R2.fastq.gz	ftp.sra.ebi.ac.uk/vol1/ERA673/ERA673513/fastq/FV28_sequence_R1.fastq.gz;ftp.sra.ebi.ac.uk/vol1/ERA673/ERA673513/fastq/FV28_sequence_R2.fastq.gz	ftp.sra.ebi.ac.uk/vol1/err/ERR151/007/ERR1518747	ftp.sra.ebi.ac.uk/vol1/err/ERR151/007/ERR1518747		
PRJEB11591	SAMEA4065793	SNU-GMI-FV29	ERS1236903	ERX1589727	ERR1518748	9606	Homo sapiens	Illumina HiSeq 2000	PAIRED	ftp.sra.ebi.ac.uk/vol1/fastq/ERR151/008/ERR1518748/ERR1518748_1.fastq.gz;ftp.sra.ebi.ac.uk/vol1/fastq/ERR151/008/ERR1518748/ERR1518748_2.fastq.gz	ftp.sra.ebi.ac.uk/vol1/fastq/ERR151/008/ERR1518748/ERR1518748_1.fastq.gz;ftp.sra.ebi.ac.uk/vol1/fastq/ERR151/008/ERR1518748/ERR1518748_2.fastq.gz	ftp.sra.ebi.ac.uk/vol1/ERA673/ERA673513/fastq/FV29_sequence_R1.fastq.gz;ftp.sra.ebi.ac.uk/vol1/ERA673/ERA673513/fastq/FV29_sequence_R2.fastq.gz	ftp.sra.ebi.ac.uk/vol1/ERA673/ERA673513/fastq/FV29_sequence_R1.fastq.gz;ftp.sra.ebi.ac.uk/vol1/ERA673/ERA673513/fastq/FV29_sequence_R2.fastq.gz	ftp.sra.ebi.ac.uk/vol1/err/ERR151/008/ERR1518748	ftp.sra.ebi.ac.uk/vol1/err/ERR151/008/ERR1518748		
PRJEB11591	SAMEA4065795	SNU-GMI-FV30	ERS1236905	ERX1589729	ERR1518750	9606	Homo sapiens	Illumina HiSeq 2000	PAIRED	ftp.sra.ebi.ac.uk/vol1/fastq/ERR151/000/ERR1518750/ERR1518750_1.fastq.gz;ftp.sra.ebi.ac.uk/vol1/fastq/ERR151/000/ERR1518750/ERR1518750_2.fastq.gz	ftp.sra.ebi.ac.uk/vol1/fastq/ERR151/000/ERR1518750/ERR1518750_1.fastq.gz;ftp.sra.ebi.ac.uk/vol1/fastq/ERR151/000/ERR1518750/ERR1518750_2.fastq.gz	ftp.sra.ebi.ac.uk/vol1/ERA673/ERA673513/fastq/FV30_sequence_R1.fastq.gz;ftp.sra.ebi.ac.uk/vol1/ERA673/ERA673513/fastq/FV30_sequence_R2.fastq.gz	ftp.sra.ebi.ac.uk/vol1/ERA673/ERA673513/fastq/FV30_sequence_R1.fastq.gz;ftp.sra.ebi.ac.uk/vol1/ERA673/ERA673513/fastq/FV30_sequence_R2.fastq.gz	ftp.sra.ebi.ac.uk/vol1/err/ERR151/000/ERR1518750	ftp.sra.ebi.ac.uk/vol1/err/ERR151/000/ERR1518750		
PRJEB11591	SAMEA4065797	SNU-GMI-FV31	ERS1236907	ERX1589731	ERR1518752	9606	Homo sapiens	Illumina HiSeq 2000	PAIRED	ftp.sra.ebi.ac.uk/vol1/fastq/ERR151/002/ERR1518752/ERR1518752_1.fastq.gz;ftp.sra.ebi.ac.uk/vol1/fastq/ERR151/002/ERR1518752/ERR1518752_2.fastq.gz	ftp.sra.ebi.ac.uk/vol1/fastq/ERR151/002/ERR1518752/ERR1518752_1.fastq.gz;ftp.sra.ebi.ac.uk/vol1/fastq/ERR151/002/ERR1518752/ERR1518752_2.fastq.gz	ftp.sra.ebi.ac.uk/vol1/ERA673/ERA673513/fastq/FV31_sequence_R1.fastq.gz;ftp.sra.ebi.ac.uk/vol1/ERA673/ERA673513/fastq/FV31_sequence_R2.fastq.gz	ftp.sra.ebi.ac.uk/vol1/ERA673/ERA673513/fastq/FV31_sequence_R1.fastq.gz;ftp.sra.ebi.ac.uk/vol1/ERA673/ERA673513/fastq/FV31_sequence_R2.fastq.gz	ftp.sra.ebi.ac.uk/vol1/err/ERR151/002/ERR1518752	ftp.sra.ebi.ac.uk/vol1/err/ERR151/002/ERR1518752		
PRJEB11591	SAMEA4065799	SNU-GMI-FV32	ERS1236909	ERX1589733	ERR1518754	9606	Homo sapiens	Illumina HiSeq 2000	PAIRED	ftp.sra.ebi.ac.uk/vol1/fastq/ERR151/004/ERR1518754/ERR1518754_1.fastq.gz;ftp.sra.ebi.ac.uk/vol1/fastq/ERR151/004/ERR1518754/ERR1518754_2.fastq.gz	ftp.sra.ebi.ac.uk/vol1/fastq/ERR151/004/ERR1518754/ERR1518754_1.fastq.gz;ftp.sra.ebi.ac.uk/vol1/fastq/ERR151/004/ERR1518754/ERR1518754_2.fastq.gz	ftp.sra.ebi.ac.uk/vol1/ERA673/ERA673513/fastq/FV32_sequence_R1.fastq.gz;ftp.sra.ebi.ac.uk/vol1/ERA673/ERA673513/fastq/FV32_sequence_R2.fastq.gz	ftp.sra.ebi.ac.uk/vol1/ERA673/ERA673513/fastq/FV32_sequence_R1.fastq.gz;ftp.sra.ebi.ac.uk/vol1/ERA673/ERA673513/fastq/FV32_sequence_R2.fastq.gz	ftp.sra.ebi.ac.uk/vol1/err/ERR151/004/ERR1518754	ftp.sra.ebi.ac.uk/vol1/err/ERR151/004/ERR1518754		
PRJEB11591	SAMEA4065801	SNU-GMI-FV33	ERS1236911	ERX1589735	ERR1518756	9606	Homo sapiens	Illumina HiSeq 2000	PAIRED	ftp.sra.ebi.ac.uk/vol1/fastq/ERR151/006/ERR1518756/ERR1518756_1.fastq.gz;ftp.sra.ebi.ac.uk/vol1/fastq/ERR151/006/ERR1518756/ERR1518756_2.fastq.gz	ftp.sra.ebi.ac.uk/vol1/fastq/ERR151/006/ERR1518756/ERR1518756_1.fastq.gz;ftp.sra.ebi.ac.uk/vol1/fastq/ERR151/006/ERR1518756/ERR1518756_2.fastq.gz	ftp.sra.ebi.ac.uk/vol1/ERA673/ERA673513/fastq/FV33_sequence_R1.fastq.gz;ftp.sra.ebi.ac.uk/vol1/ERA673/ERA673513/fastq/FV33_sequence_R2.fastq.gz	ftp.sra.ebi.ac.uk/vol1/ERA673/ERA673513/fastq/FV33_sequence_R1.fastq.gz;ftp.sra.ebi.ac.uk/vol1/ERA673/ERA673513/fastq/FV33_sequence_R2.fastq.gz	ftp.sra.ebi.ac.uk/vol1/err/ERR151/006/ERR1518756	ftp.sra.ebi.ac.uk/vol1/err/ERR151/006/ERR1518756		
PRJEB11591	SAMEA4065803	SNU-GMI-FV34	ERS1236913	ERX1589737	ERR1518758	9606	Homo sapiens	Illumina HiSeq 2000	PAIRED	ftp.sra.ebi.ac.uk/vol1/fastq/ERR151/008/ERR1518758/ERR1518758_1.fastq.gz;ftp.sra.ebi.ac.uk/vol1/fastq/ERR151/008/ERR1518758/ERR1518758_2.fastq.gz	ftp.sra.ebi.ac.uk/vol1/fastq/ERR151/008/ERR1518758/ERR1518758_1.fastq.gz;ftp.sra.ebi.ac.uk/vol1/fastq/ERR151/008/ERR1518758/ERR1518758_2.fastq.gz	ftp.sra.ebi.ac.uk/vol1/ERA673/ERA673513/fastq/FV34_sequence_R1.fastq.gz;ftp.sra.ebi.ac.uk/vol1/ERA673/ERA673513/fastq/FV34_sequence_R2.fastq.gz	ftp.sra.ebi.ac.uk/vol1/ERA673/ERA673513/fastq/FV34_sequence_R1.fastq.gz;ftp.sra.ebi.ac.uk/vol1/ERA673/ERA673513/fastq/FV34_sequence_R2.fastq.gz	ftp.sra.ebi.ac.uk/vol1/err/ERR151/008/ERR1518758	ftp.sra.ebi.ac.uk/vol1/err/ERR151/008/ERR1518758		
PRJEB11591	SAMEA4065805	SNU-GMI-FV35	ERS1236915	ERX1589739	ERR1518760	9606	Homo sapiens	Illumina HiSeq 2000	PAIRED	ftp.sra.ebi.ac.uk/vol1/fastq/ERR151/000/ERR1518760/ERR1518760_1.fastq.gz;ftp.sra.ebi.ac.uk/vol1/fastq/ERR151/000/ERR1518760/ERR1518760_2.fastq.gz	ftp.sra.ebi.ac.uk/vol1/fastq/ERR151/000/ERR1518760/ERR1518760_1.fastq.gz;ftp.sra.ebi.ac.uk/vol1/fastq/ERR151/000/ERR1518760/ERR1518760_2.fastq.gz	ftp.sra.ebi.ac.uk/vol1/ERA673/ERA673513/fastq/FV35_sequence_R1.fastq.gz;ftp.sra.ebi.ac.uk/vol1/ERA673/ERA673513/fastq/FV35_sequence_R2.fastq.gz	ftp.sra.ebi.ac.uk/vol1/ERA673/ERA673513/fastq/FV35_sequence_R1.fastq.gz;ftp.sra.ebi.ac.uk/vol1/ERA673/ERA673513/fastq/FV35_sequence_R2.fastq.gz	ftp.sra.ebi.ac.uk/vol1/err/ERR151/000/ERR1518760	ftp.sra.ebi.ac.uk/vol1/err/ERR151/000/ERR1518760		
PRJEB11591	SAMEA4065807	SNU-GMI-FV36	ERS1236917	ERX1589741	ERR1518762	9606	Homo sapiens	Illumina HiSeq 2000	PAIRED	ftp.sra.ebi.ac.uk/vol1/fastq/ERR151/002/ERR1518762/ERR1518762_1.fastq.gz;ftp.sra.ebi.ac.uk/vol1/fastq/ERR151/002/ERR1518762/ERR1518762_2.fastq.gz	ftp.sra.ebi.ac.uk/vol1/fastq/ERR151/002/ERR1518762/ERR1518762_1.fastq.gz;ftp.sra.ebi.ac.uk/vol1/fastq/ERR151/002/ERR1518762/ERR1518762_2.fastq.gz	ftp.sra.ebi.ac.uk/vol1/ERA673/ERA673513/fastq/FV36_sequence_R1.fastq.gz;ftp.sra.ebi.ac.uk/vol1/ERA673/ERA673513/fastq/FV36_sequence_R2.fastq.gz	ftp.sra.ebi.ac.uk/vol1/ERA673/ERA673513/fastq/FV36_sequence_R1.fastq.gz;ftp.sra.ebi.ac.uk/vol1/ERA673/ERA673513/fastq/FV36_sequence_R2.fastq.gz	ftp.sra.ebi.ac.uk/vol1/err/ERR151/002/ERR1518762	ftp.sra.ebi.ac.uk/vol1/err/ERR151/002/ERR1518762		
PRJEB11591	SAMEA4065809	SNU-GMI-FV37	ERS1236919	ERX1589743	ERR1518764	9606	Homo sapiens	Illumina HiSeq 2000	PAIRED	ftp.sra.ebi.ac.uk/vol1/fastq/ERR151/004/ERR1518764/ERR1518764_1.fastq.gz;ftp.sra.ebi.ac.uk/vol1/fastq/ERR151/004/ERR1518764/ERR1518764_2.fastq.gz	ftp.sra.ebi.ac.uk/vol1/fastq/ERR151/004/ERR1518764/ERR1518764_1.fastq.gz;ftp.sra.ebi.ac.uk/vol1/fastq/ERR151/004/ERR1518764/ERR1518764_2.fastq.gz	ftp.sra.ebi.ac.uk/vol1/ERA673/ERA673513/fastq/FV37_sequence_R1.fastq.gz;ftp.sra.ebi.ac.uk/vol1/ERA673/ERA673513/fastq/FV37_sequence_R2.fastq.gz	ftp.sra.ebi.ac.uk/vol1/ERA673/ERA673513/fastq/FV37_sequence_R1.fastq.gz;ftp.sra.ebi.ac.uk/vol1/ERA673/ERA673513/fastq/FV37_sequence_R2.fastq.gz	ftp.sra.ebi.ac.uk/vol1/err/ERR151/004/ERR1518764	ftp.sra.ebi.ac.uk/vol1/err/ERR151/004/ERR1518764		
PRJEB11591	SAMEA4065811	SNU-GMI-FV38	ERS1236921	ERX1589745	ERR1518766	9606	Homo sapiens	Illumina HiSeq 2000	PAIRED	ftp.sra.ebi.ac.uk/vol1/fastq/ERR151/006/ERR1518766/ERR1518766_1.fastq.gz;ftp.sra.ebi.ac.uk/vol1/fastq/ERR151/006/ERR1518766/ERR1518766_2.fastq.gz	ftp.sra.ebi.ac.uk/vol1/fastq/ERR151/006/ERR1518766/ERR1518766_1.fastq.gz;ftp.sra.ebi.ac.uk/vol1/fastq/ERR151/006/ERR1518766/ERR1518766_2.fastq.gz	ftp.sra.ebi.ac.uk/vol1/ERA673/ERA673513/fastq/FV38_sequence_R1.fastq.gz;ftp.sra.ebi.ac.uk/vol1/ERA673/ERA673513/fastq/FV38_sequence_R2.fastq.gz	ftp.sra.ebi.ac.uk/vol1/ERA673/ERA673513/fastq/FV38_sequence_R1.fastq.gz;ftp.sra.ebi.ac.uk/vol1/ERA673/ERA673513/fastq/FV38_sequence_R2.fastq.gz	ftp.sra.ebi.ac.uk/vol1/err/ERR151/006/ERR1518766	ftp.sra.ebi.ac.uk/vol1/err/ERR151/006/ERR1518766		
PRJEB11591	SAMEA4065812	SNU-GMI-FV39	ERS1236922	ERX1589746	ERR1518767	9606	Homo sapiens	Illumina HiSeq 2000	PAIRED	ftp.sra.ebi.ac.uk/vol1/fastq/ERR151/007/ERR1518767/ERR1518767_1.fastq.gz;ftp.sra.ebi.ac.uk/vol1/fastq/ERR151/007/ERR1518767/ERR1518767_2.fastq.gz	ftp.sra.ebi.ac.uk/vol1/fastq/ERR151/007/ERR1518767/ERR1518767_1.fastq.gz;ftp.sra.ebi.ac.uk/vol1/fastq/ERR151/007/ERR1518767/ERR1518767_2.fastq.gz	ftp.sra.ebi.ac.uk/vol1/ERA673/ERA673513/fastq/FV39_sequence_R1.fastq.gz;ftp.sra.ebi.ac.uk/vol1/ERA673/ERA673513/fastq/FV39_sequence_R2.fastq.gz	ftp.sra.ebi.ac.uk/vol1/ERA673/ERA673513/fastq/FV39_sequence_R1.fastq.gz;ftp.sra.ebi.ac.uk/vol1/ERA673/ERA673513/fastq/FV39_sequence_R2.fastq.gz	ftp.sra.ebi.ac.uk/vol1/err/ERR151/007/ERR1518767	ftp.sra.ebi.ac.uk/vol1/err/ERR151/007/ERR1518767		
PRJEB11591	SAMEA4065813	SNU-GMI-FV40	ERS1236923	ERX1589747	ERR1518768	9606	Homo sapiens	Illumina HiSeq 2000	PAIRED	ftp.sra.ebi.ac.uk/vol1/fastq/ERR151/008/ERR1518768/ERR1518768_1.fastq.gz;ftp.sra.ebi.ac.uk/vol1/fastq/ERR151/008/ERR1518768/ERR1518768_2.fastq.gz	ftp.sra.ebi.ac.uk/vol1/fastq/ERR151/008/ERR1518768/ERR1518768_1.fastq.gz;ftp.sra.ebi.ac.uk/vol1/fastq/ERR151/008/ERR1518768/ERR1518768_2.fastq.gz	ftp.sra.ebi.ac.uk/vol1/ERA673/ERA673513/fastq/FV40_sequence_R1.fastq.gz;ftp.sra.ebi.ac.uk/vol1/ERA673/ERA673513/fastq/FV40_sequence_R2.fastq.gz	ftp.sra.ebi.ac.uk/vol1/ERA673/ERA673513/fastq/FV40_sequence_R1.fastq.gz;ftp.sra.ebi.ac.uk/vol1/ERA673/ERA673513/fastq/FV40_sequence_R2.fastq.gz	ftp.sra.ebi.ac.uk/vol1/err/ERR151/008/ERR1518768	ftp.sra.ebi.ac.uk/vol1/err/ERR151/008/ERR1518768		
PRJEB11591	SAMEA4065814	SNU-GMI-FV41	ERS1236924	ERX1589748	ERR1518769	9606	Homo sapiens	Illumina HiSeq 2000	PAIRED	ftp.sra.ebi.ac.uk/vol1/fastq/ERR151/009/ERR1518769/ERR1518769_1.fastq.gz;ftp.sra.ebi.ac.uk/vol1/fastq/ERR151/009/ERR1518769/ERR1518769_2.fastq.gz	ftp.sra.ebi.ac.uk/vol1/fastq/ERR151/009/ERR1518769/ERR1518769_1.fastq.gz;ftp.sra.ebi.ac.uk/vol1/fastq/ERR151/009/ERR1518769/ERR1518769_2.fastq.gz	ftp.sra.ebi.ac.uk/vol1/ERA673/ERA673513/fastq/FV41_sequence_R1.fastq.gz;ftp.sra.ebi.ac.uk/vol1/ERA673/ERA673513/fastq/FV41_sequence_R2.fastq.gz	ftp.sra.ebi.ac.uk/vol1/ERA673/ERA673513/fastq/FV41_sequence_R1.fastq.gz;ftp.sra.ebi.ac.uk/vol1/ERA673/ERA673513/fastq/FV41_sequence_R2.fastq.gz	ftp.sra.ebi.ac.uk/vol1/err/ERR151/009/ERR1518769	ftp.sra.ebi.ac.uk/vol1/err/ERR151/009/ERR1518769		
PRJEB11591	SAMEA4065815	SNU-GMI-FV42	ERS1236925	ERX1589749	ERR1518770	9606	Homo sapiens	Illumina HiSeq 2000	PAIRED	ftp.sra.ebi.ac.uk/vol1/fastq/ERR151/000/ERR1518770/ERR1518770_1.fastq.gz;ftp.sra.ebi.ac.uk/vol1/fastq/ERR151/000/ERR1518770/ERR1518770_2.fastq.gz	ftp.sra.ebi.ac.uk/vol1/fastq/ERR151/000/ERR1518770/ERR1518770_1.fastq.gz;ftp.sra.ebi.ac.uk/vol1/fastq/ERR151/000/ERR1518770/ERR1518770_2.fastq.gz	ftp.sra.ebi.ac.uk/vol1/ERA673/ERA673513/fastq/FV42_sequence_R1.fastq.gz;ftp.sra.ebi.ac.uk/vol1/ERA673/ERA673513/fastq/FV42_sequence_R2.fastq.gz	ftp.sra.ebi.ac.uk/vol1/ERA673/ERA673513/fastq/FV42_sequence_R1.fastq.gz;ftp.sra.ebi.ac.uk/vol1/ERA673/ERA673513/fastq/FV42_sequence_R2.fastq.gz	ftp.sra.ebi.ac.uk/vol1/err/ERR151/000/ERR1518770	ftp.sra.ebi.ac.uk/vol1/err/ERR151/000/ERR1518770		
PRJEB11591	SAMEA4065816	SNU-GMI-FV43	ERS1236926	ERX1589750	ERR1518771	9606	Homo sapiens	Illumina HiSeq 2000	PAIRED	ftp.sra.ebi.ac.uk/vol1/fastq/ERR151/001/ERR1518771/ERR1518771_1.fastq.gz;ftp.sra.ebi.ac.uk/vol1/fastq/ERR151/001/ERR1518771/ERR1518771_2.fastq.gz	ftp.sra.ebi.ac.uk/vol1/fastq/ERR151/001/ERR1518771/ERR1518771_1.fastq.gz;ftp.sra.ebi.ac.uk/vol1/fastq/ERR151/001/ERR1518771/ERR1518771_2.fastq.gz	ftp.sra.ebi.ac.uk/vol1/ERA673/ERA673513/fastq/FV43_sequence_R1.fastq.gz;ftp.sra.ebi.ac.uk/vol1/ERA673/ERA673513/fastq/FV43_sequence_R2.fastq.gz	ftp.sra.ebi.ac.uk/vol1/ERA673/ERA673513/fastq/FV43_sequence_R1.fastq.gz;ftp.sra.ebi.ac.uk/vol1/ERA673/ERA673513/fastq/FV43_sequence_R2.fastq.gz	ftp.sra.ebi.ac.uk/vol1/err/ERR151/001/ERR1518771	ftp.sra.ebi.ac.uk/vol1/err/ERR151/001/ERR1518771		
PRJEB11591	SAMEA4065817	SNU-GMI-FV44	ERS1236927	ERX1589751	ERR1518772	9606	Homo sapiens	Illumina HiSeq 2000	PAIRED	ftp.sra.ebi.ac.uk/vol1/fastq/ERR151/002/ERR1518772/ERR1518772_1.fastq.gz;ftp.sra.ebi.ac.uk/vol1/fastq/ERR151/002/ERR1518772/ERR1518772_2.fastq.gz	ftp.sra.ebi.ac.uk/vol1/fastq/ERR151/002/ERR1518772/ERR1518772_1.fastq.gz;ftp.sra.ebi.ac.uk/vol1/fastq/ERR151/002/ERR1518772/ERR1518772_2.fastq.gz	ftp.sra.ebi.ac.uk/vol1/ERA673/ERA673513/fastq/FV44_sequence_R1.fastq.gz;ftp.sra.ebi.ac.uk/vol1/ERA673/ERA673513/fastq/FV44_sequence_R2.fastq.gz	ftp.sra.ebi.ac.uk/vol1/ERA673/ERA673513/fastq/FV44_sequence_R1.fastq.gz;ftp.sra.ebi.ac.uk/vol1/ERA673/ERA673513/fastq/FV44_sequence_R2.fastq.gz	ftp.sra.ebi.ac.uk/vol1/err/ERR151/002/ERR1518772	ftp.sra.ebi.ac.uk/vol1/err/ERR151/002/ERR1518772		
PRJEB11591	SAMEA4065818	SNU-GMI-FV45	ERS1236928	ERX1589752	ERR1518773	9606	Homo sapiens	Illumina HiSeq 2000	PAIRED	ftp.sra.ebi.ac.uk/vol1/fastq/ERR151/003/ERR1518773/ERR1518773_1.fastq.gz;ftp.sra.ebi.ac.uk/vol1/fastq/ERR151/003/ERR1518773/ERR1518773_2.fastq.gz	ftp.sra.ebi.ac.uk/vol1/fastq/ERR151/003/ERR1518773/ERR1518773_1.fastq.gz;ftp.sra.ebi.ac.uk/vol1/fastq/ERR151/003/ERR1518773/ERR1518773_2.fastq.gz	ftp.sra.ebi.ac.uk/vol1/ERA673/ERA673513/fastq/FV45_sequence_R1.fastq.gz;ftp.sra.ebi.ac.uk/vol1/ERA673/ERA673513/fastq/FV45_sequence_R2.fastq.gz	ftp.sra.ebi.ac.uk/vol1/ERA673/ERA673513/fastq/FV45_sequence_R1.fastq.gz;ftp.sra.ebi.ac.uk/vol1/ERA673/ERA673513/fastq/FV45_sequence_R2.fastq.gz	ftp.sra.ebi.ac.uk/vol1/err/ERR151/003/ERR1518773	ftp.sra.ebi.ac.uk/vol1/err/ERR151/003/ERR1518773		
PRJEB11591	SAMEA4065819	SNU-GMI-FV46	ERS1236929	ERX1589753	ERR1518774	9606	Homo sapiens	Illumina HiSeq 2000	PAIRED	ftp.sra.ebi.ac.uk/vol1/fastq/ERR151/004/ERR1518774/ERR1518774_1.fastq.gz;ftp.sra.ebi.ac.uk/vol1/fastq/ERR151/004/ERR1518774/ERR1518774_2.fastq.gz	ftp.sra.ebi.ac.uk/vol1/fastq/ERR151/004/ERR1518774/ERR1518774_1.fastq.gz;ftp.sra.ebi.ac.uk/vol1/fastq/ERR151/004/ERR1518774/ERR1518774_2.fastq.gz	ftp.sra.ebi.ac.uk/vol1/ERA673/ERA673513/fastq/FV46_sequence_R1.fastq.gz;ftp.sra.ebi.ac.uk/vol1/ERA673/ERA673513/fastq/FV46_sequence_R2.fastq.gz	ftp.sra.ebi.ac.uk/vol1/ERA673/ERA673513/fastq/FV46_sequence_R1.fastq.gz;ftp.sra.ebi.ac.uk/vol1/ERA673/ERA673513/fastq/FV46_sequence_R2.fastq.gz	ftp.sra.ebi.ac.uk/vol1/err/ERR151/004/ERR1518774	ftp.sra.ebi.ac.uk/vol1/err/ERR151/004/ERR1518774		
PRJEB11591	SAMEA4065820	SNU-GMI-FV47	ERS1236930	ERX1589754	ERR1518775	9606	Homo sapiens	Illumina HiSeq 2000	PAIRED	ftp.sra.ebi.ac.uk/vol1/fastq/ERR151/005/ERR1518775/ERR1518775_1.fastq.gz;ftp.sra.ebi.ac.uk/vol1/fastq/ERR151/005/ERR1518775/ERR1518775_2.fastq.gz	ftp.sra.ebi.ac.uk/vol1/fastq/ERR151/005/ERR1518775/ERR1518775_1.fastq.gz;ftp.sra.ebi.ac.uk/vol1/fastq/ERR151/005/ERR1518775/ERR1518775_2.fastq.gz	ftp.sra.ebi.ac.uk/vol1/ERA673/ERA673513/fastq/FV47_sequence_R1.fastq.gz;ftp.sra.ebi.ac.uk/vol1/ERA673/ERA673513/fastq/FV47_sequence_R2.fastq.gz	ftp.sra.ebi.ac.uk/vol1/ERA673/ERA673513/fastq/FV47_sequence_R1.fastq.gz;ftp.sra.ebi.ac.uk/vol1/ERA673/ERA673513/fastq/FV47_sequence_R2.fastq.gz	ftp.sra.ebi.ac.uk/vol1/err/ERR151/005/ERR1518775	ftp.sra.ebi.ac.uk/vol1/err/ERR151/005/ERR1518775		
PRJEB11591	SAMEA4065821	SNU-GMI-FV48	ERS1236931	ERX1589755	ERR1518776	9606	Homo sapiens	Illumina HiSeq 2000	PAIRED	ftp.sra.ebi.ac.uk/vol1/fastq/ERR151/006/ERR1518776/ERR1518776_1.fastq.gz;ftp.sra.ebi.ac.uk/vol1/fastq/ERR151/006/ERR1518776/ERR1518776_2.fastq.gz	ftp.sra.ebi.ac.uk/vol1/fastq/ERR151/006/ERR1518776/ERR1518776_1.fastq.gz;ftp.sra.ebi.ac.uk/vol1/fastq/ERR151/006/ERR1518776/ERR1518776_2.fastq.gz	ftp.sra.ebi.ac.uk/vol1/ERA673/ERA673513/fastq/FV48_sequence_R1.fastq.gz;ftp.sra.ebi.ac.uk/vol1/ERA673/ERA673513/fastq/FV48_sequence_R2.fastq.gz	ftp.sra.ebi.ac.uk/vol1/ERA673/ERA673513/fastq/FV48_sequence_R1.fastq.gz;ftp.sra.ebi.ac.uk/vol1/ERA673/ERA673513/fastq/FV48_sequence_R2.fastq.gz	ftp.sra.ebi.ac.uk/vol1/err/ERR151/006/ERR1518776	ftp.sra.ebi.ac.uk/vol1/err/ERR151/006/ERR1518776		
PRJEB11591	SAMEA4065835	SNU-GMI-PTC14	ERS1236945	ERX1589769	ERR1518790	9606	Homo sapiens	Illumina HiSeq 2000	PAIRED	ftp.sra.ebi.ac.uk/vol1/fastq/ERR151/000/ERR1518790/ERR1518790_1.fastq.gz;ftp.sra.ebi.ac.uk/vol1/fastq/ERR151/000/ERR1518790/ERR1518790_2.fastq.gz	ftp.sra.ebi.ac.uk/vol1/fastq/ERR151/000/ERR1518790/ERR1518790_1.fastq.gz;ftp.sra.ebi.ac.uk/vol1/fastq/ERR151/000/ERR1518790/ERR1518790_2.fastq.gz	ftp.sra.ebi.ac.uk/vol1/ERA673/ERA673513/fastq/PTC14_sequence_R1.fastq.gz;ftp.sra.ebi.ac.uk/vol1/ERA673/ERA673513/fastq/PTC14_sequence_R2.fastq.gz	ftp.sra.ebi.ac.uk/vol1/ERA673/ERA673513/fastq/PTC14_sequence_R1.fastq.gz;ftp.sra.ebi.ac.uk/vol1/ERA673/ERA673513/fastq/PTC14_sequence_R2.fastq.gz	ftp.sra.ebi.ac.uk/vol1/err/ERR151/000/ERR1518790	ftp.sra.ebi.ac.uk/vol1/err/ERR151/000/ERR1518790		
PRJEB11591	SAMEA4065880	SNU-GMI-PTC44	ERS1236990	ERX1589814	ERR1518835	9606	Homo sapiens	Illumina HiSeq 2000	PAIRED	ftp.sra.ebi.ac.uk/vol1/fastq/ERR151/005/ERR1518835/ERR1518835_1.fastq.gz;ftp.sra.ebi.ac.uk/vol1/fastq/ERR151/005/ERR1518835/ERR1518835_2.fastq.gz	ftp.sra.ebi.ac.uk/vol1/fastq/ERR151/005/ERR1518835/ERR1518835_1.fastq.gz;ftp.sra.ebi.ac.uk/vol1/fastq/ERR151/005/ERR1518835/ERR1518835_2.fastq.gz	ftp.sra.ebi.ac.uk/vol1/ERA673/ERA673513/fastq/PTC44_sequence_R1.fastq.gz;ftp.sra.ebi.ac.uk/vol1/ERA673/ERA673513/fastq/PTC44_sequence_R2.fastq.gz	ftp.sra.ebi.ac.uk/vol1/ERA673/ERA673513/fastq/PTC44_sequence_R1.fastq.gz;ftp.sra.ebi.ac.uk/vol1/ERA673/ERA673513/fastq/PTC44_sequence_R2.fastq.gz	ftp.sra.ebi.ac.uk/vol1/err/ERR151/005/ERR1518835	ftp.sra.ebi.ac.uk/vol1/err/ERR151/005/ERR1518835		
PRJEB11591	SAMEA4065885	SNU-GMI-PTC47	ERS1236995	ERX1589819	ERR1518840	9606	Homo sapiens	Illumina HiSeq 2000	PAIRED	ftp.sra.ebi.ac.uk/vol1/fastq/ERR151/000/ERR1518840/ERR1518840_1.fastq.gz;ftp.sra.ebi.ac.uk/vol1/fastq/ERR151/000/ERR1518840/ERR1518840_2.fastq.gz	ftp.sra.ebi.ac.uk/vol1/fastq/ERR151/000/ERR1518840/ERR1518840_1.fastq.gz;ftp.sra.ebi.ac.uk/vol1/fastq/ERR151/000/ERR1518840/ERR1518840_2.fastq.gz	ftp.sra.ebi.ac.uk/vol1/ERA673/ERA673513/fastq/PTC47_sequence_R1.fastq.gz;ftp.sra.ebi.ac.uk/vol1/ERA673/ERA673513/fastq/PTC47_sequence_R2.fastq.gz	ftp.sra.ebi.ac.uk/vol1/ERA673/ERA673513/fastq/PTC47_sequence_R1.fastq.gz;ftp.sra.ebi.ac.uk/vol1/ERA673/ERA673513/fastq/PTC47_sequence_R2.fastq.gz	ftp.sra.ebi.ac.uk/vol1/err/ERR151/000/ERR1518840	ftp.sra.ebi.ac.uk/vol1/err/ERR151/000/ERR1518840		
PRJEB11591	SAMEA4065919	SNU-GMI-PTC68	ERS1237029	ERX1589853	ERR1518874	9606	Homo sapiens	Illumina HiSeq 2000	PAIRED	ftp.sra.ebi.ac.uk/vol1/fastq/ERR151/004/ERR1518874/ERR1518874_1.fastq.gz;ftp.sra.ebi.ac.uk/vol1/fastq/ERR151/004/ERR1518874/ERR1518874_2.fastq.gz	ftp.sra.ebi.ac.uk/vol1/fastq/ERR151/004/ERR1518874/ERR1518874_1.fastq.gz;ftp.sra.ebi.ac.uk/vol1/fastq/ERR151/004/ERR1518874/ERR1518874_2.fastq.gz	ftp.sra.ebi.ac.uk/vol1/ERA673/ERA673513/fastq/PTC68_sequence_R1.fastq.gz;ftp.sra.ebi.ac.uk/vol1/ERA673/ERA673513/fastq/PTC68_sequence_R2.fastq.gz	ftp.sra.ebi.ac.uk/vol1/ERA673/ERA673513/fastq/PTC68_sequence_R1.fastq.gz;ftp.sra.ebi.ac.uk/vol1/ERA673/ERA673513/fastq/PTC68_sequence_R2.fastq.gz	ftp.sra.ebi.ac.uk/vol1/err/ERR151/004/ERR1518874	ftp.sra.ebi.ac.uk/vol1/err/ERR151/004/ERR1518874		
