BioSample_s	Experiment_s	InsertSize_l	LoadDate_s	MBases_l	MBytes_l	Run_s	SRA_Sample_s	Sample_Name_s	Assay_Type_s	AvgSpotLen_l	BioProject_s	Center_Name_s	Consent_s	Instrument_s	LibraryLayout_s	LibrarySelection_s	LibrarySource_s	Library_Name_s	Organism_s	Platform_s	ReleaseDate_s	SRA_Study_s
SAMEA4058507	ERX1583557	350	2016-10-02	4945	3624	ERR1512530	ERS1229617	GMI-FA01	RNA-Seq	202	PRJEB11591	GMI, SNU	public	Illumina HiSeq 2000	PAIRED	RT-PCR	TRANSCRIPTOMIC	unspecified	Homo sapiens	ILLUMINA	2016-07-15	ERP012979
SAMEA4065671	ERX1589605	300	2016-10-03	4945	3624	ERR1518626	ERS1236781	SNU-GMI-FA01	RNA-Seq	202	PRJEB11591	GMI, SNU	public	Illumina HiSeq 2000	PAIRED	RT-PCR	TRANSCRIPTOMIC	unspecified	Homo sapiens	ILLUMINA	2016-07-15	ERP012979
SAMEA4065672	ERX1589606	300	2016-10-03	6509	4593	ERR1518627	ERS1236782	SNU-GMI-FA01-N	RNA-Seq	202	PRJEB11591	GMI, SNU	public	Illumina HiSeq 2000	PAIRED	RT-PCR	TRANSCRIPTOMIC	unspecified	Homo sapiens	ILLUMINA	2016-07-15	ERP012979
SAMEA4065673	ERX1589607	300	2016-10-03	9576	6985	ERR1518628	ERS1236783	SNU-GMI-FA02	RNA-Seq	202	PRJEB11591	GMI, SNU	public	Illumina HiSeq 2000	PAIRED	RT-PCR	TRANSCRIPTOMIC	unspecified	Homo sapiens	ILLUMINA	2016-07-15	ERP012979
SAMEA4065674	ERX1589608	300	2016-10-03	2864	2028	ERR1518629	ERS1236784	SNU-GMI-FA02-N	RNA-Seq	202	PRJEB11591	GMI, SNU	public	Illumina HiSeq 2000	PAIRED	RT-PCR	TRANSCRIPTOMIC	unspecified	Homo sapiens	ILLUMINA	2016-07-15	ERP012979
SAMEA4065675	ERX1589609	300	2016-10-03	6768	4937	ERR1518630	ERS1236785	SNU-GMI-FA03	RNA-Seq	202	PRJEB11591	GMI, SNU	public	Illumina HiSeq 2000	PAIRED	RT-PCR	TRANSCRIPTOMIC	unspecified	Homo sapiens	ILLUMINA	2016-07-15	ERP012979
SAMEA4065676	ERX1589610	300	2016-10-03	4930	3474	ERR1518631	ERS1236786	SNU-GMI-FA03-N	RNA-Seq	202	PRJEB11591	GMI, SNU	public	Illumina HiSeq 2000	PAIRED	RT-PCR	TRANSCRIPTOMIC	unspecified	Homo sapiens	ILLUMINA	2016-07-15	ERP012979
SAMEA4065677	ERX1589611	300	2016-10-03	7098	5188	ERR1518632	ERS1236787	SNU-GMI-FA04	RNA-Seq	202	PRJEB11591	GMI, SNU	public	Illumina HiSeq 2000	PAIRED	RT-PCR	TRANSCRIPTOMIC	unspecified	Homo sapiens	ILLUMINA	2016-07-15	ERP012979
SAMEA4065678	ERX1589612	300	2016-10-03	3551	2496	ERR1518633	ERS1236788	SNU-GMI-FA04-N	RNA-Seq	202	PRJEB11591	GMI, SNU	public	Illumina HiSeq 2000	PAIRED	RT-PCR	TRANSCRIPTOMIC	unspecified	Homo sapiens	ILLUMINA	2016-07-15	ERP012979
SAMEA4065679	ERX1589613	300	2016-10-03	5567	4064	ERR1518634	ERS1236789	SNU-GMI-FA05	RNA-Seq	202	PRJEB11591	GMI, SNU	public	Illumina HiSeq 2000	PAIRED	RT-PCR	TRANSCRIPTOMIC	unspecified	Homo sapiens	ILLUMINA	2016-07-15	ERP012979
SAMEA4065680	ERX1589614	300	2016-10-03	2412	1505	ERR1518635	ERS1236790	SNU-GMI-FA05-N	RNA-Seq	202	PRJEB11591	GMI, SNU	public	Illumina HiSeq 2000	PAIRED	RT-PCR	TRANSCRIPTOMIC	unspecified	Homo sapiens	ILLUMINA	2016-07-15	ERP012979
SAMEA4065681	ERX1589615	300	2016-10-03	7458	5447	ERR1518636	ERS1236791	SNU-GMI-FA06	RNA-Seq	202	PRJEB11591	GMI, SNU	public	Illumina HiSeq 2000	PAIRED	RT-PCR	TRANSCRIPTOMIC	unspecified	Homo sapiens	ILLUMINA	2016-07-15	ERP012979
SAMEA4065682	ERX1589616	300	2016-10-03	3675	2540	ERR1518637	ERS1236792	SNU-GMI-FA06-N	RNA-Seq	202	PRJEB11591	GMI, SNU	public	Illumina HiSeq 2000	PAIRED	RT-PCR	TRANSCRIPTOMIC	unspecified	Homo sapiens	ILLUMINA	2016-07-15	ERP012979
SAMEA4065683	ERX1589617	300	2016-10-03	3032	2137	ERR1518638	ERS1236793	SNU-GMI-FA07	RNA-Seq	202	PRJEB11591	GMI, SNU	public	Illumina HiSeq 2000	PAIRED	RT-PCR	TRANSCRIPTOMIC	unspecified	Homo sapiens	ILLUMINA	2016-07-15	ERP012979
SAMEA4065684	ERX1589618	300	2016-10-03	6204	4391	ERR1518639	ERS1236794	SNU-GMI-FA07-N	RNA-Seq	202	PRJEB11591	GMI, SNU	public	Illumina HiSeq 2000	PAIRED	RT-PCR	TRANSCRIPTOMIC	unspecified	Homo sapiens	ILLUMINA	2016-07-15	ERP012979
SAMEA4065685	ERX1589619	300	2016-10-03	5990	4222	ERR1518640	ERS1236795	SNU-GMI-FA08	RNA-Seq	202	PRJEB11591	GMI, SNU	public	Illumina HiSeq 2000	PAIRED	RT-PCR	TRANSCRIPTOMIC	unspecified	Homo sapiens	ILLUMINA	2016-07-15	ERP012979
SAMEA4065686	ERX1589620	300	2016-10-03	8001	5656	ERR1518641	ERS1236796	SNU-GMI-FA08-N	RNA-Seq	202	PRJEB11591	GMI, SNU	public	Illumina HiSeq 2000	PAIRED	RT-PCR	TRANSCRIPTOMIC	unspecified	Homo sapiens	ILLUMINA	2016-07-15	ERP012979
SAMEA4065687	ERX1589621	300	2016-10-03	3215	2273	ERR1518642	ERS1236797	SNU-GMI-FA09	RNA-Seq	202	PRJEB11591	GMI, SNU	public	Illumina HiSeq 2000	PAIRED	RT-PCR	TRANSCRIPTOMIC	unspecified	Homo sapiens	ILLUMINA	2016-07-15	ERP012979
SAMEA4065688	ERX1589622	300	2016-10-03	7142	5037	ERR1518643	ERS1236798	SNU-GMI-FA09-N	RNA-Seq	202	PRJEB11591	GMI, SNU	public	Illumina HiSeq 2000	PAIRED	RT-PCR	TRANSCRIPTOMIC	unspecified	Homo sapiens	ILLUMINA	2016-07-15	ERP012979
SAMEA4065689	ERX1589623	300	2016-10-03	5135	3617	ERR1518644	ERS1236799	SNU-GMI-FA10	RNA-Seq	202	PRJEB11591	GMI, SNU	public	Illumina HiSeq 2000	PAIRED	RT-PCR	TRANSCRIPTOMIC	unspecified	Homo sapiens	ILLUMINA	2016-07-15	ERP012979
SAMEA4065690	ERX1589624	300	2016-10-03	4932	3470	ERR1518645	ERS1236800	SNU-GMI-FA10-N	RNA-Seq	202	PRJEB11591	GMI, SNU	public	Illumina HiSeq 2000	PAIRED	RT-PCR	TRANSCRIPTOMIC	unspecified	Homo sapiens	ILLUMINA	2016-07-15	ERP012979
SAMEA4065691	ERX1589625	300	2016-10-03	7530	5284	ERR1518646	ERS1236801	SNU-GMI-FA11	RNA-Seq	202	PRJEB11591	GMI, SNU	public	Illumina HiSeq 2000	PAIRED	RT-PCR	TRANSCRIPTOMIC	unspecified	Homo sapiens	ILLUMINA	2016-07-15	ERP012979
SAMEA4065692	ERX1589626	300	2016-10-03	5686	4006	ERR1518647	ERS1236802	SNU-GMI-FA12	RNA-Seq	202	PRJEB11591	GMI, SNU	public	Illumina HiSeq 2000	PAIRED	RT-PCR	TRANSCRIPTOMIC	unspecified	Homo sapiens	ILLUMINA	2016-07-15	ERP012979
SAMEA4065693	ERX1589627	300	2016-10-03	5568	3910	ERR1518648	ERS1236803	SNU-GMI-FA12-N	RNA-Seq	202	PRJEB11591	GMI, SNU	public	Illumina HiSeq 2000	PAIRED	RT-PCR	TRANSCRIPTOMIC	unspecified	Homo sapiens	ILLUMINA	2016-07-15	ERP012979
SAMEA4065694	ERX1589628	300	2016-10-03	4673	3219	ERR1518649	ERS1236804	SNU-GMI-FA13	RNA-Seq	202	PRJEB11591	GMI, SNU	public	Illumina HiSeq 2000	PAIRED	RT-PCR	TRANSCRIPTOMIC	unspecified	Homo sapiens	ILLUMINA	2016-07-15	ERP012979
SAMEA4065695	ERX1589629	300	2016-10-03	6158	4348	ERR1518650	ERS1236805	SNU-GMI-FA14	RNA-Seq	202	PRJEB11591	GMI, SNU	public	Illumina HiSeq 2000	PAIRED	RT-PCR	TRANSCRIPTOMIC	unspecified	Homo sapiens	ILLUMINA	2016-07-15	ERP012979
SAMEA4065696	ERX1589630	300	2016-10-03	13407	9417	ERR1518651	ERS1236806	SNU-GMI-FA15	RNA-Seq	202	PRJEB11591	GMI, SNU	public	Illumina HiSeq 2000	PAIRED	RT-PCR	TRANSCRIPTOMIC	unspecified	Homo sapiens	ILLUMINA	2016-07-15	ERP012979
SAMEA4065697	ERX1589631	300	2016-10-03	12958	9128	ERR1518652	ERS1236807	SNU-GMI-FA16	RNA-Seq	202	PRJEB11591	GMI, SNU	public	Illumina HiSeq 2000	PAIRED	RT-PCR	TRANSCRIPTOMIC	unspecified	Homo sapiens	ILLUMINA	2016-07-15	ERP012979
SAMEA4065698	ERX1589632	300	2016-10-03	5897	4125	ERR1518653	ERS1236808	SNU-GMI-FA16-N	RNA-Seq	202	PRJEB11591	GMI, SNU	public	Illumina HiSeq 2000	PAIRED	RT-PCR	TRANSCRIPTOMIC	unspecified	Homo sapiens	ILLUMINA	2016-07-15	ERP012979
SAMEA4065699	ERX1589633	300	2016-10-03	3527	2491	ERR1518654	ERS1236809	SNU-GMI-FA17	RNA-Seq	202	PRJEB11591	GMI, SNU	public	Illumina HiSeq 2000	PAIRED	RT-PCR	TRANSCRIPTOMIC	unspecified	Homo sapiens	ILLUMINA	2016-07-15	ERP012979
SAMEA4065700	ERX1589634	300	2016-10-03	6637	4676	ERR1518655	ERS1236810	SNU-GMI-FA17-N	RNA-Seq	202	PRJEB11591	GMI, SNU	public	Illumina HiSeq 2000	PAIRED	RT-PCR	TRANSCRIPTOMIC	unspecified	Homo sapiens	ILLUMINA	2016-07-15	ERP012979
SAMEA4065701	ERX1589635	300	2016-10-03	4089	2881	ERR1518656	ERS1236811	SNU-GMI-FA18	RNA-Seq	202	PRJEB11591	GMI, SNU	public	Illumina HiSeq 2000	PAIRED	RT-PCR	TRANSCRIPTOMIC	unspecified	Homo sapiens	ILLUMINA	2016-07-15	ERP012979
SAMEA4065702	ERX1589636	300	2016-10-03	5998	4215	ERR1518657	ERS1236812	SNU-GMI-FA18-N	RNA-Seq	202	PRJEB11591	GMI, SNU	public	Illumina HiSeq 2000	PAIRED	RT-PCR	TRANSCRIPTOMIC	unspecified	Homo sapiens	ILLUMINA	2016-07-15	ERP012979
SAMEA4065703	ERX1589637	300	2016-10-03	7811	5498	ERR1518658	ERS1236813	SNU-GMI-FA19	RNA-Seq	202	PRJEB11591	GMI, SNU	public	Illumina HiSeq 2000	PAIRED	RT-PCR	TRANSCRIPTOMIC	unspecified	Homo sapiens	ILLUMINA	2016-07-15	ERP012979
SAMEA4065704	ERX1589638	300	2016-10-03	6545	4609	ERR1518659	ERS1236814	SNU-GMI-FA19-N	RNA-Seq	202	PRJEB11591	GMI, SNU	public	Illumina HiSeq 2000	PAIRED	RT-PCR	TRANSCRIPTOMIC	unspecified	Homo sapiens	ILLUMINA	2016-07-15	ERP012979
SAMEA4065705	ERX1589639	300	2016-10-03	5308	3745	ERR1518660	ERS1236815	SNU-GMI-FA20	RNA-Seq	202	PRJEB11591	GMI, SNU	public	Illumina HiSeq 2000	PAIRED	RT-PCR	TRANSCRIPTOMIC	unspecified	Homo sapiens	ILLUMINA	2016-07-15	ERP012979
SAMEA4065706	ERX1589640	300	2016-10-03	6228	4378	ERR1518661	ERS1236816	SNU-GMI-FA20-N	RNA-Seq	202	PRJEB11591	GMI, SNU	public	Illumina HiSeq 2000	PAIRED	RT-PCR	TRANSCRIPTOMIC	unspecified	Homo sapiens	ILLUMINA	2016-07-15	ERP012979
SAMEA4065707	ERX1589641	300	2016-10-03	5993	4225	ERR1518662	ERS1236817	SNU-GMI-FA21	RNA-Seq	202	PRJEB11591	GMI, SNU	public	Illumina HiSeq 2000	PAIRED	RT-PCR	TRANSCRIPTOMIC	unspecified	Homo sapiens	ILLUMINA	2016-07-15	ERP012979
SAMEA4065708	ERX1589642	300	2016-10-03	6279	4423	ERR1518663	ERS1236818	SNU-GMI-FA21-N	RNA-Seq	202	PRJEB11591	GMI, SNU	public	Illumina HiSeq 2000	PAIRED	RT-PCR	TRANSCRIPTOMIC	unspecified	Homo sapiens	ILLUMINA	2016-07-15	ERP012979
SAMEA4065709	ERX1589643	300	2016-10-03	7407	5215	ERR1518664	ERS1236819	SNU-GMI-FA22	RNA-Seq	202	PRJEB11591	GMI, SNU	public	Illumina HiSeq 2000	PAIRED	RT-PCR	TRANSCRIPTOMIC	unspecified	Homo sapiens	ILLUMINA	2016-07-15	ERP012979
SAMEA4065710	ERX1589644	300	2016-10-03	6651	4700	ERR1518665	ERS1236820	SNU-GMI-FA22-N	RNA-Seq	202	PRJEB11591	GMI, SNU	public	Illumina HiSeq 2000	PAIRED	RT-PCR	TRANSCRIPTOMIC	unspecified	Homo sapiens	ILLUMINA	2016-07-15	ERP012979
SAMEA4065711	ERX1589645	300	2016-10-03	6359	4483	ERR1518666	ERS1236821	SNU-GMI-FA23	RNA-Seq	202	PRJEB11591	GMI, SNU	public	Illumina HiSeq 2000	PAIRED	RT-PCR	TRANSCRIPTOMIC	unspecified	Homo sapiens	ILLUMINA	2016-07-15	ERP012979
SAMEA4065712	ERX1589646	300	2016-10-03	6352	4355	ERR1518667	ERS1236822	SNU-GMI-FA24	RNA-Seq	202	PRJEB11591	GMI, SNU	public	Illumina HiSeq 2000	PAIRED	RT-PCR	TRANSCRIPTOMIC	unspecified	Homo sapiens	ILLUMINA	2016-07-15	ERP012979
SAMEA4065713	ERX1589647	300	2016-10-03	8407	5779	ERR1518668	ERS1236823	SNU-GMI-FA25	RNA-Seq	202	PRJEB11591	GMI, SNU	public	Illumina HiSeq 2000	PAIRED	RT-PCR	TRANSCRIPTOMIC	unspecified	Homo sapiens	ILLUMINA	2016-07-15	ERP012979
SAMEA4065714	ERX1589648	300	2016-10-03	3350	2284	ERR1518669	ERS1236824	SNU-GMI-FTC01	RNA-Seq	202	PRJEB11591	GMI, SNU	public	Illumina HiSeq 2000	PAIRED	RT-PCR	TRANSCRIPTOMIC	unspecified	Homo sapiens	ILLUMINA	2016-07-15	ERP012979
SAMEA4065715	ERX1589649	300	2016-10-03	3269	2004	ERR1518670	ERS1236825	SNU-GMI-FTC01-N	RNA-Seq	202	PRJEB11591	GMI, SNU	public	Illumina HiSeq 2000	PAIRED	RT-PCR	TRANSCRIPTOMIC	unspecified	Homo sapiens	ILLUMINA	2016-07-15	ERP012979
SAMEA4065716	ERX1589650	300	2016-10-03	5984	4034	ERR1518671	ERS1236826	SNU-GMI-FTC02	RNA-Seq	202	PRJEB11591	GMI, SNU	public	Illumina HiSeq 2000	PAIRED	RT-PCR	TRANSCRIPTOMIC	unspecified	Homo sapiens	ILLUMINA	2016-07-15	ERP012979
SAMEA4065717	ERX1589651	300	2016-10-03	4782	3275	ERR1518672	ERS1236827	SNU-GMI-FTC03	RNA-Seq	202	PRJEB11591	GMI, SNU	public	Illumina HiSeq 2000	PAIRED	RT-PCR	TRANSCRIPTOMIC	unspecified	Homo sapiens	ILLUMINA	2016-07-15	ERP012979
SAMEA4065718	ERX1589652	300	2016-10-03	4428	3008	ERR1518673	ERS1236828	SNU-GMI-FTC03-N	RNA-Seq	202	PRJEB11591	GMI, SNU	public	Illumina HiSeq 2000	PAIRED	RT-PCR	TRANSCRIPTOMIC	unspecified	Homo sapiens	ILLUMINA	2016-07-15	ERP012979
SAMEA4065719	ERX1589653	300	2016-10-03	4011	2708	ERR1518674	ERS1236829	SNU-GMI-FTC04	RNA-Seq	202	PRJEB11591	GMI, SNU	public	Illumina HiSeq 2000	PAIRED	RT-PCR	TRANSCRIPTOMIC	unspecified	Homo sapiens	ILLUMINA	2016-07-15	ERP012979
SAMEA4065720	ERX1589654	300	2016-10-03	6812	4649	ERR1518675	ERS1236830	SNU-GMI-FTC05	RNA-Seq	202	PRJEB11591	GMI, SNU	public	Illumina HiSeq 2000	PAIRED	RT-PCR	TRANSCRIPTOMIC	unspecified	Homo sapiens	ILLUMINA	2016-07-15	ERP012979
SAMEA4065721	ERX1589655	300	2016-10-03	4405	2984	ERR1518676	ERS1236831	SNU-GMI-FTC05-N	RNA-Seq	202	PRJEB11591	GMI, SNU	public	Illumina HiSeq 2000	PAIRED	RT-PCR	TRANSCRIPTOMIC	unspecified	Homo sapiens	ILLUMINA	2016-07-15	ERP012979
SAMEA4065722	ERX1589656	300	2016-10-03	4248	2906	ERR1518677	ERS1236832	SNU-GMI-FTC06	RNA-Seq	202	PRJEB11591	GMI, SNU	public	Illumina HiSeq 2000	PAIRED	RT-PCR	TRANSCRIPTOMIC	unspecified	Homo sapiens	ILLUMINA	2016-07-15	ERP012979
SAMEA4065723	ERX1589657	300	2016-10-03	3769	2585	ERR1518678	ERS1236833	SNU-GMI-FTC07	RNA-Seq	202	PRJEB11591	GMI, SNU	public	Illumina HiSeq 2000	PAIRED	RT-PCR	TRANSCRIPTOMIC	unspecified	Homo sapiens	ILLUMINA	2016-07-15	ERP012979
SAMEA4065724	ERX1589658	300	2016-10-03	5705	3892	ERR1518679	ERS1236834	SNU-GMI-FTC08	RNA-Seq	202	PRJEB11591	GMI, SNU	public	Illumina HiSeq 2000	PAIRED	RT-PCR	TRANSCRIPTOMIC	unspecified	Homo sapiens	ILLUMINA	2016-07-15	ERP012979
SAMEA4065725	ERX1589659	300	2016-10-03	3189	1973	ERR1518680	ERS1236835	SNU-GMI-FTC08-N	RNA-Seq	202	PRJEB11591	GMI, SNU	public	Illumina HiSeq 2000	PAIRED	RT-PCR	TRANSCRIPTOMIC	unspecified	Homo sapiens	ILLUMINA	2016-07-15	ERP012979
SAMEA4065726	ERX1589660	300	2016-10-03	5147	3512	ERR1518681	ERS1236836	SNU-GMI-FTC09	RNA-Seq	202	PRJEB11591	GMI, SNU	public	Illumina HiSeq 2000	PAIRED	RT-PCR	TRANSCRIPTOMIC	unspecified	Homo sapiens	ILLUMINA	2016-07-15	ERP012979
SAMEA4065727	ERX1589661	300	2016-10-03	3135	1919	ERR1518682	ERS1236837	SNU-GMI-FTC09-N	RNA-Seq	202	PRJEB11591	GMI, SNU	public	Illumina HiSeq 2000	PAIRED	RT-PCR	TRANSCRIPTOMIC	unspecified	Homo sapiens	ILLUMINA	2016-07-15	ERP012979
SAMEA4065728	ERX1589662	300	2016-10-03	4581	3106	ERR1518683	ERS1236838	SNU-GMI-FTC10	RNA-Seq	202	PRJEB11591	GMI, SNU	public	Illumina HiSeq 2000	PAIRED	RT-PCR	TRANSCRIPTOMIC	unspecified	Homo sapiens	ILLUMINA	2016-07-15	ERP012979
SAMEA4065729	ERX1589663	300	2016-10-03	3357	2056	ERR1518684	ERS1236839	SNU-GMI-FTC10-N	RNA-Seq	202	PRJEB11591	GMI, SNU	public	Illumina HiSeq 2000	PAIRED	RT-PCR	TRANSCRIPTOMIC	unspecified	Homo sapiens	ILLUMINA	2016-07-15	ERP012979
SAMEA4065730	ERX1589664	300	2016-10-03	3715	2507	ERR1518685	ERS1236840	SNU-GMI-FTC11	RNA-Seq	202	PRJEB11591	GMI, SNU	public	Illumina HiSeq 2000	PAIRED	RT-PCR	TRANSCRIPTOMIC	unspecified	Homo sapiens	ILLUMINA	2016-07-15	ERP012979
SAMEA4065731	ERX1589665	300	2016-10-03	3313	2045	ERR1518686	ERS1236841	SNU-GMI-FTC11-N	RNA-Seq	202	PRJEB11591	GMI, SNU	public	Illumina HiSeq 2000	PAIRED	RT-PCR	TRANSCRIPTOMIC	unspecified	Homo sapiens	ILLUMINA	2016-07-15	ERP012979
SAMEA4065732	ERX1589666	300	2016-10-03	4873	3186	ERR1518687	ERS1236842	SNU-GMI-FTC12	RNA-Seq	202	PRJEB11591	GMI, SNU	public	Illumina HiSeq 2000	PAIRED	RT-PCR	TRANSCRIPTOMIC	unspecified	Homo sapiens	ILLUMINA	2016-07-15	ERP012979
SAMEA4065733	ERX1589667	300	2016-10-03	3899	2380	ERR1518688	ERS1236843	SNU-GMI-FTC12-N	RNA-Seq	202	PRJEB11591	GMI, SNU	public	Illumina HiSeq 2000	PAIRED	RT-PCR	TRANSCRIPTOMIC	unspecified	Homo sapiens	ILLUMINA	2016-07-15	ERP012979
SAMEA4065734	ERX1589668	300	2016-10-03	4778	3174	ERR1518689	ERS1236844	SNU-GMI-FTC13	RNA-Seq	202	PRJEB11591	GMI, SNU	public	Illumina HiSeq 2000	PAIRED	RT-PCR	TRANSCRIPTOMIC	unspecified	Homo sapiens	ILLUMINA	2016-07-15	ERP012979
SAMEA4065735	ERX1589669	300	2016-10-03	4273	2663	ERR1518690	ERS1236845	SNU-GMI-FTC13-N	RNA-Seq	202	PRJEB11591	GMI, SNU	public	Illumina HiSeq 2000	PAIRED	RT-PCR	TRANSCRIPTOMIC	unspecified	Homo sapiens	ILLUMINA	2016-07-15	ERP012979
SAMEA4065736	ERX1589670	300	2016-10-03	4761	3143	ERR1518691	ERS1236846	SNU-GMI-FTC14	RNA-Seq	202	PRJEB11591	GMI, SNU	public	Illumina HiSeq 2000	PAIRED	RT-PCR	TRANSCRIPTOMIC	unspecified	Homo sapiens	ILLUMINA	2016-07-15	ERP012979
SAMEA4065737	ERX1589671	300	2016-10-03	4520	2810	ERR1518692	ERS1236847	SNU-GMI-FTC14-N	RNA-Seq	202	PRJEB11591	GMI, SNU	public	Illumina HiSeq 2000	PAIRED	RT-PCR	TRANSCRIPTOMIC	unspecified	Homo sapiens	ILLUMINA	2016-07-15	ERP012979
SAMEA4065738	ERX1589672	300	2016-10-03	3425	2254	ERR1518693	ERS1236848	SNU-GMI-FTC15	RNA-Seq	202	PRJEB11591	GMI, SNU	public	Illumina HiSeq 2000	PAIRED	RT-PCR	TRANSCRIPTOMIC	unspecified	Homo sapiens	ILLUMINA	2016-07-15	ERP012979
SAMEA4065739	ERX1589673	300	2016-10-03	3724	2308	ERR1518694	ERS1236849	SNU-GMI-FTC15-N	RNA-Seq	202	PRJEB11591	GMI, SNU	public	Illumina HiSeq 2000	PAIRED	RT-PCR	TRANSCRIPTOMIC	unspecified	Homo sapiens	ILLUMINA	2016-07-15	ERP012979
SAMEA4065740	ERX1589674	300	2016-10-03	5651	3725	ERR1518695	ERS1236850	SNU-GMI-FTC16	RNA-Seq	202	PRJEB11591	GMI, SNU	public	Illumina HiSeq 2000	PAIRED	RT-PCR	TRANSCRIPTOMIC	unspecified	Homo sapiens	ILLUMINA	2016-07-15	ERP012979
SAMEA4065741	ERX1589675	300	2016-10-03	3486	2165	ERR1518696	ERS1236851	SNU-GMI-FTC16-N	RNA-Seq	202	PRJEB11591	GMI, SNU	public	Illumina HiSeq 2000	PAIRED	RT-PCR	TRANSCRIPTOMIC	unspecified	Homo sapiens	ILLUMINA	2016-07-15	ERP012979
SAMEA4065742	ERX1589676	300	2016-10-03	4165	2671	ERR1518697	ERS1236852	SNU-GMI-FTC17	RNA-Seq	202	PRJEB11591	GMI, SNU	public	Illumina HiSeq 2000	PAIRED	RT-PCR	TRANSCRIPTOMIC	unspecified	Homo sapiens	ILLUMINA	2016-07-15	ERP012979
SAMEA4065743	ERX1589677	300	2016-10-03	3517	2180	ERR1518698	ERS1236853	SNU-GMI-FTC17-N	RNA-Seq	202	PRJEB11591	GMI, SNU	public	Illumina HiSeq 2000	PAIRED	RT-PCR	TRANSCRIPTOMIC	unspecified	Homo sapiens	ILLUMINA	2016-07-15	ERP012979
SAMEA4065744	ERX1589678	300	2016-10-03	5474	3608	ERR1518699	ERS1236854	SNU-GMI-FTC18	RNA-Seq	202	PRJEB11591	GMI, SNU	public	Illumina HiSeq 2000	PAIRED	RT-PCR	TRANSCRIPTOMIC	unspecified	Homo sapiens	ILLUMINA	2016-07-15	ERP012979
SAMEA4065745	ERX1589679	300	2016-10-03	3780	2338	ERR1518700	ERS1236855	SNU-GMI-FTC18-N	RNA-Seq	202	PRJEB11591	GMI, SNU	public	Illumina HiSeq 2000	PAIRED	RT-PCR	TRANSCRIPTOMIC	unspecified	Homo sapiens	ILLUMINA	2016-07-15	ERP012979
SAMEA4065746	ERX1589680	300	2016-10-03	7444	4908	ERR1518701	ERS1236856	SNU-GMI-FTC19	RNA-Seq	202	PRJEB11591	GMI, SNU	public	Illumina HiSeq 2000	PAIRED	RT-PCR	TRANSCRIPTOMIC	unspecified	Homo sapiens	ILLUMINA	2016-07-15	ERP012979
SAMEA4065747	ERX1589681	300	2016-10-03	4778	3150	ERR1518702	ERS1236857	SNU-GMI-FTC20	RNA-Seq	202	PRJEB11591	GMI, SNU	public	Illumina HiSeq 2000	PAIRED	RT-PCR	TRANSCRIPTOMIC	unspecified	Homo sapiens	ILLUMINA	2016-07-15	ERP012979
SAMEA4065748	ERX1589682	300	2016-10-03	5318	3665	ERR1518703	ERS1236858	SNU-GMI-FTC20-N	RNA-Seq	202	PRJEB11591	GMI, SNU	public	Illumina HiSeq 2000	PAIRED	RT-PCR	TRANSCRIPTOMIC	unspecified	Homo sapiens	ILLUMINA	2016-07-15	ERP012979
SAMEA4065749	ERX1589683	300	2016-10-03	5319	3489	ERR1518704	ERS1236859	SNU-GMI-FTC21	RNA-Seq	202	PRJEB11591	GMI, SNU	public	Illumina HiSeq 2000	PAIRED	RT-PCR	TRANSCRIPTOMIC	unspecified	Homo sapiens	ILLUMINA	2016-07-15	ERP012979
SAMEA4065750	ERX1589684	300	2016-10-03	3184	2103	ERR1518705	ERS1236860	SNU-GMI-FTC22	RNA-Seq	202	PRJEB11591	GMI, SNU	public	Illumina HiSeq 2000	PAIRED	RT-PCR	TRANSCRIPTOMIC	unspecified	Homo sapiens	ILLUMINA	2016-07-15	ERP012979
SAMEA4065751	ERX1589685	300	2016-10-03	4383	2992	ERR1518706	ERS1236861	SNU-GMI-FTC22-N	RNA-Seq	202	PRJEB11591	GMI, SNU	public	Illumina HiSeq 2000	PAIRED	RT-PCR	TRANSCRIPTOMIC	unspecified	Homo sapiens	ILLUMINA	2016-07-15	ERP012979
SAMEA4065752	ERX1589686	300	2016-10-03	5478	3604	ERR1518707	ERS1236862	SNU-GMI-FTC23	RNA-Seq	202	PRJEB11591	GMI, SNU	public	Illumina HiSeq 2000	PAIRED	RT-PCR	TRANSCRIPTOMIC	unspecified	Homo sapiens	ILLUMINA	2016-07-15	ERP012979
SAMEA4065753	ERX1589687	300	2016-10-03	3921	2634	ERR1518708	ERS1236863	SNU-GMI-FTC23-N	RNA-Seq	202	PRJEB11591	GMI, SNU	public	Illumina HiSeq 2000	PAIRED	RT-PCR	TRANSCRIPTOMIC	unspecified	Homo sapiens	ILLUMINA	2016-07-15	ERP012979
SAMEA4065754	ERX1589688	300	2016-10-03	3679	2290	ERR1518709	ERS1236864	SNU-GMI-FTC24	RNA-Seq	202	PRJEB11591	GMI, SNU	public	Illumina HiSeq 2000	PAIRED	RT-PCR	TRANSCRIPTOMIC	unspecified	Homo sapiens	ILLUMINA	2016-07-15	ERP012979
SAMEA4065755	ERX1589689	300	2016-10-03	4061	2785	ERR1518710	ERS1236865	SNU-GMI-FTC24-N	RNA-Seq	202	PRJEB11591	GMI, SNU	public	Illumina HiSeq 2000	PAIRED	RT-PCR	TRANSCRIPTOMIC	unspecified	Homo sapiens	ILLUMINA	2016-07-15	ERP012979
SAMEA4065756	ERX1589690	300	2016-10-03	3015	1863	ERR1518711	ERS1236866	SNU-GMI-FTC25	RNA-Seq	202	PRJEB11591	GMI, SNU	public	Illumina HiSeq 2000	PAIRED	RT-PCR	TRANSCRIPTOMIC	unspecified	Homo sapiens	ILLUMINA	2016-07-15	ERP012979
SAMEA4065757	ERX1589691	300	2016-10-03	3769	2569	ERR1518712	ERS1236867	SNU-GMI-FTC25-N	RNA-Seq	202	PRJEB11591	GMI, SNU	public	Illumina HiSeq 2000	PAIRED	RT-PCR	TRANSCRIPTOMIC	unspecified	Homo sapiens	ILLUMINA	2016-07-15	ERP012979
SAMEA4065758	ERX1589692	300	2016-10-03	5475	3766	ERR1518713	ERS1236868	SNU-GMI-FTC26	RNA-Seq	202	PRJEB11591	GMI, SNU	public	Illumina HiSeq 2000	PAIRED	RT-PCR	TRANSCRIPTOMIC	unspecified	Homo sapiens	ILLUMINA	2016-07-15	ERP012979
SAMEA4065759	ERX1589693	300	2016-10-03	4036	2780	ERR1518714	ERS1236869	SNU-GMI-FTC27	RNA-Seq	202	PRJEB11591	GMI, SNU	public	Illumina HiSeq 2000	PAIRED	RT-PCR	TRANSCRIPTOMIC	unspecified	Homo sapiens	ILLUMINA	2016-07-15	ERP012979
SAMEA4065760	ERX1589694	300	2016-10-03	5390	3712	ERR1518715	ERS1236870	SNU-GMI-FTC28	RNA-Seq	202	PRJEB11591	GMI, SNU	public	Illumina HiSeq 2000	PAIRED	RT-PCR	TRANSCRIPTOMIC	unspecified	Homo sapiens	ILLUMINA	2016-07-15	ERP012979
SAMEA4065761	ERX1589695	300	2016-10-03	7182	4927	ERR1518716	ERS1236871	SNU-GMI-FTC29	RNA-Seq	202	PRJEB11591	GMI, SNU	public	Illumina HiSeq 2000	PAIRED	RT-PCR	TRANSCRIPTOMIC	unspecified	Homo sapiens	ILLUMINA	2016-07-15	ERP012979
SAMEA4065762	ERX1589696	300	2016-10-03	5842	3998	ERR1518717	ERS1236872	SNU-GMI-FTC30	RNA-Seq	202	PRJEB11591	GMI, SNU	public	Illumina HiSeq 2000	PAIRED	RT-PCR	TRANSCRIPTOMIC	unspecified	Homo sapiens	ILLUMINA	2016-07-15	ERP012979
SAMEA4065763	ERX1589697	300	2016-10-03	7756	5451	ERR1518718	ERS1236873	SNU-GMI-FV01	RNA-Seq	202	PRJEB11591	GMI, SNU	public	Illumina HiSeq 2000	PAIRED	RT-PCR	TRANSCRIPTOMIC	unspecified	Homo sapiens	ILLUMINA	2016-07-15	ERP012979
SAMEA4065764	ERX1589698	300	2016-10-03	7386	5185	ERR1518719	ERS1236874	SNU-GMI-FV01-N	RNA-Seq	202	PRJEB11591	GMI, SNU	public	Illumina HiSeq 2000	PAIRED	RT-PCR	TRANSCRIPTOMIC	unspecified	Homo sapiens	ILLUMINA	2016-07-15	ERP012979
SAMEA4065765	ERX1589699	300	2016-10-03	5869	4020	ERR1518720	ERS1236875	SNU-GMI-FV02	RNA-Seq	202	PRJEB11591	GMI, SNU	public	Illumina HiSeq 2000	PAIRED	RT-PCR	TRANSCRIPTOMIC	unspecified	Homo sapiens	ILLUMINA	2016-07-15	ERP012979
SAMEA4065766	ERX1589700	300	2016-10-03	4356	2995	ERR1518721	ERS1236876	SNU-GMI-FV03	RNA-Seq	202	PRJEB11591	GMI, SNU	public	Illumina HiSeq 2000	PAIRED	RT-PCR	TRANSCRIPTOMIC	unspecified	Homo sapiens	ILLUMINA	2016-07-15	ERP012979
SAMEA4065767	ERX1589701	300	2016-10-03	6424	4421	ERR1518722	ERS1236877	SNU-GMI-FV04	RNA-Seq	202	PRJEB11591	GMI, SNU	public	Illumina HiSeq 2000	PAIRED	RT-PCR	TRANSCRIPTOMIC	unspecified	Homo sapiens	ILLUMINA	2016-07-15	ERP012979
SAMEA4065768	ERX1589702	300	2016-10-03	7337	5068	ERR1518723	ERS1236878	SNU-GMI-FV05	RNA-Seq	202	PRJEB11591	GMI, SNU	public	Illumina HiSeq 2000	PAIRED	RT-PCR	TRANSCRIPTOMIC	unspecified	Homo sapiens	ILLUMINA	2016-07-15	ERP012979
SAMEA4065769	ERX1589703	300	2016-10-03	6267	4296	ERR1518724	ERS1236879	SNU-GMI-FV06	RNA-Seq	202	PRJEB11591	GMI, SNU	public	Illumina HiSeq 2000	PAIRED	RT-PCR	TRANSCRIPTOMIC	unspecified	Homo sapiens	ILLUMINA	2016-07-15	ERP012979
SAMEA4065770	ERX1589704	300	2016-10-03	6951	4848	ERR1518725	ERS1236880	SNU-GMI-FV07	RNA-Seq	202	PRJEB11591	GMI, SNU	public	Illumina HiSeq 2000	PAIRED	RT-PCR	TRANSCRIPTOMIC	unspecified	Homo sapiens	ILLUMINA	2016-07-15	ERP012979
SAMEA4065771	ERX1589705	300	2016-10-06	7046	4852	ERR1518726	ERS1236881	SNU-GMI-FV08	RNA-Seq	202	PRJEB11591	GMI, SNU	public	Illumina HiSeq 2000	PAIRED	RT-PCR	TRANSCRIPTOMIC	unspecified	Homo sapiens	ILLUMINA	2016-07-15	ERP012979
SAMEA4065772	ERX1589706	300	2016-10-03	7858	5724	ERR1518727	ERS1236882	SNU-GMI-FV09	RNA-Seq	202	PRJEB11591	GMI, SNU	public	Illumina HiSeq 2000	PAIRED	RT-PCR	TRANSCRIPTOMIC	unspecified	Homo sapiens	ILLUMINA	2016-07-15	ERP012979
SAMEA4065773	ERX1589707	300	2016-10-03	6745	4668	ERR1518728	ERS1236883	SNU-GMI-FV09-N	RNA-Seq	202	PRJEB11591	GMI, SNU	public	Illumina HiSeq 2000	PAIRED	RT-PCR	TRANSCRIPTOMIC	unspecified	Homo sapiens	ILLUMINA	2016-07-15	ERP012979
SAMEA4065774	ERX1589708	300	2016-10-03	7154	5212	ERR1518729	ERS1236884	SNU-GMI-FV10	RNA-Seq	202	PRJEB11591	GMI, SNU	public	Illumina HiSeq 2000	PAIRED	RT-PCR	TRANSCRIPTOMIC	unspecified	Homo sapiens	ILLUMINA	2016-07-15	ERP012979
SAMEA4065775	ERX1589709	300	2016-10-03	7054	5136	ERR1518730	ERS1236885	SNU-GMI-FV11	RNA-Seq	202	PRJEB11591	GMI, SNU	public	Illumina HiSeq 2000	PAIRED	RT-PCR	TRANSCRIPTOMIC	unspecified	Homo sapiens	ILLUMINA	2016-07-15	ERP012979
SAMEA4065776	ERX1589710	300	2016-10-03	6245	4547	ERR1518731	ERS1236886	SNU-GMI-FV12	RNA-Seq	202	PRJEB11591	GMI, SNU	public	Illumina HiSeq 2000	PAIRED	RT-PCR	TRANSCRIPTOMIC	unspecified	Homo sapiens	ILLUMINA	2016-07-15	ERP012979
SAMEA4065777	ERX1589711	300	2016-10-03	6400	4668	ERR1518732	ERS1236887	SNU-GMI-FV13	RNA-Seq	202	PRJEB11591	GMI, SNU	public	Illumina HiSeq 2000	PAIRED	RT-PCR	TRANSCRIPTOMIC	unspecified	Homo sapiens	ILLUMINA	2016-07-15	ERP012979
SAMEA4065778	ERX1589712	300	2016-10-03	7011	5114	ERR1518733	ERS1236888	SNU-GMI-FV14	RNA-Seq	202	PRJEB11591	GMI, SNU	public	Illumina HiSeq 2000	PAIRED	RT-PCR	TRANSCRIPTOMIC	unspecified	Homo sapiens	ILLUMINA	2016-07-15	ERP012979
SAMEA4065779	ERX1589713	300	2016-10-03	6194	4508	ERR1518734	ERS1236889	SNU-GMI-FV15	RNA-Seq	202	PRJEB11591	GMI, SNU	public	Illumina HiSeq 2000	PAIRED	RT-PCR	TRANSCRIPTOMIC	unspecified	Homo sapiens	ILLUMINA	2016-07-15	ERP012979
SAMEA4065780	ERX1589714	300	2016-10-03	5983	4350	ERR1518735	ERS1236890	SNU-GMI-FV16	RNA-Seq	202	PRJEB11591	GMI, SNU	public	Illumina HiSeq 2000	PAIRED	RT-PCR	TRANSCRIPTOMIC	unspecified	Homo sapiens	ILLUMINA	2016-07-15	ERP012979
SAMEA4065781	ERX1589715	300	2016-10-03	6406	4667	ERR1518736	ERS1236891	SNU-GMI-FV17	RNA-Seq	202	PRJEB11591	GMI, SNU	public	Illumina HiSeq 2000	PAIRED	RT-PCR	TRANSCRIPTOMIC	unspecified	Homo sapiens	ILLUMINA	2016-07-15	ERP012979
SAMEA4065782	ERX1589716	300	2016-10-03	8747	6384	ERR1518737	ERS1236892	SNU-GMI-FV18	RNA-Seq	202	PRJEB11591	GMI, SNU	public	Illumina HiSeq 2000	PAIRED	RT-PCR	TRANSCRIPTOMIC	unspecified	Homo sapiens	ILLUMINA	2016-07-15	ERP012979
SAMEA4065783	ERX1589717	300	2016-10-03	6594	4800	ERR1518738	ERS1236893	SNU-GMI-FV19	RNA-Seq	202	PRJEB11591	GMI, SNU	public	Illumina HiSeq 2000	PAIRED	RT-PCR	TRANSCRIPTOMIC	unspecified	Homo sapiens	ILLUMINA	2016-07-15	ERP012979
SAMEA4065784	ERX1589718	300	2016-10-03	6474	4730	ERR1518739	ERS1236894	SNU-GMI-FV20	RNA-Seq	202	PRJEB11591	GMI, SNU	public	Illumina HiSeq 2000	PAIRED	RT-PCR	TRANSCRIPTOMIC	unspecified	Homo sapiens	ILLUMINA	2016-07-15	ERP012979
SAMEA4065785	ERX1589719	300	2016-10-03	6354	4642	ERR1518740	ERS1236895	SNU-GMI-FV21	RNA-Seq	202	PRJEB11591	GMI, SNU	public	Illumina HiSeq 2000	PAIRED	RT-PCR	TRANSCRIPTOMIC	unspecified	Homo sapiens	ILLUMINA	2016-07-15	ERP012979
SAMEA4065786	ERX1589720	300	2016-10-03	7004	5122	ERR1518741	ERS1236896	SNU-GMI-FV22	RNA-Seq	202	PRJEB11591	GMI, SNU	public	Illumina HiSeq 2000	PAIRED	RT-PCR	TRANSCRIPTOMIC	unspecified	Homo sapiens	ILLUMINA	2016-07-15	ERP012979
SAMEA4065787	ERX1589721	300	2016-10-03	6567	4792	ERR1518742	ERS1236897	SNU-GMI-FV23	RNA-Seq	202	PRJEB11591	GMI, SNU	public	Illumina HiSeq 2000	PAIRED	RT-PCR	TRANSCRIPTOMIC	unspecified	Homo sapiens	ILLUMINA	2016-07-15	ERP012979
SAMEA4065788	ERX1589722	300	2016-10-03	7658	5584	ERR1518743	ERS1236898	SNU-GMI-FV24	RNA-Seq	202	PRJEB11591	GMI, SNU	public	Illumina HiSeq 2000	PAIRED	RT-PCR	TRANSCRIPTOMIC	unspecified	Homo sapiens	ILLUMINA	2016-07-15	ERP012979
SAMEA4065789	ERX1589723	300	2016-10-03	7262	5297	ERR1518744	ERS1236899	SNU-GMI-FV25	RNA-Seq	202	PRJEB11591	GMI, SNU	public	Illumina HiSeq 2000	PAIRED	RT-PCR	TRANSCRIPTOMIC	unspecified	Homo sapiens	ILLUMINA	2016-07-15	ERP012979
SAMEA4065790	ERX1589724	300	2016-10-03	7379	5383	ERR1518745	ERS1236900	SNU-GMI-FV26	RNA-Seq	202	PRJEB11591	GMI, SNU	public	Illumina HiSeq 2000	PAIRED	RT-PCR	TRANSCRIPTOMIC	unspecified	Homo sapiens	ILLUMINA	2016-07-15	ERP012979
SAMEA4065791	ERX1589725	300	2016-10-03	7347	5355	ERR1518746	ERS1236901	SNU-GMI-FV27	RNA-Seq	202	PRJEB11591	GMI, SNU	public	Illumina HiSeq 2000	PAIRED	RT-PCR	TRANSCRIPTOMIC	unspecified	Homo sapiens	ILLUMINA	2016-07-15	ERP012979
SAMEA4065792	ERX1589726	300	2016-10-03	7523	5472	ERR1518747	ERS1236902	SNU-GMI-FV28	RNA-Seq	202	PRJEB11591	GMI, SNU	public	Illumina HiSeq 2000	PAIRED	RT-PCR	TRANSCRIPTOMIC	unspecified	Homo sapiens	ILLUMINA	2016-07-15	ERP012979
SAMEA4065793	ERX1589727	300	2016-10-03	6090	4151	ERR1518748	ERS1236903	SNU-GMI-FV29	RNA-Seq	202	PRJEB11591	GMI, SNU	public	Illumina HiSeq 2000	PAIRED	RT-PCR	TRANSCRIPTOMIC	unspecified	Homo sapiens	ILLUMINA	2016-07-15	ERP012979
SAMEA4065794	ERX1589728	300	2016-10-03	8194	5779	ERR1518749	ERS1236904	SNU-GMI-FV29-N	RNA-Seq	202	PRJEB11591	GMI, SNU	public	Illumina HiSeq 2000	PAIRED	RT-PCR	TRANSCRIPTOMIC	unspecified	Homo sapiens	ILLUMINA	2016-07-15	ERP012979
SAMEA4065795	ERX1589729	300	2016-10-03	4102	2801	ERR1518750	ERS1236905	SNU-GMI-FV30	RNA-Seq	202	PRJEB11591	GMI, SNU	public	Illumina HiSeq 2000	PAIRED	RT-PCR	TRANSCRIPTOMIC	unspecified	Homo sapiens	ILLUMINA	2016-07-15	ERP012979
SAMEA4065796	ERX1589730	300	2016-10-03	6920	4873	ERR1518751	ERS1236906	SNU-GMI-FV30-N	RNA-Seq	202	PRJEB11591	GMI, SNU	public	Illumina HiSeq 2000	PAIRED	RT-PCR	TRANSCRIPTOMIC	unspecified	Homo sapiens	ILLUMINA	2016-07-15	ERP012979
SAMEA4065797	ERX1589731	300	2016-10-03	8828	6054	ERR1518752	ERS1236907	SNU-GMI-FV31	RNA-Seq	202	PRJEB11591	GMI, SNU	public	Illumina HiSeq 2000	PAIRED	RT-PCR	TRANSCRIPTOMIC	unspecified	Homo sapiens	ILLUMINA	2016-07-15	ERP012979
SAMEA4065798	ERX1589732	300	2016-10-03	6614	4666	ERR1518753	ERS1236908	SNU-GMI-FV31-N	RNA-Seq	202	PRJEB11591	GMI, SNU	public	Illumina HiSeq 2000	PAIRED	RT-PCR	TRANSCRIPTOMIC	unspecified	Homo sapiens	ILLUMINA	2016-07-15	ERP012979
SAMEA4065799	ERX1589733	300	2016-10-03	5518	3921	ERR1518754	ERS1236909	SNU-GMI-FV32	RNA-Seq	202	PRJEB11591	GMI, SNU	public	Illumina HiSeq 2000	PAIRED	RT-PCR	TRANSCRIPTOMIC	unspecified	Homo sapiens	ILLUMINA	2016-07-15	ERP012979
SAMEA4065800	ERX1589734	300	2016-10-03	3477	2453	ERR1518755	ERS1236910	SNU-GMI-FV32-N	RNA-Seq	202	PRJEB11591	GMI, SNU	public	Illumina HiSeq 2000	PAIRED	RT-PCR	TRANSCRIPTOMIC	unspecified	Homo sapiens	ILLUMINA	2016-07-15	ERP012979
SAMEA4065801	ERX1589735	300	2016-10-03	4440	3151	ERR1518756	ERS1236911	SNU-GMI-FV33	RNA-Seq	202	PRJEB11591	GMI, SNU	public	Illumina HiSeq 2000	PAIRED	RT-PCR	TRANSCRIPTOMIC	unspecified	Homo sapiens	ILLUMINA	2016-07-15	ERP012979
SAMEA4065802	ERX1589736	300	2016-10-03	5742	4058	ERR1518757	ERS1236912	SNU-GMI-FV33-N	RNA-Seq	202	PRJEB11591	GMI, SNU	public	Illumina HiSeq 2000	PAIRED	RT-PCR	TRANSCRIPTOMIC	unspecified	Homo sapiens	ILLUMINA	2016-07-15	ERP012979
SAMEA4065803	ERX1589737	300	2016-10-03	9098	6302	ERR1518758	ERS1236913	SNU-GMI-FV34	RNA-Seq	202	PRJEB11591	GMI, SNU	public	Illumina HiSeq 2000	PAIRED	RT-PCR	TRANSCRIPTOMIC	unspecified	Homo sapiens	ILLUMINA	2016-07-15	ERP012979
SAMEA4065804	ERX1589738	300	2016-10-03	6172	4356	ERR1518759	ERS1236914	SNU-GMI-FV34-N	RNA-Seq	202	PRJEB11591	GMI, SNU	public	Illumina HiSeq 2000	PAIRED	RT-PCR	TRANSCRIPTOMIC	unspecified	Homo sapiens	ILLUMINA	2016-07-15	ERP012979
SAMEA4065805	ERX1589739	300	2016-10-03	4030	2789	ERR1518760	ERS1236915	SNU-GMI-FV35	RNA-Seq	202	PRJEB11591	GMI, SNU	public	Illumina HiSeq 2000	PAIRED	RT-PCR	TRANSCRIPTOMIC	unspecified	Homo sapiens	ILLUMINA	2016-07-15	ERP012979
SAMEA4065806	ERX1589740	300	2016-10-03	6352	4488	ERR1518761	ERS1236916	SNU-GMI-FV35-N	RNA-Seq	202	PRJEB11591	GMI, SNU	public	Illumina HiSeq 2000	PAIRED	RT-PCR	TRANSCRIPTOMIC	unspecified	Homo sapiens	ILLUMINA	2016-07-15	ERP012979
SAMEA4065807	ERX1589741	300	2016-10-03	6554	4511	ERR1518762	ERS1236917	SNU-GMI-FV36	RNA-Seq	202	PRJEB11591	GMI, SNU	public	Illumina HiSeq 2000	PAIRED	RT-PCR	TRANSCRIPTOMIC	unspecified	Homo sapiens	ILLUMINA	2016-07-15	ERP012979
SAMEA4065808	ERX1589742	300	2016-10-03	6236	4406	ERR1518763	ERS1236918	SNU-GMI-FV36-N	RNA-Seq	202	PRJEB11591	GMI, SNU	public	Illumina HiSeq 2000	PAIRED	RT-PCR	TRANSCRIPTOMIC	unspecified	Homo sapiens	ILLUMINA	2016-07-15	ERP012979
SAMEA4065809	ERX1589743	300	2016-10-03	5053	3476	ERR1518764	ERS1236919	SNU-GMI-FV37	RNA-Seq	202	PRJEB11591	GMI, SNU	public	Illumina HiSeq 2000	PAIRED	RT-PCR	TRANSCRIPTOMIC	unspecified	Homo sapiens	ILLUMINA	2016-07-15	ERP012979
SAMEA4065810	ERX1589744	300	2016-10-03	6147	4339	ERR1518765	ERS1236920	SNU-GMI-FV37-N	RNA-Seq	202	PRJEB11591	GMI, SNU	public	Illumina HiSeq 2000	PAIRED	RT-PCR	TRANSCRIPTOMIC	unspecified	Homo sapiens	ILLUMINA	2016-07-15	ERP012979
SAMEA4065811	ERX1589745	300	2016-10-03	6797	4669	ERR1518766	ERS1236921	SNU-GMI-FV38	RNA-Seq	202	PRJEB11591	GMI, SNU	public	Illumina HiSeq 2000	PAIRED	RT-PCR	TRANSCRIPTOMIC	unspecified	Homo sapiens	ILLUMINA	2016-07-15	ERP012979
SAMEA4065812	ERX1589746	300	2016-10-03	7921	5433	ERR1518767	ERS1236922	SNU-GMI-FV39	RNA-Seq	202	PRJEB11591	GMI, SNU	public	Illumina HiSeq 2000	PAIRED	RT-PCR	TRANSCRIPTOMIC	unspecified	Homo sapiens	ILLUMINA	2016-07-15	ERP012979
SAMEA4065813	ERX1589747	300	2016-10-03	5298	3763	ERR1518768	ERS1236923	SNU-GMI-FV40	RNA-Seq	202	PRJEB11591	GMI, SNU	public	Illumina HiSeq 2000	PAIRED	RT-PCR	TRANSCRIPTOMIC	unspecified	Homo sapiens	ILLUMINA	2016-07-15	ERP012979
SAMEA4065814	ERX1589748	300	2016-10-03	4600	3280	ERR1518769	ERS1236924	SNU-GMI-FV41	RNA-Seq	202	PRJEB11591	GMI, SNU	public	Illumina HiSeq 2000	PAIRED	RT-PCR	TRANSCRIPTOMIC	unspecified	Homo sapiens	ILLUMINA	2016-07-15	ERP012979
SAMEA4065815	ERX1589749	300	2016-10-03	3629	2580	ERR1518770	ERS1236925	SNU-GMI-FV42	RNA-Seq	202	PRJEB11591	GMI, SNU	public	Illumina HiSeq 2000	PAIRED	RT-PCR	TRANSCRIPTOMIC	unspecified	Homo sapiens	ILLUMINA	2016-07-15	ERP012979
SAMEA4065816	ERX1589750	300	2016-10-03	9401	6651	ERR1518771	ERS1236926	SNU-GMI-FV43	RNA-Seq	202	PRJEB11591	GMI, SNU	public	Illumina HiSeq 2000	PAIRED	RT-PCR	TRANSCRIPTOMIC	unspecified	Homo sapiens	ILLUMINA	2016-07-15	ERP012979
SAMEA4065817	ERX1589751	300	2016-10-03	4160	2826	ERR1518772	ERS1236927	SNU-GMI-FV44	RNA-Seq	202	PRJEB11591	GMI, SNU	public	Illumina HiSeq 2000	PAIRED	RT-PCR	TRANSCRIPTOMIC	unspecified	Homo sapiens	ILLUMINA	2016-07-15	ERP012979
SAMEA4065818	ERX1589752	300	2016-10-03	5345	3535	ERR1518773	ERS1236928	SNU-GMI-FV45	RNA-Seq	202	PRJEB11591	GMI, SNU	public	Illumina HiSeq 2000	PAIRED	RT-PCR	TRANSCRIPTOMIC	unspecified	Homo sapiens	ILLUMINA	2016-07-15	ERP012979
SAMEA4065819	ERX1589753	300	2016-10-03	4992	3444	ERR1518774	ERS1236929	SNU-GMI-FV46	RNA-Seq	202	PRJEB11591	GMI, SNU	public	Illumina HiSeq 2000	PAIRED	RT-PCR	TRANSCRIPTOMIC	unspecified	Homo sapiens	ILLUMINA	2016-07-15	ERP012979
SAMEA4065820	ERX1589754	300	2016-10-03	6595	4580	ERR1518775	ERS1236930	SNU-GMI-FV47	RNA-Seq	202	PRJEB11591	GMI, SNU	public	Illumina HiSeq 2000	PAIRED	RT-PCR	TRANSCRIPTOMIC	unspecified	Homo sapiens	ILLUMINA	2016-07-15	ERP012979
SAMEA4065821	ERX1589755	300	2016-10-03	7637	5343	ERR1518776	ERS1236931	SNU-GMI-FV48	RNA-Seq	202	PRJEB11591	GMI, SNU	public	Illumina HiSeq 2000	PAIRED	RT-PCR	TRANSCRIPTOMIC	unspecified	Homo sapiens	ILLUMINA	2016-07-15	ERP012979
SAMEA4065822	ERX1589756	300	2016-10-03	3856	2732	ERR1518777	ERS1236932	SNU-GMI-PTC01	RNA-Seq	202	PRJEB11591	GMI, SNU	public	Illumina HiSeq 2000	PAIRED	RT-PCR	TRANSCRIPTOMIC	unspecified	Homo sapiens	ILLUMINA	2016-07-15	ERP012979
SAMEA4065823	ERX1589757	300	2016-10-03	5552	3923	ERR1518778	ERS1236933	SNU-GMI-PTC02	RNA-Seq	202	PRJEB11591	GMI, SNU	public	Illumina HiSeq 2000	PAIRED	RT-PCR	TRANSCRIPTOMIC	unspecified	Homo sapiens	ILLUMINA	2016-07-15	ERP012979
SAMEA4065824	ERX1589758	300	2016-10-03	4970	3515	ERR1518779	ERS1236934	SNU-GMI-PTC03	RNA-Seq	202	PRJEB11591	GMI, SNU	public	Illumina HiSeq 2000	PAIRED	RT-PCR	TRANSCRIPTOMIC	unspecified	Homo sapiens	ILLUMINA	2016-07-15	ERP012979
SAMEA4065825	ERX1589759	300	2016-10-03	5226	3697	ERR1518780	ERS1236935	SNU-GMI-PTC04	RNA-Seq	202	PRJEB11591	GMI, SNU	public	Illumina HiSeq 2000	PAIRED	RT-PCR	TRANSCRIPTOMIC	unspecified	Homo sapiens	ILLUMINA	2016-07-15	ERP012979
SAMEA4065826	ERX1589760	300	2016-10-03	6929	4900	ERR1518781	ERS1236936	SNU-GMI-PTC05	RNA-Seq	202	PRJEB11591	GMI, SNU	public	Illumina HiSeq 2000	PAIRED	RT-PCR	TRANSCRIPTOMIC	unspecified	Homo sapiens	ILLUMINA	2016-07-15	ERP012979
SAMEA4065827	ERX1589761	300	2016-10-03	7006	4967	ERR1518782	ERS1236937	SNU-GMI-PTC06	RNA-Seq	202	PRJEB11591	GMI, SNU	public	Illumina HiSeq 2000	PAIRED	RT-PCR	TRANSCRIPTOMIC	unspecified	Homo sapiens	ILLUMINA	2016-07-15	ERP012979
SAMEA4065828	ERX1589762	300	2016-10-03	6456	4561	ERR1518783	ERS1236938	SNU-GMI-PTC07	RNA-Seq	202	PRJEB11591	GMI, SNU	public	Illumina HiSeq 2000	PAIRED	RT-PCR	TRANSCRIPTOMIC	unspecified	Homo sapiens	ILLUMINA	2016-07-15	ERP012979
SAMEA4065829	ERX1589763	300	2016-10-03	7689	5310	ERR1518784	ERS1236939	SNU-GMI-PTC08	RNA-Seq	202	PRJEB11591	GMI, SNU	public	Illumina HiSeq 2000	PAIRED	RT-PCR	TRANSCRIPTOMIC	unspecified	Homo sapiens	ILLUMINA	2016-07-15	ERP012979
SAMEA4065830	ERX1589764	300	2016-10-03	8376	5776	ERR1518785	ERS1236940	SNU-GMI-PTC09	RNA-Seq	202	PRJEB11591	GMI, SNU	public	Illumina HiSeq 2000	PAIRED	RT-PCR	TRANSCRIPTOMIC	unspecified	Homo sapiens	ILLUMINA	2016-07-15	ERP012979
SAMEA4065831	ERX1589765	300	2016-10-03	6319	4377	ERR1518786	ERS1236941	SNU-GMI-PTC10	RNA-Seq	202	PRJEB11591	GMI, SNU	public	Illumina HiSeq 2000	PAIRED	RT-PCR	TRANSCRIPTOMIC	unspecified	Homo sapiens	ILLUMINA	2016-07-15	ERP012979
SAMEA4065832	ERX1589766	300	2016-10-03	5601	3971	ERR1518787	ERS1236942	SNU-GMI-PTC11	RNA-Seq	202	PRJEB11591	GMI, SNU	public	Illumina HiSeq 2000	PAIRED	RT-PCR	TRANSCRIPTOMIC	unspecified	Homo sapiens	ILLUMINA	2016-07-15	ERP012979
SAMEA4065833	ERX1589767	300	2016-10-03	6094	4303	ERR1518788	ERS1236943	SNU-GMI-PTC12	RNA-Seq	202	PRJEB11591	GMI, SNU	public	Illumina HiSeq 2000	PAIRED	RT-PCR	TRANSCRIPTOMIC	unspecified	Homo sapiens	ILLUMINA	2016-07-15	ERP012979
SAMEA4065834	ERX1589768	300	2016-10-03	6292	4432	ERR1518789	ERS1236944	SNU-GMI-PTC13	RNA-Seq	202	PRJEB11591	GMI, SNU	public	Illumina HiSeq 2000	PAIRED	RT-PCR	TRANSCRIPTOMIC	unspecified	Homo sapiens	ILLUMINA	2016-07-15	ERP012979
SAMEA4065835	ERX1589769	300	2016-10-03	6158	4354	ERR1518790	ERS1236945	SNU-GMI-PTC14	RNA-Seq	202	PRJEB11591	GMI, SNU	public	Illumina HiSeq 2000	PAIRED	RT-PCR	TRANSCRIPTOMIC	unspecified	Homo sapiens	ILLUMINA	2016-07-15	ERP012979
SAMEA4065836	ERX1589770	300	2016-10-03	4203	2940	ERR1518791	ERS1236946	SNU-GMI-PTC15	RNA-Seq	202	PRJEB11591	GMI, SNU	public	Illumina HiSeq 2000	PAIRED	RT-PCR	TRANSCRIPTOMIC	unspecified	Homo sapiens	ILLUMINA	2016-07-15	ERP012979
SAMEA4065837	ERX1589771	300	2016-10-03	4698	3303	ERR1518792	ERS1236947	SNU-GMI-PTC16	RNA-Seq	202	PRJEB11591	GMI, SNU	public	Illumina HiSeq 2000	PAIRED	RT-PCR	TRANSCRIPTOMIC	unspecified	Homo sapiens	ILLUMINA	2016-07-15	ERP012979
SAMEA4065838	ERX1589772	300	2016-10-03	7117	4987	ERR1518793	ERS1236948	SNU-GMI-PTC17	RNA-Seq	202	PRJEB11591	GMI, SNU	public	Illumina HiSeq 2000	PAIRED	RT-PCR	TRANSCRIPTOMIC	unspecified	Homo sapiens	ILLUMINA	2016-07-15	ERP012979
SAMEA4065839	ERX1589773	300	2016-10-03	7399	5183	ERR1518794	ERS1236949	SNU-GMI-PTC18	RNA-Seq	202	PRJEB11591	GMI, SNU	public	Illumina HiSeq 2000	PAIRED	RT-PCR	TRANSCRIPTOMIC	unspecified	Homo sapiens	ILLUMINA	2016-07-15	ERP012979
SAMEA4065840	ERX1589774	300	2016-10-03	3931	2745	ERR1518795	ERS1236950	SNU-GMI-PTC19	RNA-Seq	202	PRJEB11591	GMI, SNU	public	Illumina HiSeq 2000	PAIRED	RT-PCR	TRANSCRIPTOMIC	unspecified	Homo sapiens	ILLUMINA	2016-07-15	ERP012979
SAMEA4065841	ERX1589775	300	2016-10-03	4734	3295	ERR1518796	ERS1236951	SNU-GMI-PTC20	RNA-Seq	202	PRJEB11591	GMI, SNU	public	Illumina HiSeq 2000	PAIRED	RT-PCR	TRANSCRIPTOMIC	unspecified	Homo sapiens	ILLUMINA	2016-07-15	ERP012979
SAMEA4065842	ERX1589776	300	2016-10-03	7071	4965	ERR1518797	ERS1236952	SNU-GMI-PTC21	RNA-Seq	202	PRJEB11591	GMI, SNU	public	Illumina HiSeq 2000	PAIRED	RT-PCR	TRANSCRIPTOMIC	unspecified	Homo sapiens	ILLUMINA	2016-07-15	ERP012979
SAMEA4065843	ERX1589777	300	2016-10-03	6393	4484	ERR1518798	ERS1236953	SNU-GMI-PTC22	RNA-Seq	202	PRJEB11591	GMI, SNU	public	Illumina HiSeq 2000	PAIRED	RT-PCR	TRANSCRIPTOMIC	unspecified	Homo sapiens	ILLUMINA	2016-07-15	ERP012979
SAMEA4065844	ERX1589778	300	2016-10-03	6385	4469	ERR1518799	ERS1236954	SNU-GMI-PTC23	RNA-Seq	202	PRJEB11591	GMI, SNU	public	Illumina HiSeq 2000	PAIRED	RT-PCR	TRANSCRIPTOMIC	unspecified	Homo sapiens	ILLUMINA	2016-07-15	ERP012979
SAMEA4065845	ERX1589779	300	2016-10-03	6443	4523	ERR1518800	ERS1236955	SNU-GMI-PTC24	RNA-Seq	202	PRJEB11591	GMI, SNU	public	Illumina HiSeq 2000	PAIRED	RT-PCR	TRANSCRIPTOMIC	unspecified	Homo sapiens	ILLUMINA	2016-07-15	ERP012979
SAMEA4065846	ERX1589780	300	2016-10-03	5980	4196	ERR1518801	ERS1236956	SNU-GMI-PTC25	RNA-Seq	202	PRJEB11591	GMI, SNU	public	Illumina HiSeq 2000	PAIRED	RT-PCR	TRANSCRIPTOMIC	unspecified	Homo sapiens	ILLUMINA	2016-07-15	ERP012979
SAMEA4065847	ERX1589781	300	2016-10-03	6299	4353	ERR1518802	ERS1236957	SNU-GMI-PTC26	RNA-Seq	202	PRJEB11591	GMI, SNU	public	Illumina HiSeq 2000	PAIRED	RT-PCR	TRANSCRIPTOMIC	unspecified	Homo sapiens	ILLUMINA	2016-07-15	ERP012979
SAMEA4065848	ERX1589782	300	2016-10-03	9022	6532	ERR1518803	ERS1236958	SNU-GMI-PTC26-N	RNA-Seq	202	PRJEB11591	GMI, SNU	public	Illumina HiSeq 2000	PAIRED	RT-PCR	TRANSCRIPTOMIC	unspecified	Homo sapiens	ILLUMINA	2016-07-15	ERP012979
SAMEA4065849	ERX1589783	300	2016-10-03	5299	3661	ERR1518804	ERS1236959	SNU-GMI-PTC27	RNA-Seq	202	PRJEB11591	GMI, SNU	public	Illumina HiSeq 2000	PAIRED	RT-PCR	TRANSCRIPTOMIC	unspecified	Homo sapiens	ILLUMINA	2016-07-15	ERP012979
SAMEA4065850	ERX1589784	300	2016-10-03	7127	5214	ERR1518805	ERS1236960	SNU-GMI-PTC27-N	RNA-Seq	202	PRJEB11591	GMI, SNU	public	Illumina HiSeq 2000	PAIRED	RT-PCR	TRANSCRIPTOMIC	unspecified	Homo sapiens	ILLUMINA	2016-07-15	ERP012979
SAMEA4065851	ERX1589785	300	2016-10-03	4781	3301	ERR1518806	ERS1236961	SNU-GMI-PTC28	RNA-Seq	202	PRJEB11591	GMI, SNU	public	Illumina HiSeq 2000	PAIRED	RT-PCR	TRANSCRIPTOMIC	unspecified	Homo sapiens	ILLUMINA	2016-07-15	ERP012979
SAMEA4065852	ERX1589786	300	2016-10-03	6422	4545	ERR1518807	ERS1236962	SNU-GMI-PTC28-N	RNA-Seq	202	PRJEB11591	GMI, SNU	public	Illumina HiSeq 2000	PAIRED	RT-PCR	TRANSCRIPTOMIC	unspecified	Homo sapiens	ILLUMINA	2016-07-15	ERP012979
SAMEA4065853	ERX1589787	300	2016-10-03	5338	3685	ERR1518808	ERS1236963	SNU-GMI-PTC29	RNA-Seq	202	PRJEB11591	GMI, SNU	public	Illumina HiSeq 2000	PAIRED	RT-PCR	TRANSCRIPTOMIC	unspecified	Homo sapiens	ILLUMINA	2016-07-15	ERP012979
SAMEA4065854	ERX1589788	300	2016-10-03	7459	5260	ERR1518809	ERS1236964	SNU-GMI-PTC29-N	RNA-Seq	202	PRJEB11591	GMI, SNU	public	Illumina HiSeq 2000	PAIRED	RT-PCR	TRANSCRIPTOMIC	unspecified	Homo sapiens	ILLUMINA	2016-07-15	ERP012979
SAMEA4065855	ERX1589789	300	2016-10-03	4780	3300	ERR1518810	ERS1236965	SNU-GMI-PTC30	RNA-Seq	202	PRJEB11591	GMI, SNU	public	Illumina HiSeq 2000	PAIRED	RT-PCR	TRANSCRIPTOMIC	unspecified	Homo sapiens	ILLUMINA	2016-07-15	ERP012979
SAMEA4065856	ERX1589790	300	2016-10-03	7097	5214	ERR1518811	ERS1236966	SNU-GMI-PTC30-N	RNA-Seq	202	PRJEB11591	GMI, SNU	public	Illumina HiSeq 2000	PAIRED	RT-PCR	TRANSCRIPTOMIC	unspecified	Homo sapiens	ILLUMINA	2016-07-15	ERP012979
SAMEA4065857	ERX1589791	300	2016-10-03	4956	3437	ERR1518812	ERS1236967	SNU-GMI-PTC31	RNA-Seq	202	PRJEB11591	GMI, SNU	public	Illumina HiSeq 2000	PAIRED	RT-PCR	TRANSCRIPTOMIC	unspecified	Homo sapiens	ILLUMINA	2016-07-15	ERP012979
SAMEA4065858	ERX1589792	300	2016-10-03	7225	5088	ERR1518813	ERS1236968	SNU-GMI-PTC31-N	RNA-Seq	202	PRJEB11591	GMI, SNU	public	Illumina HiSeq 2000	PAIRED	RT-PCR	TRANSCRIPTOMIC	unspecified	Homo sapiens	ILLUMINA	2016-07-15	ERP012979
SAMEA4065859	ERX1589793	300	2016-10-03	4471	3100	ERR1518814	ERS1236969	SNU-GMI-PTC32	RNA-Seq	202	PRJEB11591	GMI, SNU	public	Illumina HiSeq 2000	PAIRED	RT-PCR	TRANSCRIPTOMIC	unspecified	Homo sapiens	ILLUMINA	2016-07-15	ERP012979
SAMEA4065860	ERX1589794	300	2016-10-03	6220	4384	ERR1518815	ERS1236970	SNU-GMI-PTC32-N	RNA-Seq	202	PRJEB11591	GMI, SNU	public	Illumina HiSeq 2000	PAIRED	RT-PCR	TRANSCRIPTOMIC	unspecified	Homo sapiens	ILLUMINA	2016-07-15	ERP012979
SAMEA4065861	ERX1589795	300	2016-10-03	5601	3888	ERR1518816	ERS1236971	SNU-GMI-PTC33	RNA-Seq	202	PRJEB11591	GMI, SNU	public	Illumina HiSeq 2000	PAIRED	RT-PCR	TRANSCRIPTOMIC	unspecified	Homo sapiens	ILLUMINA	2016-07-15	ERP012979
SAMEA4065862	ERX1589796	300	2016-10-03	6506	4782	ERR1518817	ERS1236972	SNU-GMI-PTC33-N	RNA-Seq	202	PRJEB11591	GMI, SNU	public	Illumina HiSeq 2000	PAIRED	RT-PCR	TRANSCRIPTOMIC	unspecified	Homo sapiens	ILLUMINA	2016-07-15	ERP012979
SAMEA4065863	ERX1589797	300	2016-10-03	5885	4095	ERR1518818	ERS1236973	SNU-GMI-PTC34	RNA-Seq	202	PRJEB11591	GMI, SNU	public	Illumina HiSeq 2000	PAIRED	RT-PCR	TRANSCRIPTOMIC	unspecified	Homo sapiens	ILLUMINA	2016-07-15	ERP012979
SAMEA4065864	ERX1589798	300	2016-10-03	6007	4167	ERR1518819	ERS1236974	SNU-GMI-PTC35	RNA-Seq	202	PRJEB11591	GMI, SNU	public	Illumina HiSeq 2000	PAIRED	RT-PCR	TRANSCRIPTOMIC	unspecified	Homo sapiens	ILLUMINA	2016-07-15	ERP012979
SAMEA4065865	ERX1589799	300	2016-10-03	6183	4354	ERR1518820	ERS1236975	SNU-GMI-PTC35-N	RNA-Seq	202	PRJEB11591	GMI, SNU	public	Illumina HiSeq 2000	PAIRED	RT-PCR	TRANSCRIPTOMIC	unspecified	Homo sapiens	ILLUMINA	2016-07-15	ERP012979
SAMEA4065866	ERX1589800	300	2016-10-03	5972	4191	ERR1518821	ERS1236976	SNU-GMI-PTC36	RNA-Seq	202	PRJEB11591	GMI, SNU	public	Illumina HiSeq 2000	PAIRED	RT-PCR	TRANSCRIPTOMIC	unspecified	Homo sapiens	ILLUMINA	2016-07-15	ERP012979
SAMEA4065867	ERX1589801	300	2016-10-03	7397	5191	ERR1518822	ERS1236977	SNU-GMI-PTC36-N	RNA-Seq	202	PRJEB11591	GMI, SNU	public	Illumina HiSeq 2000	PAIRED	RT-PCR	TRANSCRIPTOMIC	unspecified	Homo sapiens	ILLUMINA	2016-07-15	ERP012979
SAMEA4065868	ERX1589802	300	2016-10-03	5557	3850	ERR1518823	ERS1236978	SNU-GMI-PTC37	RNA-Seq	202	PRJEB11591	GMI, SNU	public	Illumina HiSeq 2000	PAIRED	RT-PCR	TRANSCRIPTOMIC	unspecified	Homo sapiens	ILLUMINA	2016-07-15	ERP012979
SAMEA4065869	ERX1589803	300	2016-10-03	5790	4258	ERR1518824	ERS1236979	SNU-GMI-PTC37-N	RNA-Seq	202	PRJEB11591	GMI, SNU	public	Illumina HiSeq 2000	PAIRED	RT-PCR	TRANSCRIPTOMIC	unspecified	Homo sapiens	ILLUMINA	2016-07-15	ERP012979
SAMEA4065870	ERX1589804	300	2016-10-03	6362	4434	ERR1518825	ERS1236980	SNU-GMI-PTC38	RNA-Seq	202	PRJEB11591	GMI, SNU	public	Illumina HiSeq 2000	PAIRED	RT-PCR	TRANSCRIPTOMIC	unspecified	Homo sapiens	ILLUMINA	2016-07-15	ERP012979
SAMEA4065871	ERX1589805	300	2016-10-03	6939	4815	ERR1518826	ERS1236981	SNU-GMI-PTC39	RNA-Seq	202	PRJEB11591	GMI, SNU	public	Illumina HiSeq 2000	PAIRED	RT-PCR	TRANSCRIPTOMIC	unspecified	Homo sapiens	ILLUMINA	2016-07-15	ERP012979
SAMEA4065872	ERX1589806	300	2016-10-03	7396	5417	ERR1518827	ERS1236982	SNU-GMI-PTC39-N	RNA-Seq	202	PRJEB11591	GMI, SNU	public	Illumina HiSeq 2000	PAIRED	RT-PCR	TRANSCRIPTOMIC	unspecified	Homo sapiens	ILLUMINA	2016-07-15	ERP012979
SAMEA4065873	ERX1589807	300	2016-10-03	6731	4658	ERR1518828	ERS1236983	SNU-GMI-PTC40	RNA-Seq	202	PRJEB11591	GMI, SNU	public	Illumina HiSeq 2000	PAIRED	RT-PCR	TRANSCRIPTOMIC	unspecified	Homo sapiens	ILLUMINA	2016-07-15	ERP012979
SAMEA4065874	ERX1589808	300	2016-10-03	5678	4155	ERR1518829	ERS1236984	SNU-GMI-PTC40-N	RNA-Seq	202	PRJEB11591	GMI, SNU	public	Illumina HiSeq 2000	PAIRED	RT-PCR	TRANSCRIPTOMIC	unspecified	Homo sapiens	ILLUMINA	2016-07-15	ERP012979
SAMEA4065875	ERX1589809	300	2016-10-03	6718	4687	ERR1518830	ERS1236985	SNU-GMI-PTC41	RNA-Seq	202	PRJEB11591	GMI, SNU	public	Illumina HiSeq 2000	PAIRED	RT-PCR	TRANSCRIPTOMIC	unspecified	Homo sapiens	ILLUMINA	2016-07-15	ERP012979
SAMEA4065876	ERX1589810	300	2016-10-03	6909	4806	ERR1518831	ERS1236986	SNU-GMI-PTC42	RNA-Seq	202	PRJEB11591	GMI, SNU	public	Illumina HiSeq 2000	PAIRED	RT-PCR	TRANSCRIPTOMIC	unspecified	Homo sapiens	ILLUMINA	2016-07-15	ERP012979
SAMEA4065877	ERX1589811	300	2016-10-03	7221	5306	ERR1518832	ERS1236987	SNU-GMI-PTC42-N	RNA-Seq	202	PRJEB11591	GMI, SNU	public	Illumina HiSeq 2000	PAIRED	RT-PCR	TRANSCRIPTOMIC	unspecified	Homo sapiens	ILLUMINA	2016-07-15	ERP012979
SAMEA4065878	ERX1589812	300	2016-10-03	8104	5613	ERR1518833	ERS1236988	SNU-GMI-PTC43	RNA-Seq	202	PRJEB11591	GMI, SNU	public	Illumina HiSeq 2000	PAIRED	RT-PCR	TRANSCRIPTOMIC	unspecified	Homo sapiens	ILLUMINA	2016-07-15	ERP012979
SAMEA4065879	ERX1589813	300	2016-10-03	7282	5110	ERR1518834	ERS1236989	SNU-GMI-PTC43-N	RNA-Seq	202	PRJEB11591	GMI, SNU	public	Illumina HiSeq 2000	PAIRED	RT-PCR	TRANSCRIPTOMIC	unspecified	Homo sapiens	ILLUMINA	2016-07-15	ERP012979
SAMEA4065880	ERX1589814	300	2016-10-03	5969	4147	ERR1518835	ERS1236990	SNU-GMI-PTC44	RNA-Seq	202	PRJEB11591	GMI, SNU	public	Illumina HiSeq 2000	PAIRED	RT-PCR	TRANSCRIPTOMIC	unspecified	Homo sapiens	ILLUMINA	2016-07-15	ERP012979
SAMEA4065881	ERX1589815	300	2016-10-03	8208	5721	ERR1518836	ERS1236991	SNU-GMI-PTC44-N	RNA-Seq	202	PRJEB11591	GMI, SNU	public	Illumina HiSeq 2000	PAIRED	RT-PCR	TRANSCRIPTOMIC	unspecified	Homo sapiens	ILLUMINA	2016-07-15	ERP012979
SAMEA4065882	ERX1589816	300	2016-10-03	7269	5094	ERR1518837	ERS1236992	SNU-GMI-PTC45	RNA-Seq	202	PRJEB11591	GMI, SNU	public	Illumina HiSeq 2000	PAIRED	RT-PCR	TRANSCRIPTOMIC	unspecified	Homo sapiens	ILLUMINA	2016-07-15	ERP012979
SAMEA4065883	ERX1589817	300	2016-10-03	7463	5236	ERR1518838	ERS1236993	SNU-GMI-PTC45-N	RNA-Seq	202	PRJEB11591	GMI, SNU	public	Illumina HiSeq 2000	PAIRED	RT-PCR	TRANSCRIPTOMIC	unspecified	Homo sapiens	ILLUMINA	2016-07-15	ERP012979
SAMEA4065884	ERX1589818	300	2016-10-03	6380	4416	ERR1518839	ERS1236994	SNU-GMI-PTC46	RNA-Seq	202	PRJEB11591	GMI, SNU	public	Illumina HiSeq 2000	PAIRED	RT-PCR	TRANSCRIPTOMIC	unspecified	Homo sapiens	ILLUMINA	2016-07-15	ERP012979
SAMEA4065885	ERX1589819	300	2016-10-03	6269	4351	ERR1518840	ERS1236995	SNU-GMI-PTC47	RNA-Seq	202	PRJEB11591	GMI, SNU	public	Illumina HiSeq 2000	PAIRED	RT-PCR	TRANSCRIPTOMIC	unspecified	Homo sapiens	ILLUMINA	2016-07-15	ERP012979
SAMEA4065886	ERX1589820	300	2016-10-03	7702	5351	ERR1518841	ERS1236996	SNU-GMI-PTC47-N	RNA-Seq	202	PRJEB11591	GMI, SNU	public	Illumina HiSeq 2000	PAIRED	RT-PCR	TRANSCRIPTOMIC	unspecified	Homo sapiens	ILLUMINA	2016-07-15	ERP012979
SAMEA4065887	ERX1589821	300	2016-10-03	5770	3963	ERR1518842	ERS1236997	SNU-GMI-PTC48	RNA-Seq	202	PRJEB11591	GMI, SNU	public	Illumina HiSeq 2000	PAIRED	RT-PCR	TRANSCRIPTOMIC	unspecified	Homo sapiens	ILLUMINA	2016-07-15	ERP012979
SAMEA4065888	ERX1589822	300	2016-10-03	6663	4614	ERR1518843	ERS1236998	SNU-GMI-PTC48-N	RNA-Seq	202	PRJEB11591	GMI, SNU	public	Illumina HiSeq 2000	PAIRED	RT-PCR	TRANSCRIPTOMIC	unspecified	Homo sapiens	ILLUMINA	2016-07-15	ERP012979
SAMEA4065889	ERX1589823	300	2016-10-03	7493	5160	ERR1518844	ERS1236999	SNU-GMI-PTC49	RNA-Seq	202	PRJEB11591	GMI, SNU	public	Illumina HiSeq 2000	PAIRED	RT-PCR	TRANSCRIPTOMIC	unspecified	Homo sapiens	ILLUMINA	2016-07-15	ERP012979
SAMEA4065890	ERX1589824	300	2016-10-03	6553	4566	ERR1518845	ERS1237000	SNU-GMI-PTC50	RNA-Seq	202	PRJEB11591	GMI, SNU	public	Illumina HiSeq 2000	PAIRED	RT-PCR	TRANSCRIPTOMIC	unspecified	Homo sapiens	ILLUMINA	2016-07-15	ERP012979
SAMEA4065891	ERX1589825	300	2016-10-03	6565	4531	ERR1518846	ERS1237001	SNU-GMI-PTC50-N	RNA-Seq	202	PRJEB11591	GMI, SNU	public	Illumina HiSeq 2000	PAIRED	RT-PCR	TRANSCRIPTOMIC	unspecified	Homo sapiens	ILLUMINA	2016-07-15	ERP012979
SAMEA4065892	ERX1589826	300	2016-10-03	6637	4559	ERR1518847	ERS1237002	SNU-GMI-PTC51	RNA-Seq	202	PRJEB11591	GMI, SNU	public	Illumina HiSeq 2000	PAIRED	RT-PCR	TRANSCRIPTOMIC	unspecified	Homo sapiens	ILLUMINA	2016-07-15	ERP012979
SAMEA4065893	ERX1589827	300	2016-10-03	6599	4555	ERR1518848	ERS1237003	SNU-GMI-PTC51-N	RNA-Seq	202	PRJEB11591	GMI, SNU	public	Illumina HiSeq 2000	PAIRED	RT-PCR	TRANSCRIPTOMIC	unspecified	Homo sapiens	ILLUMINA	2016-07-15	ERP012979
SAMEA4065894	ERX1589828	300	2016-10-03	5189	3562	ERR1518849	ERS1237004	SNU-GMI-PTC52	RNA-Seq	202	PRJEB11591	GMI, SNU	public	Illumina HiSeq 2000	PAIRED	RT-PCR	TRANSCRIPTOMIC	unspecified	Homo sapiens	ILLUMINA	2016-07-15	ERP012979
SAMEA4065895	ERX1589829	300	2016-10-03	7318	5104	ERR1518850	ERS1237005	SNU-GMI-PTC52-N	RNA-Seq	202	PRJEB11591	GMI, SNU	public	Illumina HiSeq 2000	PAIRED	RT-PCR	TRANSCRIPTOMIC	unspecified	Homo sapiens	ILLUMINA	2016-07-15	ERP012979
SAMEA4065896	ERX1589830	300	2016-10-03	6541	4502	ERR1518851	ERS1237006	SNU-GMI-PTC53	RNA-Seq	202	PRJEB11591	GMI, SNU	public	Illumina HiSeq 2000	PAIRED	RT-PCR	TRANSCRIPTOMIC	unspecified	Homo sapiens	ILLUMINA	2016-07-15	ERP012979
SAMEA4065897	ERX1589831	300	2016-10-03	3139	2181	ERR1518852	ERS1237007	SNU-GMI-PTC53-N	RNA-Seq	202	PRJEB11591	GMI, SNU	public	Illumina HiSeq 2000	PAIRED	RT-PCR	TRANSCRIPTOMIC	unspecified	Homo sapiens	ILLUMINA	2016-07-15	ERP012979
SAMEA4065898	ERX1589832	300	2016-10-03	5866	4095	ERR1518853	ERS1237008	SNU-GMI-PTC54	RNA-Seq	202	PRJEB11591	GMI, SNU	public	Illumina HiSeq 2000	PAIRED	RT-PCR	TRANSCRIPTOMIC	unspecified	Homo sapiens	ILLUMINA	2016-07-15	ERP012979
SAMEA4065899	ERX1589833	300	2016-10-03	6939	4819	ERR1518854	ERS1237009	SNU-GMI-PTC54-N	RNA-Seq	202	PRJEB11591	GMI, SNU	public	Illumina HiSeq 2000	PAIRED	RT-PCR	TRANSCRIPTOMIC	unspecified	Homo sapiens	ILLUMINA	2016-07-15	ERP012979
SAMEA4065900	ERX1589834	300	2016-10-03	5342	3725	ERR1518855	ERS1237010	SNU-GMI-PTC55	RNA-Seq	202	PRJEB11591	GMI, SNU	public	Illumina HiSeq 2000	PAIRED	RT-PCR	TRANSCRIPTOMIC	unspecified	Homo sapiens	ILLUMINA	2016-07-15	ERP012979
SAMEA4065901	ERX1589835	300	2016-10-03	5231	3617	ERR1518856	ERS1237011	SNU-GMI-PTC55-N	RNA-Seq	202	PRJEB11591	GMI, SNU	public	Illumina HiSeq 2000	PAIRED	RT-PCR	TRANSCRIPTOMIC	unspecified	Homo sapiens	ILLUMINA	2016-07-15	ERP012979
SAMEA4065902	ERX1589836	300	2016-10-03	6252	4366	ERR1518857	ERS1237012	SNU-GMI-PTC56	RNA-Seq	202	PRJEB11591	GMI, SNU	public	Illumina HiSeq 2000	PAIRED	RT-PCR	TRANSCRIPTOMIC	unspecified	Homo sapiens	ILLUMINA	2016-07-15	ERP012979
SAMEA4065903	ERX1589837	300	2016-10-03	6817	4735	ERR1518858	ERS1237013	SNU-GMI-PTC56-N	RNA-Seq	202	PRJEB11591	GMI, SNU	public	Illumina HiSeq 2000	PAIRED	RT-PCR	TRANSCRIPTOMIC	unspecified	Homo sapiens	ILLUMINA	2016-07-15	ERP012979
SAMEA4065904	ERX1589838	300	2016-10-03	7284	5084	ERR1518859	ERS1237014	SNU-GMI-PTC57	RNA-Seq	202	PRJEB11591	GMI, SNU	public	Illumina HiSeq 2000	PAIRED	RT-PCR	TRANSCRIPTOMIC	unspecified	Homo sapiens	ILLUMINA	2016-07-15	ERP012979
SAMEA4065905	ERX1589839	300	2016-10-03	7699	5350	ERR1518860	ERS1237015	SNU-GMI-PTC57-N	RNA-Seq	202	PRJEB11591	GMI, SNU	public	Illumina HiSeq 2000	PAIRED	RT-PCR	TRANSCRIPTOMIC	unspecified	Homo sapiens	ILLUMINA	2016-07-15	ERP012979
SAMEA4065906	ERX1589840	300	2016-10-03	4040	2747	ERR1518861	ERS1237016	SNU-GMI-PTC58	RNA-Seq	202	PRJEB11591	GMI, SNU	public	Illumina HiSeq 2000	PAIRED	RT-PCR	TRANSCRIPTOMIC	unspecified	Homo sapiens	ILLUMINA	2016-07-15	ERP012979
SAMEA4065907	ERX1589841	300	2016-10-03	6565	4531	ERR1518862	ERS1237017	SNU-GMI-PTC58-N	RNA-Seq	202	PRJEB11591	GMI, SNU	public	Illumina HiSeq 2000	PAIRED	RT-PCR	TRANSCRIPTOMIC	unspecified	Homo sapiens	ILLUMINA	2016-07-15	ERP012979
SAMEA4065908	ERX1589842	300	2016-10-03	5234	3588	ERR1518863	ERS1237018	SNU-GMI-PTC59	RNA-Seq	202	PRJEB11591	GMI, SNU	public	Illumina HiSeq 2000	PAIRED	RT-PCR	TRANSCRIPTOMIC	unspecified	Homo sapiens	ILLUMINA	2016-07-15	ERP012979
SAMEA4065909	ERX1589843	300	2016-10-03	6656	4565	ERR1518864	ERS1237019	SNU-GMI-PTC60	RNA-Seq	202	PRJEB11591	GMI, SNU	public	Illumina HiSeq 2000	PAIRED	RT-PCR	TRANSCRIPTOMIC	unspecified	Homo sapiens	ILLUMINA	2016-07-15	ERP012979
SAMEA4065910	ERX1589844	300	2016-10-03	5581	3828	ERR1518865	ERS1237020	SNU-GMI-PTC61	RNA-Seq	202	PRJEB11591	GMI, SNU	public	Illumina HiSeq 2000	PAIRED	RT-PCR	TRANSCRIPTOMIC	unspecified	Homo sapiens	ILLUMINA	2016-07-15	ERP012979
SAMEA4065911	ERX1589845	300	2016-10-03	8601	6001	ERR1518866	ERS1237021	SNU-GMI-PTC62	RNA-Seq	202	PRJEB11591	GMI, SNU	public	Illumina HiSeq 2000	PAIRED	RT-PCR	TRANSCRIPTOMIC	unspecified	Homo sapiens	ILLUMINA	2016-07-15	ERP012979
SAMEA4065912	ERX1589846	300	2016-10-03	5338	3649	ERR1518867	ERS1237022	SNU-GMI-PTC63	RNA-Seq	202	PRJEB11591	GMI, SNU	public	Illumina HiSeq 2000	PAIRED	RT-PCR	TRANSCRIPTOMIC	unspecified	Homo sapiens	ILLUMINA	2016-07-15	ERP012979
SAMEA4065913	ERX1589847	300	2016-10-03	7231	5047	ERR1518868	ERS1237023	SNU-GMI-PTC63-N	RNA-Seq	202	PRJEB11591	GMI, SNU	public	Illumina HiSeq 2000	PAIRED	RT-PCR	TRANSCRIPTOMIC	unspecified	Homo sapiens	ILLUMINA	2016-07-15	ERP012979
SAMEA4065914	ERX1589848	300	2016-10-03	6368	4399	ERR1518869	ERS1237024	SNU-GMI-PTC64	RNA-Seq	202	PRJEB11591	GMI, SNU	public	Illumina HiSeq 2000	PAIRED	RT-PCR	TRANSCRIPTOMIC	unspecified	Homo sapiens	ILLUMINA	2016-07-15	ERP012979
SAMEA4065915	ERX1589849	300	2016-10-03	6044	4177	ERR1518870	ERS1237025	SNU-GMI-PTC65	RNA-Seq	202	PRJEB11591	GMI, SNU	public	Illumina HiSeq 2000	PAIRED	RT-PCR	TRANSCRIPTOMIC	unspecified	Homo sapiens	ILLUMINA	2016-07-15	ERP012979
SAMEA4065916	ERX1589850	300	2016-10-03	5212	3597	ERR1518871	ERS1237026	SNU-GMI-PTC66	RNA-Seq	202	PRJEB11591	GMI, SNU	public	Illumina HiSeq 2000	PAIRED	RT-PCR	TRANSCRIPTOMIC	unspecified	Homo sapiens	ILLUMINA	2016-07-15	ERP012979
SAMEA4065917	ERX1589851	300	2016-10-03	5066	3508	ERR1518872	ERS1237027	SNU-GMI-PTC67	RNA-Seq	202	PRJEB11591	GMI, SNU	public	Illumina HiSeq 2000	PAIRED	RT-PCR	TRANSCRIPTOMIC	unspecified	Homo sapiens	ILLUMINA	2016-07-15	ERP012979
SAMEA4065918	ERX1589852	300	2016-10-03	7231	5047	ERR1518873	ERS1237028	SNU-GMI-PTC67-N	RNA-Seq	202	PRJEB11591	GMI, SNU	public	Illumina HiSeq 2000	PAIRED	RT-PCR	TRANSCRIPTOMIC	unspecified	Homo sapiens	ILLUMINA	2016-07-15	ERP012979
SAMEA4065919	ERX1589853	300	2016-10-03	5472	3785	ERR1518874	ERS1237029	SNU-GMI-PTC68	RNA-Seq	202	PRJEB11591	GMI, SNU	public	Illumina HiSeq 2000	PAIRED	RT-PCR	TRANSCRIPTOMIC	unspecified	Homo sapiens	ILLUMINA	2016-07-15	ERP012979
SAMEA4065920	ERX1589854	300	2016-10-03	5549	3865	ERR1518875	ERS1237030	SNU-GMI-PTC69	RNA-Seq	202	PRJEB11591	GMI, SNU	public	Illumina HiSeq 2000	PAIRED	RT-PCR	TRANSCRIPTOMIC	unspecified	Homo sapiens	ILLUMINA	2016-07-15	ERP012979
SAMEA4065921	ERX1589855	300	2016-10-03	6279	4391	ERR1518876	ERS1237031	SNU-GMI-PTC70	RNA-Seq	202	PRJEB11591	GMI, SNU	public	Illumina HiSeq 2000	PAIRED	RT-PCR	TRANSCRIPTOMIC	unspecified	Homo sapiens	ILLUMINA	2016-07-15	ERP012979
SAMEA4065922	ERX1589856	300	2016-10-03	5397	3725	ERR1518877	ERS1237032	SNU-GMI-PTC71	RNA-Seq	202	PRJEB11591	GMI, SNU	public	Illumina HiSeq 2000	PAIRED	RT-PCR	TRANSCRIPTOMIC	unspecified	Homo sapiens	ILLUMINA	2016-07-15	ERP012979
SAMEA4065923	ERX1589857	300	2016-10-03	5886	4090	ERR1518878	ERS1237033	SNU-GMI-PTC72	RNA-Seq	202	PRJEB11591	GMI, SNU	public	Illumina HiSeq 2000	PAIRED	RT-PCR	TRANSCRIPTOMIC	unspecified	Homo sapiens	ILLUMINA	2016-07-15	ERP012979
SAMEA4065924	ERX1589858	300	2016-10-03	3761	2554	ERR1518879	ERS1237034	SNU-GMI-PTC73	RNA-Seq	202	PRJEB11591	GMI, SNU	public	Illumina HiSeq 2000	PAIRED	RT-PCR	TRANSCRIPTOMIC	unspecified	Homo sapiens	ILLUMINA	2016-07-15	ERP012979
SAMEA4065925	ERX1589859	300	2016-10-03	6818	4994	ERR1518880	ERS1237035	SNU-GMI-PTC73-N	RNA-Seq	202	PRJEB11591	GMI, SNU	public	Illumina HiSeq 2000	PAIRED	RT-PCR	TRANSCRIPTOMIC	unspecified	Homo sapiens	ILLUMINA	2016-07-15	ERP012979
SAMEA4065926	ERX1589860	300	2016-10-03	6419	4420	ERR1518881	ERS1237036	SNU-GMI-PTC74	RNA-Seq	202	PRJEB11591	GMI, SNU	public	Illumina HiSeq 2000	PAIRED	RT-PCR	TRANSCRIPTOMIC	unspecified	Homo sapiens	ILLUMINA	2016-07-15	ERP012979
SAMEA4065927	ERX1589861	300	2016-10-03	5724	4207	ERR1518882	ERS1237037	SNU-GMI-PTC74-N	RNA-Seq	202	PRJEB11591	GMI, SNU	public	Illumina HiSeq 2000	PAIRED	RT-PCR	TRANSCRIPTOMIC	unspecified	Homo sapiens	ILLUMINA	2016-07-15	ERP012979
SAMEA4065928	ERX1589862	300	2016-10-03	6683	4869	ERR1518883	ERS1237038	SNU-GMI-PTC75	RNA-Seq	202	PRJEB11591	GMI, SNU	public	Illumina HiSeq 2000	PAIRED	RT-PCR	TRANSCRIPTOMIC	unspecified	Homo sapiens	ILLUMINA	2016-07-15	ERP012979
SAMEA4065929	ERX1589863	300	2016-10-03	6503	4738	ERR1518884	ERS1237039	SNU-GMI-PTC76	RNA-Seq	202	PRJEB11591	GMI, SNU	public	Illumina HiSeq 2000	PAIRED	RT-PCR	TRANSCRIPTOMIC	unspecified	Homo sapiens	ILLUMINA	2016-07-15	ERP012979
SAMEA4065930	ERX1589864	300	2016-10-03	6029	4255	ERR1518885	ERS1237040	SNU-GMI-PTC77	RNA-Seq	202	PRJEB11591	GMI, SNU	public	Illumina HiSeq 2000	PAIRED	RT-PCR	TRANSCRIPTOMIC	unspecified	Homo sapiens	ILLUMINA	2016-07-15	ERP012979
SAMEA4065931	ERX1589865	300	2016-10-03	5896	4151	ERR1518886	ERS1237041	SNU-GMI-PTC77-N	RNA-Seq	202	PRJEB11591	GMI, SNU	public	Illumina HiSeq 2000	PAIRED	RT-PCR	TRANSCRIPTOMIC	unspecified	Homo sapiens	ILLUMINA	2016-07-15	ERP012979
